Warning: Permanently added '2620:52:3:1:dead:beef:cafe:c14c' (ED25519) to the list of known hosts.

You can reproduce this build on your computer by running:

  sudo dnf install copr-rpmbuild
  /usr/bin/copr-rpmbuild --verbose --drop-resultdir --task-url https://copr.fedorainfracloud.org/backend/get-build-task/6854295-fedora-rawhide-x86_64 --chroot fedora-rawhide-x86_64


Version: 0.70
PID: 69915
Logging PID: 69916
Task:
{'appstream': False,
 'background': True,
 'build_id': 6854295,
 'buildroot_pkgs': [],
 'chroot': 'fedora-rawhide-x86_64',
 'enable_net': False,
 'fedora_review': False,
 'git_hash': '693e360e785e7e05e7d358a11b22a4601a99e9ab',
 'git_repo': 'https://copr-dist-git.fedorainfracloud.org/git/fberat/gcc-14_fulldeps_x86/scottfree',
 'isolation': 'default',
 'memory_reqs': 2048,
 'package_name': 'scottfree',
 'package_version': '1.14-27',
 'project_dirname': 'gcc-14_fulldeps_x86',
 'project_name': 'gcc-14_fulldeps_x86',
 'project_owner': 'fberat',
 'repo_priority': None,
 'repos': [{'baseurl': 'https://download.copr.fedorainfracloud.org/results/fberat/gcc-14_fulldeps_x86/fedora-rawhide-x86_64/',
            'id': 'copr_base',
            'name': 'Copr repository',
            'priority': None},
           {'baseurl': 'https://download.copr.fedorainfracloud.org/results/fberat/gcc-14_smoketest/fedora-rawhide-x86_64/',
            'id': 'copr_fberat_gcc_14_smoketest',
            'name': 'Additional repo copr_fberat_gcc_14_smoketest'}],
 'sandbox': 'fberat/gcc-14_fulldeps_x86--fberat',
 'source_json': {},
 'source_type': None,
 'submitter': 'fberat',
 'tags': [],
 'task_id': '6854295-fedora-rawhide-x86_64',
 'timeout': 115200,
 'uses_devel_repo': False,
 'with_opts': [],
 'without_opts': []}

Running: git clone https://copr-dist-git.fedorainfracloud.org/git/fberat/gcc-14_fulldeps_x86/scottfree /var/lib/copr-rpmbuild/workspace/workdir-80fh6grx/scottfree --depth 500 --no-single-branch --recursive

cmd: ['git', 'clone', 'https://copr-dist-git.fedorainfracloud.org/git/fberat/gcc-14_fulldeps_x86/scottfree', '/var/lib/copr-rpmbuild/workspace/workdir-80fh6grx/scottfree', '--depth', '500', '--no-single-branch', '--recursive']
cwd: .
rc: 0
stdout: 
stderr: Cloning into '/var/lib/copr-rpmbuild/workspace/workdir-80fh6grx/scottfree'...

Running: git checkout 693e360e785e7e05e7d358a11b22a4601a99e9ab --

cmd: ['git', 'checkout', '693e360e785e7e05e7d358a11b22a4601a99e9ab', '--']
cwd: /var/lib/copr-rpmbuild/workspace/workdir-80fh6grx/scottfree
rc: 0
stdout: 
stderr: Note: switching to '693e360e785e7e05e7d358a11b22a4601a99e9ab'.

You are in 'detached HEAD' state. You can look around, make experimental
changes and commit them, and you can discard any commits you make in this
state without impacting any branches by switching back to a branch.

If you want to create a new branch to retain commits you create, you may
do so (now or later) by using -c with the switch command. Example:

  git switch -c <new-branch-name>

Or undo this operation with:

  git switch -

Turn off this advice by setting config variable advice.detachedHead to false

HEAD is now at 693e360 automatic import of scottfree

Running: copr-distgit-client sources

cmd: ['copr-distgit-client', 'sources']
cwd: /var/lib/copr-rpmbuild/workspace/workdir-80fh6grx/scottfree
rc: 0
stdout: 
stderr: INFO: Reading stdout from command: git rev-parse --abbrev-ref HEAD
INFO: Reading stdout from command: git rev-parse HEAD
INFO: Reading sources specification file: sources
INFO: Downloading ScottFree.tar.gz
INFO: Reading stdout from command: curl --help all
INFO: Calling: curl -H Pragma: -o ScottFree.tar.gz --location --connect-timeout 60 --retry 3 --retry-delay 10 --remote-time --show-error --fail --retry-all-errors https://copr-dist-git.fedorainfracloud.org/repo/pkgs/fberat/gcc-14_fulldeps_x86/scottfree/ScottFree.tar.gz/md5/d7802a1fee4dc81d35eca76b75cac8eb/ScottFree.tar.gz
  % Total    % Received % Xferd  Average Speed   Time    Time     Time  Current
/usr/bin/tail: /var/lib/copr-rpmbuild/main.log: file truncated
                                 Dload  Upload   Total   Spent    Left  Speed
100 13921  100 13921    0     0   249k      0 --:--:-- --:--:-- --:--:--  251k
INFO: Reading stdout from command: md5sum ScottFree.tar.gz

Running (timeout=115200): unbuffer mock --spec /var/lib/copr-rpmbuild/workspace/workdir-80fh6grx/scottfree/scottfree.spec --sources /var/lib/copr-rpmbuild/workspace/workdir-80fh6grx/scottfree --resultdir /var/lib/copr-rpmbuild/results --uniqueext 1704300425.614041 -r /var/lib/copr-rpmbuild/results/configs/child.cfg
INFO: mock.py version 5.3 starting (python version = 3.11.3, NVR = mock-5.3-1.fc38), args: /usr/libexec/mock/mock --spec /var/lib/copr-rpmbuild/workspace/workdir-80fh6grx/scottfree/scottfree.spec --sources /var/lib/copr-rpmbuild/workspace/workdir-80fh6grx/scottfree --resultdir /var/lib/copr-rpmbuild/results --uniqueext 1704300425.614041 -r /var/lib/copr-rpmbuild/results/configs/child.cfg
Start(bootstrap): init plugins
INFO: tmpfs initialized
INFO: selinux enabled
INFO: chroot_scan: initialized
INFO: compress_logs: initialized
Finish(bootstrap): init plugins
Start: init plugins
INFO: tmpfs initialized
INFO: selinux enabled
INFO: chroot_scan: initialized
INFO: compress_logs: initialized
Finish: init plugins
INFO: Signal handler active
Start: run
INFO: Start(/var/lib/copr-rpmbuild/workspace/workdir-80fh6grx/scottfree/scottfree.spec)  Config(fedora-rawhide-x86_64)
Start: clean chroot
Finish: clean chroot
Mock Version: 5.3
INFO: Mock Version: 5.3
Start(bootstrap): chroot init
INFO: mounting tmpfs at /var/lib/mock/fedora-rawhide-x86_64-bootstrap-1704300425.614041/root.
INFO: calling preinit hooks
INFO: enabled root cache
INFO: enabled package manager cache
Start(bootstrap): cleaning package manager metadata
Finish(bootstrap): cleaning package manager metadata
INFO: Guessed host environment type: unknown
INFO: Using bootstrap image: registry.fedoraproject.org/fedora:rawhide
INFO: Pulling image: registry.fedoraproject.org/fedora:rawhide
INFO: Copy content of container registry.fedoraproject.org/fedora:rawhide to /var/lib/mock/fedora-rawhide-x86_64-bootstrap-1704300425.614041/root
INFO: Checking that registry.fedoraproject.org/fedora:rawhide image matches host's architecture
INFO: mounting registry.fedoraproject.org/fedora:rawhide with podman image mount
INFO: image registry.fedoraproject.org/fedora:rawhide as /var/lib/containers/storage/overlay/c069b2feab839a2711b6a9fdd2d87873fa2700a4173b6f4506bb0003ffe7e5d2/merged
INFO: umounting image registry.fedoraproject.org/fedora:rawhide (/var/lib/containers/storage/overlay/c069b2feab839a2711b6a9fdd2d87873fa2700a4173b6f4506bb0003ffe7e5d2/merged) with podman image umount
INFO: Package manager dnf detected and used (fallback)
INFO: Bootstrap image not marked ready
Start(bootstrap): installing dnf tooling
No matches found for the following disable plugin patterns: local, spacewalk, versionlock
Copr repository                                  73 MB/s |  52 MB     00:00    
Additional repo copr_fberat_gcc_14_smoketest    1.3 MB/s | 146 kB     00:00    
fedora                                           21 MB/s |  73 MB     00:03    
Package python3-dnf-4.18.2-1.fc40.noarch is already installed.
Dependencies resolved.
================================================================================
 Package                     Arch      Version               Repository    Size
================================================================================
Installing:
 python3-dnf-plugins-core    noarch    4.4.4-1.fc40          fedora       317 k
Installing dependencies:
 dbus-libs                   x86_64    1:1.14.10-1.fc40      fedora       155 k
 python3-dateutil            noarch    1:2.8.2-11.fc40       fedora       356 k
 python3-dbus                x86_64    1.3.2-4.fc39          fedora       157 k
 python3-distro              noarch    1.8.0-6.fc39          fedora        49 k
 python3-six                 noarch    1.16.0-12.fc39        fedora        41 k
 python3-systemd             x86_64    235-5.fc40            copr_base    101 k

Transaction Summary
================================================================================
Install  7 Packages

Total download size: 1.1 M
Installed size: 3.6 M
Downloading Packages:
(1/7): python3-systemd-235-5.fc40.x86_64.rpm    2.1 MB/s | 101 kB     00:00    
(2/7): dbus-libs-1.14.10-1.fc40.x86_64.rpm      835 kB/s | 155 kB     00:00    
(3/7): python3-distro-1.8.0-6.fc39.noarch.rpm   1.3 MB/s |  49 kB     00:00    
(4/7): python3-dateutil-2.8.2-11.fc40.noarch.rp 1.5 MB/s | 356 kB     00:00    
(5/7): python3-dbus-1.3.2-4.fc39.x86_64.rpm     863 kB/s | 157 kB     00:00    
(6/7): python3-six-1.16.0-12.fc39.noarch.rpm    1.2 MB/s |  41 kB     00:00    
(7/7): python3-dnf-plugins-core-4.4.4-1.fc40.no 3.9 MB/s | 317 kB     00:00    
--------------------------------------------------------------------------------
Total                                           3.4 MB/s | 1.1 MB     00:00     
Running transaction check
Transaction check succeeded.
Running transaction test
Transaction test succeeded.
Running transaction
  Preparing        :                                                        1/1 
  Installing       : python3-six-1.16.0-12.fc39.noarch                      1/7 
  Installing       : python3-dateutil-1:2.8.2-11.fc40.noarch                2/7 
  Installing       : python3-distro-1.8.0-6.fc39.noarch                     3/7 
  Installing       : dbus-libs-1:1.14.10-1.fc40.x86_64                      4/7 
  Installing       : python3-dbus-1.3.2-4.fc39.x86_64                       5/7 
  Installing       : python3-systemd-235-5.fc40.x86_64                      6/7 
  Installing       : python3-dnf-plugins-core-4.4.4-1.fc40.noarch           7/7 
  Running scriptlet: python3-dnf-plugins-core-4.4.4-1.fc40.noarch           7/7 

Installed:
  dbus-libs-1:1.14.10-1.fc40.x86_64                                             
  python3-dateutil-1:2.8.2-11.fc40.noarch                                       
  python3-dbus-1.3.2-4.fc39.x86_64                                              
  python3-distro-1.8.0-6.fc39.noarch                                            
  python3-dnf-plugins-core-4.4.4-1.fc40.noarch                                  
  python3-six-1.16.0-12.fc39.noarch                                             
  python3-systemd-235-5.fc40.x86_64                                             

Complete!
Finish(bootstrap): installing dnf tooling
Start(bootstrap): creating root cache
Finish(bootstrap): creating root cache
Finish(bootstrap): chroot init
Start: chroot init
INFO: mounting tmpfs at /var/lib/mock/fedora-rawhide-x86_64-1704300425.614041/root.
INFO: calling preinit hooks
INFO: enabled root cache
INFO: enabled package manager cache
Start: cleaning package manager metadata
Finish: cleaning package manager metadata
INFO: enabled HW Info plugin
INFO: Package manager dnf detected and used (direct choice)
INFO: Buildroot is handled by package management downloaded with a bootstrap image:
  rpm-4.19.1-2.fc40.x86_64
  rpm-sequoia-1.5.0-2.fc40.x86_64
  python3-dnf-4.18.2-1.fc40.noarch
  python3-dnf-plugins-core-4.4.4-1.fc40.noarch
  yum-4.18.2-1.fc40.noarch
Start: installing minimal buildroot with dnf
No matches found for the following disable plugin patterns: local, spacewalk, versionlock
Copr repository                                  23 kB/s | 1.5 kB     00:00    
Additional repo copr_fberat_gcc_14_smoketest     38 kB/s | 1.5 kB     00:00    
fedora                                          695 kB/s |  20 kB     00:00    
Dependencies resolved.
=======================================================================================================
 Package                         Arch    Version                    Repository                     Size
=======================================================================================================
Installing group/module packages:
 bash                            x86_64  5.2.21-2.fc40              copr_base                     1.8 M
 bzip2                           x86_64  1.0.8-16.fc40              copr_base                      53 k
 coreutils                       x86_64  9.4-1.fc40                 copr_base                     1.1 M
 cpio                            x86_64  2.14-5.fc40                copr_base                     275 k
 diffutils                       x86_64  3.10-3.fc40                copr_base                     398 k
 fedora-release-common           noarch  40-0.26                    fedora                         20 k
 findutils                       x86_64  1:4.9.0-6.fc40             copr_base                     485 k
 gawk                            x86_64  5.2.2-2.fc40               copr_base                     1.1 M
 glibc-minimal-langpack          x86_64  2.38.9000-29.fc40          fedora                         89 k
 grep                            x86_64  3.11-5.fc40                copr_base                     290 k
 gzip                            x86_64  1.12-6.fc40                copr_base                     160 k
 info                            x86_64  7.1-1.fc40                 copr_base                     186 k
 patch                           x86_64  2.7.6-22.fc40              copr_base                     132 k
 redhat-rpm-config               noarch  272-1.fc40                 fedora                         80 k
 rpm-build                       x86_64  4.19.1-2.fc40              copr_base                      72 k
 sed                             x86_64  4.8-14.fc40                copr_base                     299 k
 shadow-utils                    x86_64  2:4.14.0-2.fc40            copr_base                     1.2 M
 tar                             x86_64  2:1.35-2.fc40              copr_base                     857 k
 unzip                           x86_64  6.0-62.fc40                copr_base                     186 k
 util-linux                      x86_64  2.39.3-1.fc40              fedora                        1.2 M
 which                           x86_64  2.21-40.fc40               copr_base                      43 k
 xz                              x86_64  5.4.5-1.fc40               copr_base                     532 k
Installing dependencies:
 alternatives                    x86_64  1.25-1.fc40                copr_base                      39 k
 ansible-srpm-macros             noarch  1-11.fc39                  fedora                         21 k
 audit-libs                      x86_64  3.1.2-5.fc40               copr_base                     119 k
 authselect                      x86_64  1.4.3-1.fc40               copr_base                     145 k
 authselect-libs                 x86_64  1.4.3-1.fc40               copr_base                     236 k
 basesystem                      noarch  11-18.fc39                 fedora                        7.2 k
 binutils                        x86_64  2.41-17.fc40               copr_base                     6.3 M
 binutils-gold                   x86_64  2.41-17.fc40               copr_base                     801 k
 bzip2-libs                      x86_64  1.0.8-16.fc40              copr_base                      42 k
 ca-certificates                 noarch  2023.2.62_v7.0.401-4.fc40  fedora                        863 k
 coreutils-common                x86_64  9.4-1.fc40                 copr_base                     2.1 M
 cracklib                        x86_64  2.9.11-2.fc40              copr_base                      84 k
 crypto-policies                 noarch  20231204-1.git1e3a2e4.fc40 fedora                        100 k
 curl                            x86_64  8.5.0-1.fc40               fedora                        373 k
 cyrus-sasl-lib                  x86_64  2.1.28-11.fc39             fedora                        793 k
 debugedit                       x86_64  5.0-12.fc40                copr_base                      79 k
 dwz                             x86_64  0.15-3.fc40                copr_base                     138 k
 ed                              x86_64  1.19-4.fc40                copr_base                      79 k
 efi-srpm-macros                 noarch  5-9.fc39                   fedora                         22 k
 elfutils                        x86_64  0.190-4.fc40               fedora                        550 k
 elfutils-debuginfod-client      x86_64  0.190-4.fc40               fedora                         38 k
 elfutils-default-yama-scope     noarch  0.190-4.fc40               fedora                         13 k
 elfutils-libelf                 x86_64  0.190-4.fc40               fedora                        194 k
 elfutils-libs                   x86_64  0.190-4.fc40               fedora                        259 k
 fedora-gpg-keys                 noarch  40-0.2                     fedora                        130 k
 fedora-release                  noarch  40-0.26                    fedora                        9.7 k
 fedora-release-identity-basic   noarch  40-0.26                    fedora                         11 k
 fedora-repos                    noarch  40-0.2                     fedora                        9.3 k
 fedora-repos-rawhide            noarch  40-0.2                     fedora                        8.9 k
 file                            x86_64  5.45-1.fc40                fedora                         49 k
 file-libs                       x86_64  5.45-1.fc40                fedora                        763 k
 filesystem                      x86_64  3.18-6.fc39                fedora                        1.1 M
 fonts-srpm-macros               noarch  1:2.0.5-12.fc39            fedora                         26 k
 forge-srpm-macros               noarch  0.2.0-1.fc40               fedora                         18 k
 fpc-srpm-macros                 noarch  1.3-8.fc39                 fedora                        7.4 k
 gdb-minimal                     x86_64  14.1-1.fc40                fedora                        4.3 M
 gdbm                            x86_64  1:1.23-4.fc40              copr_base                     150 k
 gdbm-libs                       x86_64  1:1.23-4.fc40              copr_base                      57 k
 ghc-srpm-macros                 noarch  1.6.1-3.fc40               fedora                        8.1 k
 glibc                           x86_64  2.38.9000-29.fc40          fedora                        2.2 M
 glibc-common                    x86_64  2.38.9000-29.fc40          fedora                        371 k
 glibc-gconv-extra               x86_64  2.38.9000-29.fc40          fedora                        1.7 M
 gmp                             x86_64  1:6.2.1-5.fc40             copr_base                     314 k
 gnat-srpm-macros                noarch  6-3.fc39                   fedora                        8.8 k
 go-srpm-macros                  noarch  3.3.1-1.fc40               fedora                         28 k
 jansson                         x86_64  2.13.1-7.fc40              copr_base                      45 k
 kernel-srpm-macros              noarch  1.0-20.fc39                fedora                         10 k
 keyutils-libs                   x86_64  1.6.3-1.fc40               copr_base                      32 k
 krb5-libs                       x86_64  1.21.2-2.fc40              copr_base                     764 k
 libacl                          x86_64  2.3.1-11.fc40              copr_base                      24 k
 libarchive                      x86_64  3.7.2-1.fc40               copr_base                     410 k
 libattr                         x86_64  2.5.1-9.fc40               fedora                         18 k
 libblkid                        x86_64  2.39.3-1.fc40              fedora                        116 k
 libbrotli                       x86_64  1.1.0-1.fc40               copr_base                     339 k
 libcap                          x86_64  2.69-1.fc40                copr_base                      83 k
 libcap-ng                       x86_64  0.8.4-1.fc40               copr_base                      33 k
 libcom_err                      x86_64  1.47.0-2.fc40              copr_base                      27 k
 libcurl                         x86_64  8.5.0-1.fc40               fedora                        345 k
 libeconf                        x86_64  0.5.2-1.fc40               copr_base                      31 k
 libevent                        x86_64  2.1.12-9.fc40              copr_base                     258 k
 libfdisk                        x86_64  2.39.3-1.fc40              fedora                        162 k
 libffi                          x86_64  3.4.4-5.fc40               fedora                         39 k
 libgcc                          x86_64  14.0.0-0.4.fc40            copr_fberat_gcc_14_smoketest  109 k
 libgomp                         x86_64  14.0.0-0.4.fc40            copr_fberat_gcc_14_smoketest  325 k
 libidn2                         x86_64  2.3.4-3.fc40               copr_base                     111 k
 libmount                        x86_64  2.39.3-1.fc40              fedora                        154 k
 libnghttp2                      x86_64  1.58.0-1.fc40              copr_base                      76 k
 libnsl2                         x86_64  2.0.0-6.fc40               copr_base                      30 k
 libpkgconf                      x86_64  1.9.5-2.fc40               copr_base                      38 k
 libpsl                          x86_64  0.21.2-4.fc40              copr_base                      63 k
 libpwquality                    x86_64  1.4.5-6.fc40               copr_base                     109 k
 libselinux                      x86_64  3.6-1.fc40                 copr_base                      88 k
 libsemanage                     x86_64  3.6-1.fc40                 copr_base                     117 k
 libsepol                        x86_64  3.6-1.fc40                 copr_base                     341 k
 libsigsegv                      x86_64  2.14-5.fc40                copr_base                      27 k
 libsmartcols                    x86_64  2.39.3-1.fc40              fedora                         67 k
 libssh                          x86_64  0.10.6-2.fc40              fedora                        213 k
 libssh-config                   noarch  0.10.6-2.fc40              fedora                        9.1 k
 libstdc++                       x86_64  14.0.0-0.4.fc40            copr_fberat_gcc_14_smoketest  867 k
 libtasn1                        x86_64  4.19.0-3.fc40              copr_base                      75 k
 libtirpc                        x86_64  1.3.4-0.fc40               copr_base                      95 k
 libunistring                    x86_64  1.1-5.fc40                 copr_base                     548 k
 libutempter                     x86_64  1.2.1-10.fc40              copr_base                      27 k
 libuuid                         x86_64  2.39.3-1.fc40              fedora                         28 k
 libverto                        x86_64  0.3.2-6.fc39               fedora                         20 k
 libxcrypt                       x86_64  4.4.36-3.fc40              copr_base                     119 k
 libxml2                         x86_64  2.12.3-1.fc40              copr_base                     695 k
 libzstd                         x86_64  1.5.5-4.fc40               copr_base                     307 k
 lua-libs                        x86_64  5.4.6-3.fc39               fedora                        133 k
 lua-srpm-macros                 noarch  1-9.fc39                   fedora                        8.6 k
 lz4-libs                        x86_64  1.9.4-4.fc40               copr_base                      68 k
 mpfr                            x86_64  4.2.1-1.fc40               copr_base                     349 k
 ncurses-base                    noarch  6.4-8.20231001.fc40        copr_base                      64 k
 ncurses-libs                    x86_64  6.4-8.20231001.fc40        copr_base                     339 k
 ocaml-srpm-macros               noarch  9-1.fc40                   fedora                        9.0 k
 openblas-srpm-macros            noarch  2-14.fc39                  fedora                        7.5 k
 openldap                        x86_64  2.6.6-1.fc39               fedora                        255 k
 openssl-libs                    x86_64  1:3.1.4-1.fc40             copr_base                     2.2 M
 p11-kit                         x86_64  0.25.3-1.fc40              copr_base                     508 k
 p11-kit-trust                   x86_64  0.25.3-1.fc40              copr_base                     143 k
 package-notes-srpm-macros       noarch  0.5-9.fc39                 fedora                         11 k
 pam                             x86_64  1.5.3-9.fc40               copr_base                     511 k
 pam-libs                        x86_64  1.5.3-9.fc40               copr_base                      58 k
 pcre2                           x86_64  10.42-2.fc40               copr_base                     237 k
 pcre2-syntax                    noarch  10.42-2.fc40               copr_base                     144 k
 perl-srpm-macros                noarch  1-51.fc39                  fedora                        8.0 k
 pkgconf                         x86_64  1.9.5-2.fc40               copr_base                      43 k
 pkgconf-m4                      noarch  1.9.5-2.fc40               copr_base                      14 k
 pkgconf-pkg-config              x86_64  1.9.5-2.fc40               copr_base                      10 k
 popt                            x86_64  1.19-3.fc40                copr_base                      60 k
 publicsuffix-list-dafsa         noarch  20230812-1.fc40            fedora                         57 k
 pyproject-srpm-macros           noarch  1.11.0-1.fc40              fedora                         15 k
 python-srpm-macros              noarch  3.12-5.fc40                fedora                         25 k
 qt5-srpm-macros                 noarch  5.15.11-1.fc40             copr_base                     8.9 k
 qt6-srpm-macros                 noarch  6.6.1-2.fc40               fedora                        8.7 k
 readline                        x86_64  8.2-4.fc40                 copr_base                     214 k
 rpm                             x86_64  4.19.1-2.fc40              copr_base                     511 k
 rpm-build-libs                  x86_64  4.19.1-2.fc40              copr_base                      97 k
 rpm-libs                        x86_64  4.19.1-2.fc40              copr_base                     314 k
 rpm-sequoia                     x86_64  1.5.0-2.fc40               copr_base                     879 k
 rust-srpm-macros                noarch  25.2-2.fc40                fedora                         13 k
 setup                           noarch  2.14.5-1.fc40              fedora                        155 k
 sqlite-libs                     x86_64  3.44.2-1.fc40              copr_base                     700 k
 systemd-libs                    x86_64  255.1-1.fc40               copr_base                     718 k
 util-linux-core                 x86_64  2.39.3-1.fc40              fedora                        508 k
 xxhash-libs                     x86_64  0.8.2-1.fc40               copr_base                      38 k
 xz-libs                         x86_64  5.4.5-1.fc40               copr_base                     110 k
 zig-srpm-macros                 noarch  1-1.fc40                   fedora                        8.0 k
 zip                             x86_64  3.0-39.fc40                copr_base                     265 k
 zlib-ng-compat                  x86_64  2.1.5-1.fc40               copr_base                      78 k
 zstd                            x86_64  1.5.5-4.fc40               copr_base                     478 k
Installing Groups:
 Buildsystem building group                                                                            

Transaction Summary
=======================================================================================================
Install  153 Packages

Total size: 52 M
Installed size: 181 M
Downloading Packages:
[SKIPPED] alternatives-1.25-1.fc40.x86_64.rpm: Already downloaded              
[SKIPPED] audit-libs-3.1.2-5.fc40.x86_64.rpm: Already downloaded               
[SKIPPED] authselect-1.4.3-1.fc40.x86_64.rpm: Already downloaded               
[SKIPPED] authselect-libs-1.4.3-1.fc40.x86_64.rpm: Already downloaded          
[SKIPPED] bash-5.2.21-2.fc40.x86_64.rpm: Already downloaded                    
[SKIPPED] binutils-2.41-17.fc40.x86_64.rpm: Already downloaded                 
[SKIPPED] binutils-gold-2.41-17.fc40.x86_64.rpm: Already downloaded            
[SKIPPED] bzip2-1.0.8-16.fc40.x86_64.rpm: Already downloaded                   
[SKIPPED] bzip2-libs-1.0.8-16.fc40.x86_64.rpm: Already downloaded              
[SKIPPED] coreutils-9.4-1.fc40.x86_64.rpm: Already downloaded                  
[SKIPPED] coreutils-common-9.4-1.fc40.x86_64.rpm: Already downloaded           
[SKIPPED] cpio-2.14-5.fc40.x86_64.rpm: Already downloaded                      
[SKIPPED] cracklib-2.9.11-2.fc40.x86_64.rpm: Already downloaded                
[SKIPPED] debugedit-5.0-12.fc40.x86_64.rpm: Already downloaded                 
[SKIPPED] diffutils-3.10-3.fc40.x86_64.rpm: Already downloaded                 
[SKIPPED] dwz-0.15-3.fc40.x86_64.rpm: Already downloaded                       
[SKIPPED] ed-1.19-4.fc40.x86_64.rpm: Already downloaded                        
[SKIPPED] findutils-4.9.0-6.fc40.x86_64.rpm: Already downloaded                
[SKIPPED] gawk-5.2.2-2.fc40.x86_64.rpm: Already downloaded                     
[SKIPPED] gdbm-1.23-4.fc40.x86_64.rpm: Already downloaded                      
[SKIPPED] gdbm-libs-1.23-4.fc40.x86_64.rpm: Already downloaded                 
[SKIPPED] gmp-6.2.1-5.fc40.x86_64.rpm: Already downloaded                      
[SKIPPED] grep-3.11-5.fc40.x86_64.rpm: Already downloaded                      
[SKIPPED] gzip-1.12-6.fc40.x86_64.rpm: Already downloaded                      
[SKIPPED] info-7.1-1.fc40.x86_64.rpm: Already downloaded                       
[SKIPPED] jansson-2.13.1-7.fc40.x86_64.rpm: Already downloaded                 
[SKIPPED] keyutils-libs-1.6.3-1.fc40.x86_64.rpm: Already downloaded            
[SKIPPED] krb5-libs-1.21.2-2.fc40.x86_64.rpm: Already downloaded               
[SKIPPED] libacl-2.3.1-11.fc40.x86_64.rpm: Already downloaded                  
[SKIPPED] libarchive-3.7.2-1.fc40.x86_64.rpm: Already downloaded               
[SKIPPED] libbrotli-1.1.0-1.fc40.x86_64.rpm: Already downloaded                
[SKIPPED] libcap-2.69-1.fc40.x86_64.rpm: Already downloaded                    
[SKIPPED] libcap-ng-0.8.4-1.fc40.x86_64.rpm: Already downloaded                
[SKIPPED] libcom_err-1.47.0-2.fc40.x86_64.rpm: Already downloaded              
[SKIPPED] libeconf-0.5.2-1.fc40.x86_64.rpm: Already downloaded                 
[SKIPPED] libevent-2.1.12-9.fc40.x86_64.rpm: Already downloaded                
[SKIPPED] libidn2-2.3.4-3.fc40.x86_64.rpm: Already downloaded                  
[SKIPPED] libnghttp2-1.58.0-1.fc40.x86_64.rpm: Already downloaded              
[SKIPPED] libnsl2-2.0.0-6.fc40.x86_64.rpm: Already downloaded                  
[SKIPPED] libpkgconf-1.9.5-2.fc40.x86_64.rpm: Already downloaded               
[SKIPPED] libpsl-0.21.2-4.fc40.x86_64.rpm: Already downloaded                  
[SKIPPED] libpwquality-1.4.5-6.fc40.x86_64.rpm: Already downloaded             
[SKIPPED] libselinux-3.6-1.fc40.x86_64.rpm: Already downloaded                 
[SKIPPED] libsemanage-3.6-1.fc40.x86_64.rpm: Already downloaded                
[SKIPPED] libsepol-3.6-1.fc40.x86_64.rpm: Already downloaded                   
[SKIPPED] libsigsegv-2.14-5.fc40.x86_64.rpm: Already downloaded                
[SKIPPED] libtasn1-4.19.0-3.fc40.x86_64.rpm: Already downloaded                
[SKIPPED] libtirpc-1.3.4-0.fc40.x86_64.rpm: Already downloaded                 
[SKIPPED] libunistring-1.1-5.fc40.x86_64.rpm: Already downloaded               
[SKIPPED] libutempter-1.2.1-10.fc40.x86_64.rpm: Already downloaded             
[SKIPPED] libxcrypt-4.4.36-3.fc40.x86_64.rpm: Already downloaded               
[SKIPPED] libxml2-2.12.3-1.fc40.x86_64.rpm: Already downloaded                 
[SKIPPED] libzstd-1.5.5-4.fc40.x86_64.rpm: Already downloaded                  
[SKIPPED] lz4-libs-1.9.4-4.fc40.x86_64.rpm: Already downloaded                 
[SKIPPED] mpfr-4.2.1-1.fc40.x86_64.rpm: Already downloaded                     
[SKIPPED] ncurses-base-6.4-8.20231001.fc40.noarch.rpm: Already downloaded      
[SKIPPED] ncurses-libs-6.4-8.20231001.fc40.x86_64.rpm: Already downloaded      
[SKIPPED] openssl-libs-3.1.4-1.fc40.x86_64.rpm: Already downloaded             
[SKIPPED] p11-kit-0.25.3-1.fc40.x86_64.rpm: Already downloaded                 
[SKIPPED] p11-kit-trust-0.25.3-1.fc40.x86_64.rpm: Already downloaded           
[SKIPPED] pam-1.5.3-9.fc40.x86_64.rpm: Already downloaded                      
[SKIPPED] pam-libs-1.5.3-9.fc40.x86_64.rpm: Already downloaded                 
[SKIPPED] patch-2.7.6-22.fc40.x86_64.rpm: Already downloaded                   
[SKIPPED] pcre2-10.42-2.fc40.x86_64.rpm: Already downloaded                    
[SKIPPED] pcre2-syntax-10.42-2.fc40.noarch.rpm: Already downloaded             
[SKIPPED] pkgconf-1.9.5-2.fc40.x86_64.rpm: Already downloaded                  
[SKIPPED] pkgconf-m4-1.9.5-2.fc40.noarch.rpm: Already downloaded               
[SKIPPED] pkgconf-pkg-config-1.9.5-2.fc40.x86_64.rpm: Already downloaded       
[SKIPPED] popt-1.19-3.fc40.x86_64.rpm: Already downloaded                      
[SKIPPED] qt5-srpm-macros-5.15.11-1.fc40.noarch.rpm: Already downloaded        
[SKIPPED] readline-8.2-4.fc40.x86_64.rpm: Already downloaded                   
[SKIPPED] rpm-4.19.1-2.fc40.x86_64.rpm: Already downloaded                     
[SKIPPED] rpm-build-4.19.1-2.fc40.x86_64.rpm: Already downloaded               
[SKIPPED] rpm-build-libs-4.19.1-2.fc40.x86_64.rpm: Already downloaded          
[SKIPPED] rpm-libs-4.19.1-2.fc40.x86_64.rpm: Already downloaded                
[SKIPPED] rpm-sequoia-1.5.0-2.fc40.x86_64.rpm: Already downloaded              
[SKIPPED] sed-4.8-14.fc40.x86_64.rpm: Already downloaded                       
[SKIPPED] shadow-utils-4.14.0-2.fc40.x86_64.rpm: Already downloaded            
[SKIPPED] sqlite-libs-3.44.2-1.fc40.x86_64.rpm: Already downloaded             
[SKIPPED] systemd-libs-255.1-1.fc40.x86_64.rpm: Already downloaded             
[SKIPPED] tar-1.35-2.fc40.x86_64.rpm: Already downloaded                       
[SKIPPED] unzip-6.0-62.fc40.x86_64.rpm: Already downloaded                     
[SKIPPED] which-2.21-40.fc40.x86_64.rpm: Already downloaded                    
[SKIPPED] xxhash-libs-0.8.2-1.fc40.x86_64.rpm: Already downloaded              
[SKIPPED] xz-5.4.5-1.fc40.x86_64.rpm: Already downloaded                       
[SKIPPED] xz-libs-5.4.5-1.fc40.x86_64.rpm: Already downloaded                  
[SKIPPED] zip-3.0-39.fc40.x86_64.rpm: Already downloaded                       
[SKIPPED] zlib-ng-compat-2.1.5-1.fc40.x86_64.rpm: Already downloaded           
[SKIPPED] zstd-1.5.5-4.fc40.x86_64.rpm: Already downloaded                     
[SKIPPED] libgcc-14.0.0-0.4.fc40.x86_64.rpm: Already downloaded                
[SKIPPED] libgomp-14.0.0-0.4.fc40.x86_64.rpm: Already downloaded               
[SKIPPED] libstdc++-14.0.0-0.4.fc40.x86_64.rpm: Already downloaded             
[SKIPPED] ansible-srpm-macros-1-11.fc39.noarch.rpm: Already downloaded         
[SKIPPED] basesystem-11-18.fc39.noarch.rpm: Already downloaded                 
[SKIPPED] ca-certificates-2023.2.62_v7.0.401-4.fc40.noarch.rpm: Already downloaded
[SKIPPED] crypto-policies-20231204-1.git1e3a2e4.fc40.noarch.rpm: Already downloaded
[SKIPPED] curl-8.5.0-1.fc40.x86_64.rpm: Already downloaded                     
[SKIPPED] cyrus-sasl-lib-2.1.28-11.fc39.x86_64.rpm: Already downloaded         
[SKIPPED] efi-srpm-macros-5-9.fc39.noarch.rpm: Already downloaded              
[SKIPPED] elfutils-0.190-4.fc40.x86_64.rpm: Already downloaded                 
[SKIPPED] elfutils-debuginfod-client-0.190-4.fc40.x86_64.rpm: Already downloaded
[SKIPPED] elfutils-default-yama-scope-0.190-4.fc40.noarch.rpm: Already downloaded
[SKIPPED] elfutils-libelf-0.190-4.fc40.x86_64.rpm: Already downloaded          
[SKIPPED] elfutils-libs-0.190-4.fc40.x86_64.rpm: Already downloaded            
[SKIPPED] fedora-gpg-keys-40-0.2.noarch.rpm: Already downloaded                
[SKIPPED] fedora-release-40-0.26.noarch.rpm: Already downloaded                
[SKIPPED] fedora-release-common-40-0.26.noarch.rpm: Already downloaded         
[SKIPPED] fedora-release-identity-basic-40-0.26.noarch.rpm: Already downloaded 
[SKIPPED] fedora-repos-40-0.2.noarch.rpm: Already downloaded                   
[SKIPPED] fedora-repos-rawhide-40-0.2.noarch.rpm: Already downloaded           
[SKIPPED] file-5.45-1.fc40.x86_64.rpm: Already downloaded                      
[SKIPPED] file-libs-5.45-1.fc40.x86_64.rpm: Already downloaded                 
[SKIPPED] filesystem-3.18-6.fc39.x86_64.rpm: Already downloaded                
[SKIPPED] fonts-srpm-macros-2.0.5-12.fc39.noarch.rpm: Already downloaded       
[SKIPPED] forge-srpm-macros-0.2.0-1.fc40.noarch.rpm: Already downloaded        
[SKIPPED] fpc-srpm-macros-1.3-8.fc39.noarch.rpm: Already downloaded            
[SKIPPED] gdb-minimal-14.1-1.fc40.x86_64.rpm: Already downloaded               
[SKIPPED] ghc-srpm-macros-1.6.1-3.fc40.noarch.rpm: Already downloaded          
[SKIPPED] glibc-2.38.9000-29.fc40.x86_64.rpm: Already downloaded               
[SKIPPED] glibc-common-2.38.9000-29.fc40.x86_64.rpm: Already downloaded        
[SKIPPED] glibc-gconv-extra-2.38.9000-29.fc40.x86_64.rpm: Already downloaded   
[SKIPPED] glibc-minimal-langpack-2.38.9000-29.fc40.x86_64.rpm: Already downloaded
[SKIPPED] gnat-srpm-macros-6-3.fc39.noarch.rpm: Already downloaded             
[SKIPPED] go-srpm-macros-3.3.1-1.fc40.noarch.rpm: Already downloaded           
[SKIPPED] kernel-srpm-macros-1.0-20.fc39.noarch.rpm: Already downloaded        
[SKIPPED] libattr-2.5.1-9.fc40.x86_64.rpm: Already downloaded                  
[SKIPPED] libblkid-2.39.3-1.fc40.x86_64.rpm: Already downloaded                
[SKIPPED] libcurl-8.5.0-1.fc40.x86_64.rpm: Already downloaded                  
[SKIPPED] libfdisk-2.39.3-1.fc40.x86_64.rpm: Already downloaded                
[SKIPPED] libffi-3.4.4-5.fc40.x86_64.rpm: Already downloaded                   
[SKIPPED] libmount-2.39.3-1.fc40.x86_64.rpm: Already downloaded                
[SKIPPED] libsmartcols-2.39.3-1.fc40.x86_64.rpm: Already downloaded            
[SKIPPED] libssh-0.10.6-2.fc40.x86_64.rpm: Already downloaded                  
[SKIPPED] libssh-config-0.10.6-2.fc40.noarch.rpm: Already downloaded           
[SKIPPED] libuuid-2.39.3-1.fc40.x86_64.rpm: Already downloaded                 
[SKIPPED] libverto-0.3.2-6.fc39.x86_64.rpm: Already downloaded                 
[SKIPPED] lua-libs-5.4.6-3.fc39.x86_64.rpm: Already downloaded                 
[SKIPPED] lua-srpm-macros-1-9.fc39.noarch.rpm: Already downloaded              
[SKIPPED] ocaml-srpm-macros-9-1.fc40.noarch.rpm: Already downloaded            
[SKIPPED] openblas-srpm-macros-2-14.fc39.noarch.rpm: Already downloaded        
[SKIPPED] openldap-2.6.6-1.fc39.x86_64.rpm: Already downloaded                 
[SKIPPED] package-notes-srpm-macros-0.5-9.fc39.noarch.rpm: Already downloaded  
[SKIPPED] perl-srpm-macros-1-51.fc39.noarch.rpm: Already downloaded            
[SKIPPED] publicsuffix-list-dafsa-20230812-1.fc40.noarch.rpm: Already downloaded
[SKIPPED] pyproject-srpm-macros-1.11.0-1.fc40.noarch.rpm: Already downloaded   
[SKIPPED] python-srpm-macros-3.12-5.fc40.noarch.rpm: Already downloaded        
[SKIPPED] qt6-srpm-macros-6.6.1-2.fc40.noarch.rpm: Already downloaded          
[SKIPPED] redhat-rpm-config-272-1.fc40.noarch.rpm: Already downloaded          
[SKIPPED] rust-srpm-macros-25.2-2.fc40.noarch.rpm: Already downloaded          
[SKIPPED] setup-2.14.5-1.fc40.noarch.rpm: Already downloaded                   
[SKIPPED] util-linux-2.39.3-1.fc40.x86_64.rpm: Already downloaded              
[SKIPPED] util-linux-core-2.39.3-1.fc40.x86_64.rpm: Already downloaded         
[SKIPPED] zig-srpm-macros-1-1.fc40.noarch.rpm: Already downloaded              
fedora                                          1.6 MB/s | 1.6 kB     00:00    
Importing GPG key 0xA15B79CC:
 Userid     : "Fedora (40) <fedora-40-primary@fedoraproject.org>"
 Fingerprint: 115D F9AE F857 853E E844 5D0A 0727 707E A15B 79CC
 From       : /usr/share/distribution-gpg-keys/fedora/RPM-GPG-KEY-fedora-40-primary
Key imported successfully
fedora                                          1.6 MB/s | 1.6 kB     00:00    
GPG key at file:///usr/share/distribution-gpg-keys/fedora/RPM-GPG-KEY-fedora-40-primary (0xA15B79CC) is already installed
fedora                                          1.6 MB/s | 1.6 kB     00:00    
Importing GPG key 0x18B8E74C:
 Userid     : "Fedora (39) <fedora-39-primary@fedoraproject.org>"
 Fingerprint: E8F2 3996 F232 1864 0CB4 4CBE 75CF 5AC4 18B8 E74C
 From       : /usr/share/distribution-gpg-keys/fedora/RPM-GPG-KEY-fedora-39-primary
Key imported successfully
Running transaction check
Transaction check succeeded.
Running transaction test
Transaction test succeeded.
Running transaction
  Running scriptlet: filesystem-3.18-6.fc39.x86_64                          1/1 
  Preparing        :                                                        1/1 
  Installing       : libgcc-14.0.0-0.4.fc40.x86_64                        1/153 
  Running scriptlet: libgcc-14.0.0-0.4.fc40.x86_64                        1/153 
  Installing       : crypto-policies-20231204-1.git1e3a2e4.fc40.noarc     2/153 
  Running scriptlet: crypto-policies-20231204-1.git1e3a2e4.fc40.noarc     2/153 
  Installing       : fedora-release-identity-basic-40-0.26.noarch         3/153 
  Installing       : fedora-repos-rawhide-40-0.2.noarch                   4/153 
  Installing       : fedora-gpg-keys-40-0.2.noarch                        5/153 
  Installing       : fedora-repos-40-0.2.noarch                           6/153 
  Installing       : fedora-release-common-40-0.26.noarch                 7/153 
  Installing       : fedora-release-40-0.26.noarch                        8/153 
  Installing       : setup-2.14.5-1.fc40.noarch                           9/153 
warning: /etc/hosts created as /etc/hosts.rpmnew

  Running scriptlet: setup-2.14.5-1.fc40.noarch                           9/153 
  Installing       : filesystem-3.18-6.fc39.x86_64                       10/153 
  Installing       : basesystem-11-18.fc39.noarch                        11/153 
  Installing       : rust-srpm-macros-25.2-2.fc40.noarch                 12/153 
  Installing       : qt6-srpm-macros-6.6.1-2.fc40.noarch                 13/153 
  Installing       : publicsuffix-list-dafsa-20230812-1.fc40.noarch      14/153 
  Installing       : perl-srpm-macros-1-51.fc39.noarch                   15/153 
  Installing       : package-notes-srpm-macros-0.5-9.fc39.noarch         16/153 
  Installing       : openblas-srpm-macros-2-14.fc39.noarch               17/153 
  Installing       : ocaml-srpm-macros-9-1.fc40.noarch                   18/153 
  Installing       : libssh-config-0.10.6-2.fc40.noarch                  19/153 
  Installing       : kernel-srpm-macros-1.0-20.fc39.noarch               20/153 
  Installing       : gnat-srpm-macros-6-3.fc39.noarch                    21/153 
  Installing       : ghc-srpm-macros-1.6.1-3.fc40.noarch                 22/153 
  Installing       : fpc-srpm-macros-1.3-8.fc39.noarch                   23/153 
  Installing       : ansible-srpm-macros-1-11.fc39.noarch                24/153 
  Installing       : qt5-srpm-macros-5.15.11-1.fc40.noarch               25/153 
  Installing       : pkgconf-m4-1.9.5-2.fc40.noarch                      26/153 
  Installing       : pcre2-syntax-10.42-2.fc40.noarch                    27/153 
  Installing       : ncurses-base-6.4-8.20231001.fc40.noarch             28/153 
  Installing       : ncurses-libs-6.4-8.20231001.fc40.x86_64             29/153 
  Installing       : glibc-gconv-extra-2.38.9000-29.fc40.x86_64          30/153 
  Running scriptlet: glibc-gconv-extra-2.38.9000-29.fc40.x86_64          30/153 
  Running scriptlet: glibc-2.38.9000-29.fc40.x86_64                      31/153 
  Installing       : glibc-2.38.9000-29.fc40.x86_64                      31/153 
  Running scriptlet: glibc-2.38.9000-29.fc40.x86_64                      31/153 
  Installing       : bash-5.2.21-2.fc40.x86_64                           32/153 
  Running scriptlet: bash-5.2.21-2.fc40.x86_64                           32/153 
  Installing       : glibc-common-2.38.9000-29.fc40.x86_64               33/153 
  Installing       : glibc-minimal-langpack-2.38.9000-29.fc40.x86_64     34/153 
  Installing       : zlib-ng-compat-2.1.5-1.fc40.x86_64                  35/153 
  Installing       : xz-libs-5.4.5-1.fc40.x86_64                         36/153 
  Installing       : bzip2-libs-1.0.8-16.fc40.x86_64                     37/153 
  Installing       : libzstd-1.5.5-4.fc40.x86_64                         38/153 
  Installing       : elfutils-libelf-0.190-4.fc40.x86_64                 39/153 
  Installing       : popt-1.19-3.fc40.x86_64                             40/153 
  Installing       : readline-8.2-4.fc40.x86_64                          41/153 
  Installing       : libstdc++-14.0.0-0.4.fc40.x86_64                    42/153 
  Installing       : libuuid-2.39.3-1.fc40.x86_64                        43/153 
  Installing       : libblkid-2.39.3-1.fc40.x86_64                       44/153 
  Installing       : gmp-1:6.2.1-5.fc40.x86_64                           45/153 
  Installing       : libxcrypt-4.4.36-3.fc40.x86_64                      46/153 
  Installing       : libattr-2.5.1-9.fc40.x86_64                         47/153 
  Installing       : libacl-2.3.1-11.fc40.x86_64                         48/153 
  Installing       : gdbm-libs-1:1.23-4.fc40.x86_64                      49/153 
  Installing       : libeconf-0.5.2-1.fc40.x86_64                        50/153 
  Installing       : lz4-libs-1.9.4-4.fc40.x86_64                        51/153 
  Installing       : mpfr-4.2.1-1.fc40.x86_64                            52/153 
  Installing       : dwz-0.15-3.fc40.x86_64                              53/153 
  Installing       : unzip-6.0-62.fc40.x86_64                            54/153 
  Installing       : file-libs-5.45-1.fc40.x86_64                        55/153 
  Installing       : file-5.45-1.fc40.x86_64                             56/153 
  Installing       : alternatives-1.25-1.fc40.x86_64                     57/153 
  Installing       : jansson-2.13.1-7.fc40.x86_64                        58/153 
  Installing       : libcap-ng-0.8.4-1.fc40.x86_64                       59/153 
  Installing       : audit-libs-3.1.2-5.fc40.x86_64                      60/153 
  Installing       : pam-libs-1.5.3-9.fc40.x86_64                        61/153 
  Installing       : libcap-2.69-1.fc40.x86_64                           62/153 
  Installing       : systemd-libs-255.1-1.fc40.x86_64                    63/153 
  Installing       : libcom_err-1.47.0-2.fc40.x86_64                     64/153 
  Installing       : libsepol-3.6-1.fc40.x86_64                          65/153 
  Installing       : libtasn1-4.19.0-3.fc40.x86_64                       66/153 
  Installing       : libunistring-1.1-5.fc40.x86_64                      67/153 
  Installing       : libidn2-2.3.4-3.fc40.x86_64                         68/153 
  Installing       : pcre2-10.42-2.fc40.x86_64                           69/153 
  Installing       : libselinux-3.6-1.fc40.x86_64                        70/153 
  Installing       : sed-4.8-14.fc40.x86_64                              71/153 
  Installing       : grep-3.11-5.fc40.x86_64                             72/153 
  Installing       : findutils-1:4.9.0-6.fc40.x86_64                     73/153 
  Installing       : xz-5.4.5-1.fc40.x86_64                              74/153 
  Installing       : libmount-2.39.3-1.fc40.x86_64                       75/153 
  Installing       : libsmartcols-2.39.3-1.fc40.x86_64                   76/153 
  Installing       : lua-libs-5.4.6-3.fc39.x86_64                        77/153 
  Installing       : util-linux-core-2.39.3-1.fc40.x86_64                78/153 
  Installing       : libsemanage-3.6-1.fc40.x86_64                       79/153 
  Installing       : shadow-utils-2:4.14.0-2.fc40.x86_64                 80/153 
  Running scriptlet: libutempter-1.2.1-10.fc40.x86_64                    81/153 
  Installing       : libutempter-1.2.1-10.fc40.x86_64                    81/153 
  Installing       : tar-2:1.35-2.fc40.x86_64                            82/153 
  Installing       : libpsl-0.21.2-4.fc40.x86_64                         83/153 
  Installing       : zip-3.0-39.fc40.x86_64                              84/153 
  Installing       : zstd-1.5.5-4.fc40.x86_64                            85/153 
  Installing       : gdbm-1:1.23-4.fc40.x86_64                           86/153 
  Installing       : cyrus-sasl-lib-2.1.28-11.fc39.x86_64                87/153 
  Installing       : libfdisk-2.39.3-1.fc40.x86_64                       88/153 
  Installing       : bzip2-1.0.8-16.fc40.x86_64                          89/153 
  Installing       : libxml2-2.12.3-1.fc40.x86_64                        90/153 
  Installing       : sqlite-libs-3.44.2-1.fc40.x86_64                    91/153 
  Installing       : ed-1.19-4.fc40.x86_64                               92/153 
  Installing       : patch-2.7.6-22.fc40.x86_64                          93/153 
  Installing       : elfutils-default-yama-scope-0.190-4.fc40.noarch     94/153 
  Running scriptlet: elfutils-default-yama-scope-0.190-4.fc40.noarch     94/153 
  Installing       : cpio-2.14-5.fc40.x86_64                             95/153 
  Installing       : diffutils-3.10-3.fc40.x86_64                        96/153 
  Installing       : keyutils-libs-1.6.3-1.fc40.x86_64                   97/153 
  Installing       : libbrotli-1.1.0-1.fc40.x86_64                       98/153 
  Installing       : libnghttp2-1.58.0-1.fc40.x86_64                     99/153 
  Installing       : libpkgconf-1.9.5-2.fc40.x86_64                     100/153 
  Installing       : pkgconf-1.9.5-2.fc40.x86_64                        101/153 
  Installing       : pkgconf-pkg-config-1.9.5-2.fc40.x86_64             102/153 
  Installing       : libsigsegv-2.14-5.fc40.x86_64                      103/153 
  Installing       : gawk-5.2.2-2.fc40.x86_64                           104/153 
  Installing       : xxhash-libs-0.8.2-1.fc40.x86_64                    105/153 
  Installing       : libgomp-14.0.0-0.4.fc40.x86_64                     106/153 
  Installing       : libffi-3.4.4-5.fc40.x86_64                         107/153 
  Installing       : p11-kit-0.25.3-1.fc40.x86_64                       108/153 
  Installing       : p11-kit-trust-0.25.3-1.fc40.x86_64                 109/153 
  Running scriptlet: p11-kit-trust-0.25.3-1.fc40.x86_64                 109/153 
  Installing       : libverto-0.3.2-6.fc39.x86_64                       110/153 
  Installing       : coreutils-common-9.4-1.fc40.x86_64                 111/153 
  Installing       : openssl-libs-1:3.1.4-1.fc40.x86_64                 112/153 
  Installing       : coreutils-9.4-1.fc40.x86_64                        113/153 
  Running scriptlet: ca-certificates-2023.2.62_v7.0.401-4.fc40.noarch   114/153 
  Installing       : ca-certificates-2023.2.62_v7.0.401-4.fc40.noarch   114/153 
  Running scriptlet: ca-certificates-2023.2.62_v7.0.401-4.fc40.noarch   114/153 
  Installing       : krb5-libs-1.21.2-2.fc40.x86_64                     115/153 
  Installing       : libtirpc-1.3.4-0.fc40.x86_64                       116/153 
  Running scriptlet: authselect-libs-1.4.3-1.fc40.x86_64                117/153 
  Installing       : authselect-libs-1.4.3-1.fc40.x86_64                117/153 
  Installing       : gzip-1.12-6.fc40.x86_64                            118/153 
  Installing       : cracklib-2.9.11-2.fc40.x86_64                      119/153 
  Installing       : libpwquality-1.4.5-6.fc40.x86_64                   120/153 
  Installing       : authselect-1.4.3-1.fc40.x86_64                     121/153 
  Installing       : libnsl2-2.0.0-6.fc40.x86_64                        122/153 
  Installing       : pam-1.5.3-9.fc40.x86_64                            123/153 
  Installing       : libssh-0.10.6-2.fc40.x86_64                        124/153 
  Installing       : libarchive-3.7.2-1.fc40.x86_64                     125/153 
  Installing       : libevent-2.1.12-9.fc40.x86_64                      126/153 
  Installing       : openldap-2.6.6-1.fc39.x86_64                       127/153 
  Installing       : libcurl-8.5.0-1.fc40.x86_64                        128/153 
  Installing       : elfutils-libs-0.190-4.fc40.x86_64                  129/153 
  Installing       : elfutils-debuginfod-client-0.190-4.fc40.x86_64     130/153 
  Installing       : binutils-gold-2.41-17.fc40.x86_64                  131/153 
  Running scriptlet: binutils-gold-2.41-17.fc40.x86_64                  131/153 
  Installing       : binutils-2.41-17.fc40.x86_64                       132/153 
  Running scriptlet: binutils-2.41-17.fc40.x86_64                       132/153 
  Installing       : elfutils-0.190-4.fc40.x86_64                       133/153 
  Installing       : gdb-minimal-14.1-1.fc40.x86_64                     134/153 
  Installing       : debugedit-5.0-12.fc40.x86_64                       135/153 
  Installing       : curl-8.5.0-1.fc40.x86_64                           136/153 
  Installing       : rpm-sequoia-1.5.0-2.fc40.x86_64                    137/153 
  Installing       : rpm-libs-4.19.1-2.fc40.x86_64                      138/153 
  Running scriptlet: rpm-4.19.1-2.fc40.x86_64                           139/153 
  Installing       : rpm-4.19.1-2.fc40.x86_64                           139/153 
  Installing       : efi-srpm-macros-5-9.fc39.noarch                    140/153 
  Installing       : lua-srpm-macros-1-9.fc39.noarch                    141/153 
  Installing       : zig-srpm-macros-1-1.fc40.noarch                    142/153 
  Installing       : rpm-build-libs-4.19.1-2.fc40.x86_64                143/153 
  Installing       : fonts-srpm-macros-1:2.0.5-12.fc39.noarch           144/153 
  Installing       : forge-srpm-macros-0.2.0-1.fc40.noarch              145/153 
  Installing       : go-srpm-macros-3.3.1-1.fc40.noarch                 146/153 
  Installing       : python-srpm-macros-3.12-5.fc40.noarch              147/153 
  Installing       : redhat-rpm-config-272-1.fc40.noarch                148/153 
  Installing       : rpm-build-4.19.1-2.fc40.x86_64                     149/153 
  Installing       : pyproject-srpm-macros-1.11.0-1.fc40.noarch         150/153 
  Installing       : util-linux-2.39.3-1.fc40.x86_64                    151/153 
  Installing       : which-2.21-40.fc40.x86_64                          152/153 
  Installing       : info-7.1-1.fc40.x86_64                             153/153 
  Running scriptlet: filesystem-3.18-6.fc39.x86_64                      153/153 
  Running scriptlet: ca-certificates-2023.2.62_v7.0.401-4.fc40.noarch   153/153 
  Running scriptlet: authselect-libs-1.4.3-1.fc40.x86_64                153/153 
  Running scriptlet: rpm-4.19.1-2.fc40.x86_64                           153/153 
  Running scriptlet: info-7.1-1.fc40.x86_64                             153/153 

Installed:
  alternatives-1.25-1.fc40.x86_64                                               
  ansible-srpm-macros-1-11.fc39.noarch                                          
  audit-libs-3.1.2-5.fc40.x86_64                                                
  authselect-1.4.3-1.fc40.x86_64                                                
  authselect-libs-1.4.3-1.fc40.x86_64                                           
  basesystem-11-18.fc39.noarch                                                  
  bash-5.2.21-2.fc40.x86_64                                                     
  binutils-2.41-17.fc40.x86_64                                                  
  binutils-gold-2.41-17.fc40.x86_64                                             
  bzip2-1.0.8-16.fc40.x86_64                                                    
  bzip2-libs-1.0.8-16.fc40.x86_64                                               
  ca-certificates-2023.2.62_v7.0.401-4.fc40.noarch                              
  coreutils-9.4-1.fc40.x86_64                                                   
  coreutils-common-9.4-1.fc40.x86_64                                            
  cpio-2.14-5.fc40.x86_64                                                       
  cracklib-2.9.11-2.fc40.x86_64                                                 
  crypto-policies-20231204-1.git1e3a2e4.fc40.noarch                             
  curl-8.5.0-1.fc40.x86_64                                                      
  cyrus-sasl-lib-2.1.28-11.fc39.x86_64                                          
  debugedit-5.0-12.fc40.x86_64                                                  
  diffutils-3.10-3.fc40.x86_64                                                  
  dwz-0.15-3.fc40.x86_64                                                        
  ed-1.19-4.fc40.x86_64                                                         
  efi-srpm-macros-5-9.fc39.noarch                                               
  elfutils-0.190-4.fc40.x86_64                                                  
  elfutils-debuginfod-client-0.190-4.fc40.x86_64                                
  elfutils-default-yama-scope-0.190-4.fc40.noarch                               
  elfutils-libelf-0.190-4.fc40.x86_64                                           
  elfutils-libs-0.190-4.fc40.x86_64                                             
  fedora-gpg-keys-40-0.2.noarch                                                 
  fedora-release-40-0.26.noarch                                                 
  fedora-release-common-40-0.26.noarch                                          
  fedora-release-identity-basic-40-0.26.noarch                                  
  fedora-repos-40-0.2.noarch                                                    
  fedora-repos-rawhide-40-0.2.noarch                                            
  file-5.45-1.fc40.x86_64                                                       
  file-libs-5.45-1.fc40.x86_64                                                  
  filesystem-3.18-6.fc39.x86_64                                                 
  findutils-1:4.9.0-6.fc40.x86_64                                               
  fonts-srpm-macros-1:2.0.5-12.fc39.noarch                                      
  forge-srpm-macros-0.2.0-1.fc40.noarch                                         
  fpc-srpm-macros-1.3-8.fc39.noarch                                             
  gawk-5.2.2-2.fc40.x86_64                                                      
  gdb-minimal-14.1-1.fc40.x86_64                                                
  gdbm-1:1.23-4.fc40.x86_64                                                     
  gdbm-libs-1:1.23-4.fc40.x86_64                                                
  ghc-srpm-macros-1.6.1-3.fc40.noarch                                           
  glibc-2.38.9000-29.fc40.x86_64                                                
  glibc-common-2.38.9000-29.fc40.x86_64                                         
  glibc-gconv-extra-2.38.9000-29.fc40.x86_64                                    
  glibc-minimal-langpack-2.38.9000-29.fc40.x86_64                               
  gmp-1:6.2.1-5.fc40.x86_64                                                     
  gnat-srpm-macros-6-3.fc39.noarch                                              
  go-srpm-macros-3.3.1-1.fc40.noarch                                            
  grep-3.11-5.fc40.x86_64                                                       
  gzip-1.12-6.fc40.x86_64                                                       
  info-7.1-1.fc40.x86_64                                                        
  jansson-2.13.1-7.fc40.x86_64                                                  
  kernel-srpm-macros-1.0-20.fc39.noarch                                         
  keyutils-libs-1.6.3-1.fc40.x86_64                                             
  krb5-libs-1.21.2-2.fc40.x86_64                                                
  libacl-2.3.1-11.fc40.x86_64                                                   
  libarchive-3.7.2-1.fc40.x86_64                                                
  libattr-2.5.1-9.fc40.x86_64                                                   
  libblkid-2.39.3-1.fc40.x86_64                                                 
  libbrotli-1.1.0-1.fc40.x86_64                                                 
  libcap-2.69-1.fc40.x86_64                                                     
  libcap-ng-0.8.4-1.fc40.x86_64                                                 
  libcom_err-1.47.0-2.fc40.x86_64                                               
  libcurl-8.5.0-1.fc40.x86_64                                                   
  libeconf-0.5.2-1.fc40.x86_64                                                  
  libevent-2.1.12-9.fc40.x86_64                                                 
  libfdisk-2.39.3-1.fc40.x86_64                                                 
  libffi-3.4.4-5.fc40.x86_64                                                    
  libgcc-14.0.0-0.4.fc40.x86_64                                                 
  libgomp-14.0.0-0.4.fc40.x86_64                                                
  libidn2-2.3.4-3.fc40.x86_64                                                   
  libmount-2.39.3-1.fc40.x86_64                                                 
  libnghttp2-1.58.0-1.fc40.x86_64                                               
  libnsl2-2.0.0-6.fc40.x86_64                                                   
  libpkgconf-1.9.5-2.fc40.x86_64                                                
  libpsl-0.21.2-4.fc40.x86_64                                                   
  libpwquality-1.4.5-6.fc40.x86_64                                              
  libselinux-3.6-1.fc40.x86_64                                                  
  libsemanage-3.6-1.fc40.x86_64                                                 
  libsepol-3.6-1.fc40.x86_64                                                    
  libsigsegv-2.14-5.fc40.x86_64                                                 
  libsmartcols-2.39.3-1.fc40.x86_64                                             
  libssh-0.10.6-2.fc40.x86_64                                                   
  libssh-config-0.10.6-2.fc40.noarch                                            
  libstdc++-14.0.0-0.4.fc40.x86_64                                              
  libtasn1-4.19.0-3.fc40.x86_64                                                 
  libtirpc-1.3.4-0.fc40.x86_64                                                  
  libunistring-1.1-5.fc40.x86_64                                                
  libutempter-1.2.1-10.fc40.x86_64                                              
  libuuid-2.39.3-1.fc40.x86_64                                                  
  libverto-0.3.2-6.fc39.x86_64                                                  
  libxcrypt-4.4.36-3.fc40.x86_64                                                
  libxml2-2.12.3-1.fc40.x86_64                                                  
  libzstd-1.5.5-4.fc40.x86_64                                                   
  lua-libs-5.4.6-3.fc39.x86_64                                                  
  lua-srpm-macros-1-9.fc39.noarch                                               
  lz4-libs-1.9.4-4.fc40.x86_64                                                  
  mpfr-4.2.1-1.fc40.x86_64                                                      
  ncurses-base-6.4-8.20231001.fc40.noarch                                       
  ncurses-libs-6.4-8.20231001.fc40.x86_64                                       
  ocaml-srpm-macros-9-1.fc40.noarch                                             
  openblas-srpm-macros-2-14.fc39.noarch                                         
  openldap-2.6.6-1.fc39.x86_64                                                  
  openssl-libs-1:3.1.4-1.fc40.x86_64                                            
  p11-kit-0.25.3-1.fc40.x86_64                                                  
  p11-kit-trust-0.25.3-1.fc40.x86_64                                            
  package-notes-srpm-macros-0.5-9.fc39.noarch                                   
  pam-1.5.3-9.fc40.x86_64                                                       
  pam-libs-1.5.3-9.fc40.x86_64                                                  
  patch-2.7.6-22.fc40.x86_64                                                    
  pcre2-10.42-2.fc40.x86_64                                                     
  pcre2-syntax-10.42-2.fc40.noarch                                              
  perl-srpm-macros-1-51.fc39.noarch                                             
  pkgconf-1.9.5-2.fc40.x86_64                                                   
  pkgconf-m4-1.9.5-2.fc40.noarch                                                
  pkgconf-pkg-config-1.9.5-2.fc40.x86_64                                        
  popt-1.19-3.fc40.x86_64                                                       
  publicsuffix-list-dafsa-20230812-1.fc40.noarch                                
  pyproject-srpm-macros-1.11.0-1.fc40.noarch                                    
  python-srpm-macros-3.12-5.fc40.noarch                                         
  qt5-srpm-macros-5.15.11-1.fc40.noarch                                         
  qt6-srpm-macros-6.6.1-2.fc40.noarch                                           
  readline-8.2-4.fc40.x86_64                                                    
  redhat-rpm-config-272-1.fc40.noarch                                           
  rpm-4.19.1-2.fc40.x86_64                                                      
  rpm-build-4.19.1-2.fc40.x86_64                                                
  rpm-build-libs-4.19.1-2.fc40.x86_64                                           
  rpm-libs-4.19.1-2.fc40.x86_64                                                 
  rpm-sequoia-1.5.0-2.fc40.x86_64                                               
  rust-srpm-macros-25.2-2.fc40.noarch                                           
  sed-4.8-14.fc40.x86_64                                                        
  setup-2.14.5-1.fc40.noarch                                                    
  shadow-utils-2:4.14.0-2.fc40.x86_64                                           
  sqlite-libs-3.44.2-1.fc40.x86_64                                              
  systemd-libs-255.1-1.fc40.x86_64                                              
  tar-2:1.35-2.fc40.x86_64                                                      
  unzip-6.0-62.fc40.x86_64                                                      
  util-linux-2.39.3-1.fc40.x86_64                                               
  util-linux-core-2.39.3-1.fc40.x86_64                                          
  which-2.21-40.fc40.x86_64                                                     
  xxhash-libs-0.8.2-1.fc40.x86_64                                               
  xz-5.4.5-1.fc40.x86_64                                                        
  xz-libs-5.4.5-1.fc40.x86_64                                                   
  zig-srpm-macros-1-1.fc40.noarch                                               
  zip-3.0-39.fc40.x86_64                                                        
  zlib-ng-compat-2.1.5-1.fc40.x86_64                                            
  zstd-1.5.5-4.fc40.x86_64                                                      

Complete!
Finish: installing minimal buildroot with dnf
Start: creating root cache
Finish: creating root cache
Finish: chroot init
INFO: Installed packages:
INFO: alternatives-1.25-1.fc40.x86_64
ansible-srpm-macros-1-11.fc39.noarch
audit-libs-3.1.2-5.fc40.x86_64
authselect-1.4.3-1.fc40.x86_64
authselect-libs-1.4.3-1.fc40.x86_64
basesystem-11-18.fc39.noarch
bash-5.2.21-2.fc40.x86_64
binutils-2.41-17.fc40.x86_64
binutils-gold-2.41-17.fc40.x86_64
bzip2-1.0.8-16.fc40.x86_64
bzip2-libs-1.0.8-16.fc40.x86_64
ca-certificates-2023.2.62_v7.0.401-4.fc40.noarch
coreutils-9.4-1.fc40.x86_64
coreutils-common-9.4-1.fc40.x86_64
cpio-2.14-5.fc40.x86_64
cracklib-2.9.11-2.fc40.x86_64
crypto-policies-20231204-1.git1e3a2e4.fc40.noarch
curl-8.5.0-1.fc40.x86_64
cyrus-sasl-lib-2.1.28-11.fc39.x86_64
debugedit-5.0-12.fc40.x86_64
diffutils-3.10-3.fc40.x86_64
dwz-0.15-3.fc40.x86_64
ed-1.19-4.fc40.x86_64
efi-srpm-macros-5-9.fc39.noarch
elfutils-0.190-4.fc40.x86_64
elfutils-debuginfod-client-0.190-4.fc40.x86_64
elfutils-default-yama-scope-0.190-4.fc40.noarch
elfutils-libelf-0.190-4.fc40.x86_64
elfutils-libs-0.190-4.fc40.x86_64
fedora-gpg-keys-40-0.2.noarch
fedora-release-40-0.26.noarch
fedora-release-common-40-0.26.noarch
fedora-release-identity-basic-40-0.26.noarch
fedora-repos-40-0.2.noarch
fedora-repos-rawhide-40-0.2.noarch
file-5.45-1.fc40.x86_64
file-libs-5.45-1.fc40.x86_64
filesystem-3.18-6.fc39.x86_64
findutils-4.9.0-6.fc40.x86_64
fonts-srpm-macros-2.0.5-12.fc39.noarch
forge-srpm-macros-0.2.0-1.fc40.noarch
fpc-srpm-macros-1.3-8.fc39.noarch
gawk-5.2.2-2.fc40.x86_64
gdb-minimal-14.1-1.fc40.x86_64
gdbm-1.23-4.fc40.x86_64
gdbm-libs-1.23-4.fc40.x86_64
ghc-srpm-macros-1.6.1-3.fc40.noarch
glibc-2.38.9000-29.fc40.x86_64
glibc-common-2.38.9000-29.fc40.x86_64
glibc-gconv-extra-2.38.9000-29.fc40.x86_64
glibc-minimal-langpack-2.38.9000-29.fc40.x86_64
gmp-6.2.1-5.fc40.x86_64
gnat-srpm-macros-6-3.fc39.noarch
go-srpm-macros-3.3.1-1.fc40.noarch
gpg-pubkey-18b8e74c-62f2920f
gpg-pubkey-a15b79cc-63d04c2c
grep-3.11-5.fc40.x86_64
gzip-1.12-6.fc40.x86_64
info-7.1-1.fc40.x86_64
jansson-2.13.1-7.fc40.x86_64
kernel-srpm-macros-1.0-20.fc39.noarch
keyutils-libs-1.6.3-1.fc40.x86_64
krb5-libs-1.21.2-2.fc40.x86_64
libacl-2.3.1-11.fc40.x86_64
libarchive-3.7.2-1.fc40.x86_64
libattr-2.5.1-9.fc40.x86_64
libblkid-2.39.3-1.fc40.x86_64
libbrotli-1.1.0-1.fc40.x86_64
libcap-2.69-1.fc40.x86_64
libcap-ng-0.8.4-1.fc40.x86_64
libcom_err-1.47.0-2.fc40.x86_64
libcurl-8.5.0-1.fc40.x86_64
libeconf-0.5.2-1.fc40.x86_64
libevent-2.1.12-9.fc40.x86_64
libfdisk-2.39.3-1.fc40.x86_64
libffi-3.4.4-5.fc40.x86_64
libgcc-14.0.0-0.4.fc40.x86_64
libgomp-14.0.0-0.4.fc40.x86_64
libidn2-2.3.4-3.fc40.x86_64
libmount-2.39.3-1.fc40.x86_64
libnghttp2-1.58.0-1.fc40.x86_64
libnsl2-2.0.0-6.fc40.x86_64
libpkgconf-1.9.5-2.fc40.x86_64
libpsl-0.21.2-4.fc40.x86_64
libpwquality-1.4.5-6.fc40.x86_64
libselinux-3.6-1.fc40.x86_64
libsemanage-3.6-1.fc40.x86_64
libsepol-3.6-1.fc40.x86_64
libsigsegv-2.14-5.fc40.x86_64
libsmartcols-2.39.3-1.fc40.x86_64
libssh-0.10.6-2.fc40.x86_64
libssh-config-0.10.6-2.fc40.noarch
libstdc++-14.0.0-0.4.fc40.x86_64
libtasn1-4.19.0-3.fc40.x86_64
libtirpc-1.3.4-0.fc40.x86_64
libunistring-1.1-5.fc40.x86_64
libutempter-1.2.1-10.fc40.x86_64
libuuid-2.39.3-1.fc40.x86_64
libverto-0.3.2-6.fc39.x86_64
libxcrypt-4.4.36-3.fc40.x86_64
libxml2-2.12.3-1.fc40.x86_64
libzstd-1.5.5-4.fc40.x86_64
lua-libs-5.4.6-3.fc39.x86_64
lua-srpm-macros-1-9.fc39.noarch
lz4-libs-1.9.4-4.fc40.x86_64
mpfr-4.2.1-1.fc40.x86_64
ncurses-base-6.4-8.20231001.fc40.noarch
ncurses-libs-6.4-8.20231001.fc40.x86_64
ocaml-srpm-macros-9-1.fc40.noarch
openblas-srpm-macros-2-14.fc39.noarch
openldap-2.6.6-1.fc39.x86_64
openssl-libs-3.1.4-1.fc40.x86_64
p11-kit-0.25.3-1.fc40.x86_64
p11-kit-trust-0.25.3-1.fc40.x86_64
package-notes-srpm-macros-0.5-9.fc39.noarch
pam-1.5.3-9.fc40.x86_64
pam-libs-1.5.3-9.fc40.x86_64
patch-2.7.6-22.fc40.x86_64
pcre2-10.42-2.fc40.x86_64
pcre2-syntax-10.42-2.fc40.noarch
perl-srpm-macros-1-51.fc39.noarch
pkgconf-1.9.5-2.fc40.x86_64
pkgconf-m4-1.9.5-2.fc40.noarch
pkgconf-pkg-config-1.9.5-2.fc40.x86_64
popt-1.19-3.fc40.x86_64
publicsuffix-list-dafsa-20230812-1.fc40.noarch
pyproject-srpm-macros-1.11.0-1.fc40.noarch
python-srpm-macros-3.12-5.fc40.noarch
qt5-srpm-macros-5.15.11-1.fc40.noarch
qt6-srpm-macros-6.6.1-2.fc40.noarch
readline-8.2-4.fc40.x86_64
redhat-rpm-config-272-1.fc40.noarch
rpm-4.19.1-2.fc40.x86_64
rpm-build-4.19.1-2.fc40.x86_64
rpm-build-libs-4.19.1-2.fc40.x86_64
rpm-libs-4.19.1-2.fc40.x86_64
rpm-sequoia-1.5.0-2.fc40.x86_64
rust-srpm-macros-25.2-2.fc40.noarch
sed-4.8-14.fc40.x86_64
setup-2.14.5-1.fc40.noarch
shadow-utils-4.14.0-2.fc40.x86_64
sqlite-libs-3.44.2-1.fc40.x86_64
systemd-libs-255.1-1.fc40.x86_64
tar-1.35-2.fc40.x86_64
unzip-6.0-62.fc40.x86_64
util-linux-2.39.3-1.fc40.x86_64
util-linux-core-2.39.3-1.fc40.x86_64
which-2.21-40.fc40.x86_64
xxhash-libs-0.8.2-1.fc40.x86_64
xz-5.4.5-1.fc40.x86_64
xz-libs-5.4.5-1.fc40.x86_64
zig-srpm-macros-1-1.fc40.noarch
zip-3.0-39.fc40.x86_64
zlib-ng-compat-2.1.5-1.fc40.x86_64
zstd-1.5.5-4.fc40.x86_64
Start: buildsrpm
Start: rpmbuild -bs
Building target platforms: x86_64
Building for target x86_64
setting SOURCE_DATE_EPOCH=1689984000
Wrote: /builddir/build/SRPMS/scottfree-1.14-27.fc40.src.rpm
Finish: rpmbuild -bs
INFO: chroot_scan: 3 files copied to /var/lib/copr-rpmbuild/results/chroot_scan
INFO: /var/lib/mock/fedora-rawhide-x86_64-1704300425.614041/root/var/log/dnf.rpm.log
/var/lib/mock/fedora-rawhide-x86_64-1704300425.614041/root/var/log/dnf.librepo.log
/var/lib/mock/fedora-rawhide-x86_64-1704300425.614041/root/var/log/dnf.log
Finish: buildsrpm
INFO: Done(/var/lib/copr-rpmbuild/workspace/workdir-80fh6grx/scottfree/scottfree.spec) Config(child) 0 minutes 57 seconds
INFO: Results and/or logs in: /var/lib/copr-rpmbuild/results
INFO: Cleaning up build root ('cleanup_on_success=True')
Start: clean chroot
INFO: unmounting tmpfs.
Finish: clean chroot
INFO: Start(/var/lib/copr-rpmbuild/results/scottfree-1.14-27.fc40.src.rpm)  Config(fedora-rawhide-x86_64)
Start(bootstrap): chroot init
INFO: mounting tmpfs at /var/lib/mock/fedora-rawhide-x86_64-bootstrap-1704300425.614041/root.
INFO: reusing tmpfs at /var/lib/mock/fedora-rawhide-x86_64-bootstrap-1704300425.614041/root.
INFO: calling preinit hooks
INFO: enabled root cache
INFO: enabled package manager cache
Start(bootstrap): cleaning package manager metadata
Finish(bootstrap): cleaning package manager metadata
Finish(bootstrap): chroot init
Start: chroot init
INFO: mounting tmpfs at /var/lib/mock/fedora-rawhide-x86_64-1704300425.614041/root.
INFO: calling preinit hooks
INFO: enabled root cache
Start: unpacking root cache
Finish: unpacking root cache
INFO: enabled package manager cache
Start: cleaning package manager metadata
Finish: cleaning package manager metadata
INFO: enabled HW Info plugin
INFO: Buildroot is handled by package management downloaded with a bootstrap image:
  rpm-4.19.1-2.fc40.x86_64
  rpm-sequoia-1.5.0-2.fc40.x86_64
  python3-dnf-4.18.2-1.fc40.noarch
  python3-dnf-plugins-core-4.4.4-1.fc40.noarch
  yum-4.18.2-1.fc40.noarch
Finish: chroot init
Start: build phase for scottfree-1.14-27.fc40.src.rpm
Start: build setup for scottfree-1.14-27.fc40.src.rpm
Building target platforms: x86_64
Building for target x86_64
setting SOURCE_DATE_EPOCH=1689984000
Wrote: /builddir/build/SRPMS/scottfree-1.14-27.fc40.src.rpm
No matches found for the following disable plugin patterns: local, spacewalk, versionlock
Copr repository                                  46 kB/s | 1.5 kB     00:00    
Additional repo copr_fberat_gcc_14_smoketest     47 kB/s | 1.5 kB     00:00    
fedora                                          141 kB/s |  20 kB     00:00    
Dependencies resolved.
================================================================================
 Package          Arch   Version             Repository                    Size
================================================================================
Installing:
 gcc              x86_64 14.0.0-0.4.fc40     copr_fberat_gcc_14_smoketest  37 M
 make             x86_64 1:4.4.1-2.fc40      copr_base                    583 k
 ncurses-devel    x86_64 6.4-8.20231001.fc40 copr_base                    528 k
Installing dependencies:
 annobin-docs     noarch 12.34-1.fc40        copr_base                     92 k
 annobin-plugin-gcc
                  x86_64 12.34-1.fc40        copr_base                    959 k
 cpp              x86_64 14.0.0-0.4.fc40     copr_fberat_gcc_14_smoketest  12 M
 gc               x86_64 8.2.2-4.fc40        copr_base                    111 k
 gcc-plugin-annobin
                  x86_64 14.0.0-0.4.fc40     copr_fberat_gcc_14_smoketest  32 k
 glibc-devel      x86_64 2.38.9000-29.fc40   fedora                       104 k
 glibc-headers-x86
                  noarch 2.38.9000-29.fc40   fedora                       589 k
 guile22          x86_64 2.2.7-9.fc39        fedora                       6.5 M
 kernel-headers   x86_64 6.7.0-0.rc8.61.fc40 fedora                       1.6 M
 libmpc           x86_64 1.3.1-3.fc40        copr_base                     72 k
 libtool-ltdl     x86_64 2.4.7-8.fc40        copr_base                     37 k
 libxcrypt-devel  x86_64 4.4.36-3.fc40       copr_base                     29 k
 ncurses-c++-libs x86_64 6.4-8.20231001.fc40 copr_base                     38 k

Transaction Summary
================================================================================
Install  16 Packages

Total size: 60 M
Total download size: 566 k
Installed size: 194 M
Downloading Packages:
[SKIPPED] annobin-docs-12.34-1.fc40.noarch.rpm: Already downloaded             
[SKIPPED] annobin-plugin-gcc-12.34-1.fc40.x86_64.rpm: Already downloaded       
[SKIPPED] gc-8.2.2-4.fc40.x86_64.rpm: Already downloaded                       
[SKIPPED] libmpc-1.3.1-3.fc40.x86_64.rpm: Already downloaded                   
[SKIPPED] libtool-ltdl-2.4.7-8.fc40.x86_64.rpm: Already downloaded             
[SKIPPED] libxcrypt-devel-4.4.36-3.fc40.x86_64.rpm: Already downloaded         
[SKIPPED] make-4.4.1-2.fc40.x86_64.rpm: Already downloaded                     
[SKIPPED] cpp-14.0.0-0.4.fc40.x86_64.rpm: Already downloaded                   
[SKIPPED] gcc-14.0.0-0.4.fc40.x86_64.rpm: Already downloaded                   
[SKIPPED] gcc-plugin-annobin-14.0.0-0.4.fc40.x86_64.rpm: Already downloaded    
[SKIPPED] glibc-devel-2.38.9000-29.fc40.x86_64.rpm: Already downloaded         
[SKIPPED] glibc-headers-x86-2.38.9000-29.fc40.noarch.rpm: Already downloaded   
[SKIPPED] guile22-2.2.7-9.fc39.x86_64.rpm: Already downloaded                  
[SKIPPED] kernel-headers-6.7.0-0.rc8.61.fc40.x86_64.rpm: Already downloaded    
(15/16): ncurses-c++-libs-6.4-8.20231001.fc40.x 983 kB/s |  38 kB     00:00    
(16/16): ncurses-devel-6.4-8.20231001.fc40.x86_ 7.1 MB/s | 528 kB     00:00    
--------------------------------------------------------------------------------
Total                                           4.2 MB/s | 566 kB     00:00     
Running transaction check
Transaction check succeeded.
Running transaction test
Transaction test succeeded.
Running transaction
  Preparing        :                                                        1/1 
  Installing       : libmpc-1.3.1-3.fc40.x86_64                            1/16 
  Installing       : cpp-14.0.0-0.4.fc40.x86_64                            2/16 
  Installing       : kernel-headers-6.7.0-0.rc8.61.fc40.x86_64             3/16 
  Installing       : glibc-headers-x86-2.38.9000-29.fc40.noarch            4/16 
  Installing       : glibc-devel-2.38.9000-29.fc40.x86_64                  5/16 
  Installing       : libxcrypt-devel-4.4.36-3.fc40.x86_64                  6/16 
  Installing       : ncurses-c++-libs-6.4-8.20231001.fc40.x86_64           7/16 
  Installing       : libtool-ltdl-2.4.7-8.fc40.x86_64                      8/16 
  Installing       : gc-8.2.2-4.fc40.x86_64                                9/16 
  Installing       : guile22-2.2.7-9.fc39.x86_64                          10/16 
  Installing       : make-1:4.4.1-2.fc40.x86_64                           11/16 
  Installing       : gcc-14.0.0-0.4.fc40.x86_64                           12/16 
  Running scriptlet: gcc-14.0.0-0.4.fc40.x86_64                           12/16 
  Installing       : annobin-docs-12.34-1.fc40.noarch                     13/16 
  Installing       : annobin-plugin-gcc-12.34-1.fc40.x86_64               14/16 
  Running scriptlet: annobin-plugin-gcc-12.34-1.fc40.x86_64               14/16 
  Installing       : gcc-plugin-annobin-14.0.0-0.4.fc40.x86_64            15/16 
  Running scriptlet: gcc-plugin-annobin-14.0.0-0.4.fc40.x86_64            15/16 
  Installing       : ncurses-devel-6.4-8.20231001.fc40.x86_64             16/16 
  Running scriptlet: ncurses-devel-6.4-8.20231001.fc40.x86_64             16/16 

Installed:
  annobin-docs-12.34-1.fc40.noarch                                              
  annobin-plugin-gcc-12.34-1.fc40.x86_64                                        
  cpp-14.0.0-0.4.fc40.x86_64                                                    
  gc-8.2.2-4.fc40.x86_64                                                        
  gcc-14.0.0-0.4.fc40.x86_64                                                    
  gcc-plugin-annobin-14.0.0-0.4.fc40.x86_64                                     
  glibc-devel-2.38.9000-29.fc40.x86_64                                          
  glibc-headers-x86-2.38.9000-29.fc40.noarch                                    
  guile22-2.2.7-9.fc39.x86_64                                                   
  kernel-headers-6.7.0-0.rc8.61.fc40.x86_64                                     
  libmpc-1.3.1-3.fc40.x86_64                                                    
  libtool-ltdl-2.4.7-8.fc40.x86_64                                              
  libxcrypt-devel-4.4.36-3.fc40.x86_64                                          
  make-1:4.4.1-2.fc40.x86_64                                                    
  ncurses-c++-libs-6.4-8.20231001.fc40.x86_64                                   
  ncurses-devel-6.4-8.20231001.fc40.x86_64                                      

Complete!
Finish: build setup for scottfree-1.14-27.fc40.src.rpm
Start: rpmbuild scottfree-1.14-27.fc40.src.rpm
Building target platforms: x86_64
Building for target x86_64
setting SOURCE_DATE_EPOCH=1689984000
Executing(%prep): /bin/sh -e /var/tmp/rpm-tmp.tBo2nn
+ umask 022
+ cd /builddir/build/BUILD
+ cd /builddir/build/BUILD
+ rm -rf scottfree-1.14
+ /usr/bin/mkdir -p scottfree-1.14
+ cd scottfree-1.14
+ /usr/lib/rpm/rpmuncompress -x /builddir/build/SOURCES/ScottFree.tar.gz
+ STATUS=0
+ '[' 0 -ne 0 ']'
+ rm -rf /builddir/build/BUILD/scottfree-1.14-SPECPARTS
+ /usr/bin/mkdir -p /builddir/build/BUILD/scottfree-1.14-SPECPARTS
+ /usr/bin/chmod -Rf a+rX,u+w,g-w,o-w .
+ /usr/lib/rpm/rpmuncompress /builddir/build/SOURCES/scottfree-1.14-Makefile.patch
+ /usr/bin/patch -p1 -s --fuzz=0 --no-backup-if-mismatch -f
+ /usr/lib/rpm/rpmuncompress /builddir/build/SOURCES/scottfree-1.14-includes.patch
+ /usr/bin/patch -p1 -s --fuzz=0 --no-backup-if-mismatch -f
+ /usr/lib/rpm/rpmuncompress /builddir/build/SOURCES/scottfree-1.14-format_strings.patch
+ /usr/bin/patch -p1 -s --fuzz=0 --no-backup-if-mismatch -f
+ /usr/lib/rpm/rpmuncompress /builddir/build/SOURCES/scottfree-1.14-fscanf.patch
+ /usr/bin/patch -p1 -s --fuzz=0 --no-backup-if-mismatch -f
+ chmod 644 Definition Makefile README Scott.h ScottCurses.c
+ RPM_EC=0
++ jobs -p
+ exit 0
Executing(%build): /bin/sh -e /var/tmp/rpm-tmp.qdAyFf
+ umask 022
+ cd /builddir/build/BUILD
+ CFLAGS='-O2 -flto=auto -ffat-lto-objects -fexceptions -g -grecord-gcc-switches -pipe -Wall -Werror=format-security -Werror=implicit-function-declaration -Werror=implicit-int -Wp,-U_FORTIFY_SOURCE,-D_FORTIFY_SOURCE=3 -Wp,-D_GLIBCXX_ASSERTIONS -specs=/usr/lib/rpm/redhat/redhat-hardened-cc1 -fstack-protector-strong -specs=/usr/lib/rpm/redhat/redhat-annobin-cc1  -m64   -mtune=generic -fasynchronous-unwind-tables -fstack-clash-protection -fcf-protection -fno-omit-frame-pointer -mno-omit-leaf-frame-pointer '
+ export CFLAGS
+ CXXFLAGS='-O2 -flto=auto -ffat-lto-objects -fexceptions -g -grecord-gcc-switches -pipe -Wall -Werror=format-security -Wp,-U_FORTIFY_SOURCE,-D_FORTIFY_SOURCE=3 -Wp,-D_GLIBCXX_ASSERTIONS -specs=/usr/lib/rpm/redhat/redhat-hardened-cc1 -fstack-protector-strong -specs=/usr/lib/rpm/redhat/redhat-annobin-cc1  -m64   -mtune=generic -fasynchronous-unwind-tables -fstack-clash-protection -fcf-protection -fno-omit-frame-pointer -mno-omit-leaf-frame-pointer '
+ export CXXFLAGS
+ FFLAGS='-O2 -flto=auto -ffat-lto-objects -fexceptions -g -grecord-gcc-switches -pipe -Wall -Wp,-U_FORTIFY_SOURCE,-D_FORTIFY_SOURCE=3 -Wp,-D_GLIBCXX_ASSERTIONS -specs=/usr/lib/rpm/redhat/redhat-hardened-cc1 -fstack-protector-strong -specs=/usr/lib/rpm/redhat/redhat-annobin-cc1  -m64   -mtune=generic -fasynchronous-unwind-tables -fstack-clash-protection -fcf-protection -fno-omit-frame-pointer -mno-omit-leaf-frame-pointer -I/usr/lib64/gfortran/modules '
+ export FFLAGS
+ FCFLAGS='-O2 -flto=auto -ffat-lto-objects -fexceptions -g -grecord-gcc-switches -pipe -Wall -Wp,-U_FORTIFY_SOURCE,-D_FORTIFY_SOURCE=3 -Wp,-D_GLIBCXX_ASSERTIONS -specs=/usr/lib/rpm/redhat/redhat-hardened-cc1 -fstack-protector-strong -specs=/usr/lib/rpm/redhat/redhat-annobin-cc1  -m64   -mtune=generic -fasynchronous-unwind-tables -fstack-clash-protection -fcf-protection -fno-omit-frame-pointer -mno-omit-leaf-frame-pointer -I/usr/lib64/gfortran/modules '
+ export FCFLAGS
+ VALAFLAGS=-g
+ export VALAFLAGS
+ RUSTFLAGS='-Copt-level=3 -Cdebuginfo=2 -Ccodegen-units=1 -Cstrip=none -Cforce-frame-pointers=yes -Clink-arg=-Wl,-z,relro -Clink-arg=-Wl,-z,now -Clink-arg=-specs=/usr/lib/rpm/redhat/redhat-package-notes --cap-lints=warn'
+ export RUSTFLAGS
+ LDFLAGS='-Wl,-z,relro -Wl,--as-needed  -Wl,-z,now -specs=/usr/lib/rpm/redhat/redhat-hardened-ld -specs=/usr/lib/rpm/redhat/redhat-annobin-cc1  -Wl,--build-id=sha1 -specs=/usr/lib/rpm/redhat/redhat-package-notes '
+ export LDFLAGS
+ LT_SYS_LIBRARY_PATH=/usr/lib64:
+ export LT_SYS_LIBRARY_PATH
+ CC=gcc
+ export CC
+ CXX=g++
+ export CXX
+ cd scottfree-1.14
+ CFLAGS='-O2 -flto=auto -ffat-lto-objects -fexceptions -g -grecord-gcc-switches -pipe -Wall -Werror=format-security -Werror=implicit-function-declaration -Werror=implicit-int -Wp,-U_FORTIFY_SOURCE,-D_FORTIFY_SOURCE=3 -Wp,-D_GLIBCXX_ASSERTIONS -specs=/usr/lib/rpm/redhat/redhat-hardened-cc1 -fstack-protector-strong -specs=/usr/lib/rpm/redhat/redhat-annobin-cc1  -m64   -mtune=generic -fasynchronous-unwind-tables -fstack-clash-protection -fcf-protection -fno-omit-frame-pointer -mno-omit-leaf-frame-pointer '
+ export CFLAGS
+ CXXFLAGS='-O2 -flto=auto -ffat-lto-objects -fexceptions -g -grecord-gcc-switches -pipe -Wall -Werror=format-security -Wp,-U_FORTIFY_SOURCE,-D_FORTIFY_SOURCE=3 -Wp,-D_GLIBCXX_ASSERTIONS -specs=/usr/lib/rpm/redhat/redhat-hardened-cc1 -fstack-protector-strong -specs=/usr/lib/rpm/redhat/redhat-annobin-cc1  -m64   -mtune=generic -fasynchronous-unwind-tables -fstack-clash-protection -fcf-protection -fno-omit-frame-pointer -mno-omit-leaf-frame-pointer '
+ export CXXFLAGS
+ FFLAGS='-O2 -flto=auto -ffat-lto-objects -fexceptions -g -grecord-gcc-switches -pipe -Wall -Wp,-U_FORTIFY_SOURCE,-D_FORTIFY_SOURCE=3 -Wp,-D_GLIBCXX_ASSERTIONS -specs=/usr/lib/rpm/redhat/redhat-hardened-cc1 -fstack-protector-strong -specs=/usr/lib/rpm/redhat/redhat-annobin-cc1  -m64   -mtune=generic -fasynchronous-unwind-tables -fstack-clash-protection -fcf-protection -fno-omit-frame-pointer -mno-omit-leaf-frame-pointer -I/usr/lib64/gfortran/modules '
+ export FFLAGS
+ FCFLAGS='-O2 -flto=auto -ffat-lto-objects -fexceptions -g -grecord-gcc-switches -pipe -Wall -Wp,-U_FORTIFY_SOURCE,-D_FORTIFY_SOURCE=3 -Wp,-D_GLIBCXX_ASSERTIONS -specs=/usr/lib/rpm/redhat/redhat-hardened-cc1 -fstack-protector-strong -specs=/usr/lib/rpm/redhat/redhat-annobin-cc1  -m64   -mtune=generic -fasynchronous-unwind-tables -fstack-clash-protection -fcf-protection -fno-omit-frame-pointer -mno-omit-leaf-frame-pointer -I/usr/lib64/gfortran/modules '
+ export FCFLAGS
+ VALAFLAGS=-g
+ export VALAFLAGS
+ RUSTFLAGS='-Copt-level=3 -Cdebuginfo=2 -Ccodegen-units=1 -Cstrip=none -Cforce-frame-pointers=yes -Clink-arg=-Wl,-z,relro -Clink-arg=-Wl,-z,now -Clink-arg=-specs=/usr/lib/rpm/redhat/redhat-package-notes --cap-lints=warn'
+ export RUSTFLAGS
+ LDFLAGS='-Wl,-z,relro -Wl,--as-needed  -Wl,-z,now -specs=/usr/lib/rpm/redhat/redhat-hardened-ld -specs=/usr/lib/rpm/redhat/redhat-annobin-cc1  -Wl,--build-id=sha1 -specs=/usr/lib/rpm/redhat/redhat-package-notes '
+ export LDFLAGS
+ LT_SYS_LIBRARY_PATH=/usr/lib64:
+ export LT_SYS_LIBRARY_PATH
+ CC=gcc
+ export CC
+ CXX=g++
+ export CXX
+ /usr/bin/make -O -j2 V=1 VERBOSE=1
gcc -O2 -flto=auto -ffat-lto-objects -fexceptions -g -grecord-gcc-switches -pipe -Wall -Werror=format-security -Werror=implicit-function-declaration -Werror=implicit-int -Wp,-U_FORTIFY_SOURCE,-D_FORTIFY_SOURCE=3 -Wp,-D_GLIBCXX_ASSERTIONS -specs=/usr/lib/rpm/redhat/redhat-hardened-cc1 -fstack-protector-strong -specs=/usr/lib/rpm/redhat/redhat-annobin-cc1  -m64   -mtune=generic -fasynchronous-unwind-tables -fstack-clash-protection -fcf-protection -fno-omit-frame-pointer -mno-omit-leaf-frame-pointer    -c -o ScottCurses.o ScottCurses.c
ScottCurses.c: In function ‘ReadString’:
ScottCurses.c:198:1: warning: label ‘oops’ defined but not used [-Wunused-label]
  198 | oops:   do
      | ^~~~
ScottCurses.c: In function ‘PerformActions’:
ScottCurses.c:1168:49: error: ‘return’ with no value, in function returning non-void [-Wreturn-mismatch]
 1168 |                                                 return;
      |                                                 ^~~~~~
ScottCurses.c:1094:5: note: declared here
 1094 | int PerformActions(int vb,int no)
      |     ^~~~~~~~~~~~~~
ScottCurses.c: At top level:
ScottCurses.c:1302:6: warning: return type of ‘main’ is not ‘int’ [-Wmain]
 1302 | void main(int argc, char *argv[])
      |      ^~~~
ScottCurses.c: In function ‘LoadDatabase’:
ScottCurses.c:303:17: warning: ignoring return value of ‘fscanf’ declared with attribute ‘warn_unused_result’ [-Wunused-result]
  303 |                 fscanf(f,"%hd %hd %hd %hd %hd %hd",
      |                 ^~~~~~~~~~~~~~~~~~~~~~~~~~~~~~~~~~~
  304 |                         &rp->Exits[0],&rp->Exits[1],&rp->Exits[2],
      |                         ~~~~~~~~~~~~~~~~~~~~~~~~~~~~~~~~~~~~~~~~~~
  305 |                         &rp->Exits[3],&rp->Exits[4],&rp->Exits[5]);
      |                         ~~~~~~~~~~~~~~~~~~~~~~~~~~~~~~~~~~~~~~~~~~
ScottCurses.c:335:17: warning: ignoring return value of ‘fscanf’ declared with attribute ‘warn_unused_result’ [-Wunused-result]
  335 |                 fscanf(f,"%hd",&lo);
      |                 ^~~~~~~~~~~~~~~~~~~
ScottCurses.c:348:9: warning: ignoring return value of ‘fscanf’ declared with attribute ‘warn_unused_result’ [-Wunused-result]
  348 |         fscanf(f,"%d",&ct);
      |         ^~~~~~~~~~~~~~~~~~
ScottCurses.c:352:9: warning: ignoring return value of ‘fscanf’ declared with attribute ‘warn_unused_result’ [-Wunused-result]
  352 |         fscanf(f,"%d",&ct);
      |         ^~~~~~~~~~~~~~~~~~
ScottCurses.c: In function ‘LoadGame’:
ScottCurses.c:695:17: warning: ignoring return value of ‘fscanf’ declared with attribute ‘warn_unused_result’ [-Wunused-result]
  695 |                 fscanf(f,"%d %d\n",&Counters[ct],&RoomSaved[ct]);
      |                 ^~~~~~~~~~~~~~~~~~~~~~~~~~~~~~~~~~~~~~~~~~~~~~~~
ScottCurses.c:697:9: warning: ignoring return value of ‘fscanf’ declared with attribute ‘warn_unused_result’ [-Wunused-result]
  697 |         fscanf(f,"%ld %hd %hd %d %d %hd\n",
      |         ^~~~~~~~~~~~~~~~~~~~~~~~~~~~~~~~~~~
  698 |                 &BitFlags,&DarkFlag,&MyLoc,&CurrentCounter,&SavedRoom,
      |                 ~~~~~~~~~~~~~~~~~~~~~~~~~~~~~~~~~~~~~~~~~~~~~~~~~~~~~~
  699 |                 &GameHeader.LightTime);
      |                 ~~~~~~~~~~~~~~~~~~~~~~
ScottCurses.c:705:17: warning: ignoring return value of ‘fscanf’ declared with attribute ‘warn_unused_result’ [-Wunused-result]
  705 |                 fscanf(f,"%hd\n",&lo);
      |                 ^~~~~~~~~~~~~~~~~~~~~
make: *** [<builtin>: ScottCurses.o] Error 1
error: Bad exit status from /var/tmp/rpm-tmp.qdAyFf (%build)

RPM build errors:
    Bad exit status from /var/tmp/rpm-tmp.qdAyFf (%build)
Finish: rpmbuild scottfree-1.14-27.fc40.src.rpm
Finish: build phase for scottfree-1.14-27.fc40.src.rpm
INFO: chroot_scan: 3 files copied to /var/lib/copr-rpmbuild/results/chroot_scan
INFO: /var/lib/mock/fedora-rawhide-x86_64-1704300425.614041/root/var/log/dnf.rpm.log
/var/lib/mock/fedora-rawhide-x86_64-1704300425.614041/root/var/log/dnf.librepo.log
/var/lib/mock/fedora-rawhide-x86_64-1704300425.614041/root/var/log/dnf.log
ERROR: Exception(/var/lib/copr-rpmbuild/results/scottfree-1.14-27.fc40.src.rpm) Config(fedora-rawhide-x86_64) 0 minutes 6 seconds
INFO: Results and/or logs in: /var/lib/copr-rpmbuild/results
INFO: Cleaning up build root ('cleanup_on_failure=True')
Start: clean chroot
INFO: unmounting tmpfs.
Finish: clean chroot
ERROR: Command failed: 
 # /usr/bin/systemd-nspawn -q -M 983b66d55f6046adaccab6febfd12e95 -D /var/lib/mock/fedora-rawhide-x86_64-1704300425.614041/root -a -u mockbuild --capability=cap_ipc_lock --rlimit=RLIMIT_NOFILE=10240 --capability=cap_ipc_lock --bind=/tmp/mock-resolv.vqj9fsol:/etc/resolv.conf --bind=/dev/btrfs-control --bind=/dev/mapper/control --bind=/dev/fuse --bind=/dev/loop-control --bind=/dev/loop0 --bind=/dev/loop1 --bind=/dev/loop2 --bind=/dev/loop3 --bind=/dev/loop4 --bind=/dev/loop5 --bind=/dev/loop6 --bind=/dev/loop7 --bind=/dev/loop8 --bind=/dev/loop9 --bind=/dev/loop10 --bind=/dev/loop11 --console=pipe --setenv=TERM=vt100 --setenv=SHELL=/bin/bash --setenv=HOME=/builddir --setenv=HOSTNAME=mock --setenv=PATH=/usr/bin:/bin:/usr/sbin:/sbin '--setenv=PROMPT_COMMAND=printf "\033]0;<mock-chroot>\007"' '--setenv=PS1=<mock-chroot> \s-\v\$ ' --setenv=LANG=C.UTF-8 --resolv-conf=off bash --login -c '/usr/bin/rpmbuild -bb  --target x86_64 --nodeps /builddir/build/originals/scottfree.spec'

Copr build error: Build failed
