Warning: Permanently added '2620:52:3:1:dead:beef:cafe:c29b' (ED25519) to the list of known hosts.

You can reproduce this build on your computer by running:

  sudo dnf install copr-rpmbuild
  /usr/bin/copr-rpmbuild --verbose --drop-resultdir --task-url https://copr.fedorainfracloud.org/backend/get-build-task/6875103-fedora-rawhide-ppc64le --chroot fedora-rawhide-ppc64le


Version: 0.70
PID: 38078
Logging PID: 38079
Task:
{'appstream': False,
 'background': True,
 'build_id': 6875103,
 'buildroot_pkgs': [],
 'chroot': 'fedora-rawhide-ppc64le',
 'enable_net': False,
 'fedora_review': False,
 'git_hash': '582c1ea4dd455e861a17f0683ae926b73099ae14',
 'git_repo': 'https://copr-dist-git.fedorainfracloud.org/git/fberat/gcc-14_fulldeps_ppc64le/rubygem-posix-spawn',
 'isolation': 'default',
 'memory_reqs': 2048,
 'package_name': 'rubygem-posix-spawn',
 'package_version': '0.3.15-10',
 'project_dirname': 'gcc-14_fulldeps_ppc64le',
 'project_name': 'gcc-14_fulldeps_ppc64le',
 'project_owner': 'fberat',
 'repo_priority': None,
 'repos': [{'baseurl': 'https://download.copr.fedorainfracloud.org/results/fberat/gcc-14_fulldeps_ppc64le/fedora-rawhide-ppc64le/',
            'id': 'copr_base',
            'name': 'Copr repository',
            'priority': None},
           {'baseurl': 'https://download.copr.fedorainfracloud.org/results/fberat/gcc-14_smoketest/fedora-rawhide-ppc64le/',
            'id': 'copr_fberat_gcc_14_smoketest',
            'name': 'Additional repo copr_fberat_gcc_14_smoketest'}],
 'sandbox': 'fberat/gcc-14_fulldeps_ppc64le--fberat',
 'source_json': {},
 'source_type': None,
 'submitter': 'fberat',
 'tags': [],
 'task_id': '6875103-fedora-rawhide-ppc64le',
 'timeout': 115200,
 'uses_devel_repo': False,
 'with_opts': [],
 'without_opts': []}

Running: git clone https://copr-dist-git.fedorainfracloud.org/git/fberat/gcc-14_fulldeps_ppc64le/rubygem-posix-spawn /var/lib/copr-rpmbuild/workspace/workdir-1p5s9j3v/rubygem-posix-spawn --depth 500 --no-single-branch --recursive

cmd: ['git', 'clone', 'https://copr-dist-git.fedorainfracloud.org/git/fberat/gcc-14_fulldeps_ppc64le/rubygem-posix-spawn', '/var/lib/copr-rpmbuild/workspace/workdir-1p5s9j3v/rubygem-posix-spawn', '--depth', '500', '--no-single-branch', '--recursive']
cwd: .
rc: 0
stdout: 
stderr: Cloning into '/var/lib/copr-rpmbuild/workspace/workdir-1p5s9j3v/rubygem-posix-spawn'...

Running: git checkout 582c1ea4dd455e861a17f0683ae926b73099ae14 --

cmd: ['git', 'checkout', '582c1ea4dd455e861a17f0683ae926b73099ae14', '--']
cwd: /var/lib/copr-rpmbuild/workspace/workdir-1p5s9j3v/rubygem-posix-spawn
rc: 0
stdout: 
stderr: Note: switching to '582c1ea4dd455e861a17f0683ae926b73099ae14'.

You are in 'detached HEAD' state. You can look around, make experimental
changes and commit them, and you can discard any commits you make in this
state without impacting any branches by switching back to a branch.

If you want to create a new branch to retain commits you create, you may
do so (now or later) by using -c with the switch command. Example:

  git switch -c <new-branch-name>

Or undo this operation with:

  git switch -

Turn off this advice by setting config variable advice.detachedHead to false

HEAD is now at 582c1ea automatic import of rubygem-posix-spawn

Running: copr-distgit-client sources

cmd: ['copr-distgit-client', 'sources']
cwd: /var/lib/copr-rpmbuild/workspace/workdir-1p5s9j3v/rubygem-posix-spawn
rc: 0
stdout: 
stderr: INFO: Reading stdout from command: git rev-parse --abbrev-ref HEAD
INFO: Reading stdout from command: git rev-parse HEAD
INFO: Reading sources specification file: sources
INFO: Downloading posix-spawn-0.3.15.gem
INFO: Reading stdout from command: curl --help all
INFO: Calling: curl -H Pragma: -o posix-spawn-0.3.15.gem --location --connect-timeout 60 --retry 3 --retry-delay 10 --remote-time --show-error --fail --retry-all-errors https://copr-dist-git.fedorainfracloud.org/repo/pkgs/fberat/gcc-14_fulldeps_ppc64le/rubygem-posix-spawn/posix-spawn-0.3.15.gem/md5/9c5e345b3139ab02bdebac3148cd54ec/posix-spawn-0.3.15.gem
  % Total    % Received % Xferd  Average Speed   Time    Time     Time  Current
                                 Dload  Upload   Total   Spent    Left  Speed
100 29696  100 29696    0     0   252k      0 --:--:-- --:--:-- --:--:--  254k
INFO: Reading stdout from command: md5sum posix-spawn-0.3.15.gem

/usr/bin/tail: /var/lib/copr-rpmbuild/main.log: file truncated
Running (timeout=115200): unbuffer mock --spec /var/lib/copr-rpmbuild/workspace/workdir-1p5s9j3v/rubygem-posix-spawn/rubygem-posix-spawn.spec --sources /var/lib/copr-rpmbuild/workspace/workdir-1p5s9j3v/rubygem-posix-spawn --resultdir /var/lib/copr-rpmbuild/results --uniqueext 1704799633.748946 -r /var/lib/copr-rpmbuild/results/configs/child.cfg
INFO: mock.py version 5.4 starting (python version = 3.11.3, NVR = mock-5.4-1.fc38), args: /usr/libexec/mock/mock --spec /var/lib/copr-rpmbuild/workspace/workdir-1p5s9j3v/rubygem-posix-spawn/rubygem-posix-spawn.spec --sources /var/lib/copr-rpmbuild/workspace/workdir-1p5s9j3v/rubygem-posix-spawn --resultdir /var/lib/copr-rpmbuild/results --uniqueext 1704799633.748946 -r /var/lib/copr-rpmbuild/results/configs/child.cfg
Start(bootstrap): init plugins
INFO: tmpfs initialized
INFO: selinux enabled
INFO: chroot_scan: initialized
INFO: compress_logs: initialized
Finish(bootstrap): init plugins
Start: init plugins
INFO: tmpfs initialized
INFO: selinux enabled
INFO: chroot_scan: initialized
INFO: compress_logs: initialized
Finish: init plugins
INFO: Signal handler active
Start: run
INFO: Start(/var/lib/copr-rpmbuild/workspace/workdir-1p5s9j3v/rubygem-posix-spawn/rubygem-posix-spawn.spec)  Config(fedora-rawhide-ppc64le)
Start: clean chroot
Finish: clean chroot
Mock Version: 5.4
INFO: Mock Version: 5.4
Start(bootstrap): chroot init
INFO: mounting tmpfs at /var/lib/mock/fedora-rawhide-ppc64le-bootstrap-1704799633.748946/root.
INFO: calling preinit hooks
INFO: enabled root cache
INFO: enabled package manager cache
Start(bootstrap): cleaning package manager metadata
Finish(bootstrap): cleaning package manager metadata
INFO: Guessed host environment type: unknown
INFO: Using bootstrap image: registry.fedoraproject.org/fedora:rawhide
INFO: Pulling image: registry.fedoraproject.org/fedora:rawhide
INFO: Copy content of container registry.fedoraproject.org/fedora:rawhide to /var/lib/mock/fedora-rawhide-ppc64le-bootstrap-1704799633.748946/root
INFO: Checking that registry.fedoraproject.org/fedora:rawhide image matches host's architecture
INFO: mounting registry.fedoraproject.org/fedora:rawhide with podman image mount
INFO: image registry.fedoraproject.org/fedora:rawhide as /var/lib/containers/storage/overlay/b3d308fc33ccd50f81fd895191f55f33cfe445422f5e74a8b5328c57258ce26b/merged
INFO: umounting image registry.fedoraproject.org/fedora:rawhide (/var/lib/containers/storage/overlay/b3d308fc33ccd50f81fd895191f55f33cfe445422f5e74a8b5328c57258ce26b/merged) with podman image umount
INFO: Using 'dnf' instead of 'dnf5' for bootstrap chroot
INFO: Package manager dnf detected and used (fallback)
INFO: Bootstrap image not marked ready
Start(bootstrap): installing dnf5 tooling
No matches found for the following disable plugin patterns: local, spacewalk, versionlock
Copr repository                                  38 MB/s |  45 MB     00:01    
Additional repo copr_fberat_gcc_14_smoketest    654 kB/s | 135 kB     00:00    
fedora                                           17 MB/s |  67 MB     00:03    
Dependencies resolved.
================================================================================
 Package             Architecture   Version              Repository        Size
================================================================================
Installing:
 dnf5                ppc64le        5.1.10-3.fc40        fedora           535 k
 dnf5-plugins        ppc64le        5.1.10-3.fc40        fedora           333 k
Installing dependencies:
 fmt                 ppc64le        10.1.1-1.fc40        copr_base        154 k
 libdnf5             ppc64le        5.1.10-3.fc40        fedora           934 k
 libdnf5-cli         ppc64le        5.1.10-3.fc40        fedora           226 k
 sdbus-cpp           ppc64le        1.4.0-1.fc40         fedora           107 k

Transaction Summary
================================================================================
Install  6 Packages

Total download size: 2.2 M
Installed size: 7.8 M
Downloading Packages:
(1/6): fmt-10.1.1-1.fc40.ppc64le.rpm            2.2 MB/s | 154 kB     00:00    
(2/6): dnf5-plugins-5.1.10-3.fc40.ppc64le.rpm   1.3 MB/s | 333 kB     00:00    
(3/6): dnf5-5.1.10-3.fc40.ppc64le.rpm           1.9 MB/s | 535 kB     00:00    
(4/6): libdnf5-cli-5.1.10-3.fc40.ppc64le.rpm    4.9 MB/s | 226 kB     00:00    
(5/6): sdbus-cpp-1.4.0-1.fc40.ppc64le.rpm       2.6 MB/s | 107 kB     00:00    
(6/6): libdnf5-5.1.10-3.fc40.ppc64le.rpm        2.8 MB/s | 934 kB     00:00    
--------------------------------------------------------------------------------
Total                                           5.1 MB/s | 2.2 MB     00:00     
Running transaction check
Transaction check succeeded.
Running transaction test
Transaction test succeeded.
Running transaction
  Preparing        :                                                        1/1 
  Installing       : fmt-10.1.1-1.fc40.ppc64le                              1/6 
  Installing       : libdnf5-5.1.10-3.fc40.ppc64le                          2/6 
  Installing       : libdnf5-cli-5.1.10-3.fc40.ppc64le                      3/6 
  Installing       : dnf5-5.1.10-3.fc40.ppc64le                             4/6 
  Installing       : sdbus-cpp-1.4.0-1.fc40.ppc64le                         5/6 
  Installing       : dnf5-plugins-5.1.10-3.fc40.ppc64le                     6/6 
  Running scriptlet: dnf5-plugins-5.1.10-3.fc40.ppc64le                     6/6 

Installed:
  dnf5-5.1.10-3.fc40.ppc64le             dnf5-plugins-5.1.10-3.fc40.ppc64le     
  fmt-10.1.1-1.fc40.ppc64le              libdnf5-5.1.10-3.fc40.ppc64le          
  libdnf5-cli-5.1.10-3.fc40.ppc64le      sdbus-cpp-1.4.0-1.fc40.ppc64le         

Complete!
INFO: Switching package manager from dnf to the dnf5 (direct choice)
Finish(bootstrap): installing dnf5 tooling
Start(bootstrap): creating root cache
Finish(bootstrap): creating root cache
Finish(bootstrap): chroot init
Start: chroot init
INFO: mounting tmpfs at /var/lib/mock/fedora-rawhide-ppc64le-1704799633.748946/root.
INFO: calling preinit hooks
INFO: enabled root cache
INFO: enabled package manager cache
Start: cleaning package manager metadata
Finish: cleaning package manager metadata
INFO: enabled HW Info plugin
INFO: Package manager dnf5 detected and used (direct choice)
INFO: Buildroot is handled by package management downloaded with a bootstrap image:
  rpm-4.19.1-2.fc40.ppc64le
  rpm-sequoia-1.5.0-2.fc40.ppc64le
  python3-dnf-4.18.2-1.fc40.noarch
  yum-4.18.2-1.fc40.noarch
  dnf5-5.1.10-3.fc40.ppc64le
  dnf5-plugins-5.1.10-3.fc40.ppc64le
Start: installing minimal buildroot with dnf5
Updating and loading repositories:
 fedora                                 100% |   6.8 MiB/s |  18.7 MiB |  00m03s
 Copr repository                        100% |  28.3 MiB/s |  10.6 MiB |  00m00s
 Additional repo copr_fberat_gcc_14_smo 100% | 189.1 KiB/s |  23.8 KiB |  00m00s
Repositories loaded.
Package                           Arch    Version                    Repository                        Size
Installing group/module packages:                                                                          
 bash                             ppc64le 5.2.21-2.fc40              copr_base                      8.7 MiB
 bzip2                            ppc64le 1.0.8-16.fc40              copr_base                    427.3 KiB
 coreutils                        ppc64le 9.4-1.fc40                 copr_base                     22.4 MiB
 cpio                             ppc64le 2.14-5.fc40                copr_base                      1.1 MiB
 diffutils                        ppc64le 3.10-3.fc40                copr_base                      2.2 MiB
 fedora-release-common            noarch  40-0.26                    fedora                        19.0 KiB
 findutils                        ppc64le 1:4.9.0-6.fc40             copr_base                      1.8 MiB
 gawk                             ppc64le 5.2.2-2.fc40               copr_base                      4.5 MiB
 glibc-minimal-langpack           ppc64le 2.38.9000-30.fc40          fedora                         0.0   B
 grep                             ppc64le 3.11-5.fc40                copr_base                      1.1 MiB
 gzip                             ppc64le 1.12-6.fc40                copr_base                    539.7 KiB
 info                             ppc64le 7.1-1.fc40                 copr_base                    677.3 KiB
 patch                            ppc64le 2.7.6-22.fc40              copr_base                    390.5 KiB
 redhat-rpm-config                noarch  275-1.fc40                 fedora                       180.7 KiB
 rpm-build                        ppc64le 4.19.1-2.fc40              copr_base                      1.2 MiB
 sed                              ppc64le 4.8-14.fc40                copr_base                    941.6 KiB
 shadow-utils                     ppc64le 2:4.14.0-2.fc40            copr_base                      7.2 MiB
 tar                              ppc64le 2:1.35-2.fc40              copr_base                      3.2 MiB
 unzip                            ppc64le 6.0-62.fc40                copr_base                    854.2 KiB
 util-linux                       ppc64le 2.39.3-1.fc40              fedora                        16.9 MiB
 which                            ppc64le 2.21-40.fc40               copr_base                    247.9 KiB
 xz                               ppc64le 5.4.5-1.fc40               copr_base                      2.3 MiB
Installing dependencies:                                                                                   
 alternatives                     ppc64le 1.25-1.fc40                copr_base                    218.1 KiB
 ansible-srpm-macros              noarch  1-11.fc39                  fedora                        35.5 KiB
 audit-libs                       ppc64le 3.1.2-5.fc40               copr_base                    610.9 KiB
 authselect                       ppc64le 1.4.3-1.fc40               copr_base                    312.3 KiB
 authselect-libs                  ppc64le 1.4.3-1.fc40               copr_base                      1.1 MiB
 basesystem                       noarch  11-18.fc39                 fedora                         0.0   B
 binutils                         ppc64le 2.41-20.fc40               fedora                        31.9 MiB
 binutils-gold                    ppc64le 2.41-20.fc40               fedora                         3.8 MiB
 bzip2-libs                       ppc64le 1.0.8-16.fc40              copr_base                    200.6 KiB
 ca-certificates                  noarch  2023.2.62_v7.0.401-4.fc40  fedora                         2.3 MiB
 coreutils-common                 ppc64le 9.4-1.fc40                 copr_base                     11.4 MiB
 cracklib                         ppc64le 2.9.11-2.fc40              copr_base                    933.9 KiB
 crypto-policies                  noarch  20231204-1.git1e3a2e4.fc40 fedora                       149.3 KiB
 curl                             ppc64le 8.5.0-1.fc40               fedora                       922.3 KiB
 cyrus-sasl-lib                   ppc64le 2.1.28-11.fc39             fedora                         3.5 MiB
 debugedit                        ppc64le 5.0-12.fc40                copr_base                    498.6 KiB
 dwz                              ppc64le 0.15-3.fc40                copr_base                    450.7 KiB
 ed                               ppc64le 1.19-4.fc40                copr_base                    280.1 KiB
 efi-srpm-macros                  noarch  5-9.fc39                   fedora                        40.1 KiB
 elfutils                         ppc64le 0.190-4.fc40               fedora                         5.3 MiB
 elfutils-debuginfod-client       ppc64le 0.190-4.fc40               fedora                       396.3 KiB
 elfutils-default-yama-scope      noarch  0.190-4.fc40               fedora                         1.8 KiB
 elfutils-libelf                  ppc64le 0.190-4.fc40               fedora                         1.1 MiB
 elfutils-libs                    ppc64le 0.190-4.fc40               fedora                         1.0 MiB
 fedora-gpg-keys                  noarch  40-0.2                     fedora                       123.2 KiB
 fedora-release                   noarch  40-0.26                    fedora                         0.0   B
 fedora-release-identity-basic    noarch  40-0.26                    fedora                       694.0   B
 fedora-repos                     noarch  40-0.2                     fedora                         4.9 KiB
 fedora-repos-rawhide             noarch  40-0.2                     fedora                         2.2 KiB
 file                             ppc64le 5.45-1.fc40                fedora                       267.3 KiB
 file-libs                        ppc64le 5.45-1.fc40                fedora                        10.1 MiB
 filesystem                       ppc64le 3.18-6.fc39                fedora                       106.0   B
 fonts-srpm-macros                noarch  1:2.0.5-12.fc39            fedora                        55.3 KiB
 forge-srpm-macros                noarch  0.2.0-1.fc40               fedora                        37.4 KiB
 fpc-srpm-macros                  noarch  1.3-8.fc39                 fedora                       144.0   B
 gdb-minimal                      ppc64le 14.1-1.fc40                fedora                        14.4 MiB
 gdbm                             ppc64le 1:1.23-4.fc40              copr_base                    928.0 KiB
 gdbm-libs                        ppc64le 1:1.23-4.fc40              copr_base                    425.3 KiB
 ghc-srpm-macros                  noarch  1.6.1-3.fc40               fedora                       369.0   B
 glibc                            ppc64le 2.38.9000-30.fc40          fedora                        11.6 MiB
 glibc-common                     ppc64le 2.38.9000-30.fc40          fedora                         2.6 MiB
 glibc-gconv-extra                ppc64le 2.38.9000-30.fc40          fedora                        48.9 MiB
 gmp                              ppc64le 1:6.2.1-5.fc40             copr_base                    849.5 KiB
 gnat-srpm-macros                 noarch  6-3.fc39                   fedora                         1.0 KiB
 go-srpm-macros                   noarch  3.3.1-1.fc40               fedora                        60.6 KiB
 jansson                          ppc64le 2.13.1-7.fc40              copr_base                    220.2 KiB
 kernel-srpm-macros               noarch  1.0-20.fc39                fedora                         1.9 KiB
 keyutils-libs                    ppc64le 1.6.3-1.fc40               copr_base                    226.0 KiB
 krb5-libs                        ppc64le 1.21.2-2.fc40              copr_base                      3.9 MiB
 libacl                           ppc64le 2.3.1-11.fc40              copr_base                    195.6 KiB
 libarchive                       ppc64le 3.7.2-1.fc40               copr_base                      1.3 MiB
 libattr                          ppc64le 2.5.1-9.fc40               fedora                       196.2 KiB
 libblkid                         ppc64le 2.39.3-1.fc40              fedora                       456.9 KiB
 libbrotli                        ppc64le 1.1.0-1.fc40               copr_base                      1.3 MiB
 libcap                           ppc64le 2.69-1.fc40                copr_base                      1.4 MiB
 libcap-ng                        ppc64le 0.8.4-2.fc40               fedora                       416.5 KiB
 libcom_err                       ppc64le 1.47.0-2.fc40              copr_base                    239.0 KiB
 libcurl                          ppc64le 8.5.0-1.fc40               fedora                         1.0 MiB
 libeconf                         ppc64le 0.5.2-1.fc40               copr_base                    203.9 KiB
 libevent                         ppc64le 2.1.12-9.fc40              copr_base                      1.6 MiB
 libfdisk                         ppc64le 2.39.3-1.fc40              fedora                       559.0 KiB
 libffi                           ppc64le 3.4.4-5.fc40               fedora                       217.2 KiB
 libgcc                           ppc64le 14.0.0-0.4.fc40            copr_fberat_gcc_14_smoketest 350.4 KiB
 libgomp                          ppc64le 14.0.0-0.4.fc40            copr_fberat_gcc_14_smoketest 690.2 KiB
 libidn2                          ppc64le 2.3.4-3.fc40               copr_base                    450.7 KiB
 libmount                         ppc64le 2.39.3-1.fc40              fedora                       548.2 KiB
 libnghttp2                       ppc64le 1.58.0-1.fc40              copr_base                    262.0 KiB
 libnsl2                          ppc64le 2.0.0-6.fc40               copr_base                    221.7 KiB
 libpkgconf                       ppc64le 1.9.5-2.fc40               copr_base                    197.8 KiB
 libpsl                           ppc64le 0.21.2-4.fc40              copr_base                    196.1 KiB
 libpwquality                     ppc64le 1.4.5-6.fc40               copr_base                      1.1 MiB
 librtas                          ppc64le 2.0.4-3.fc39               fedora                       459.2 KiB
 libselinux                       ppc64le 3.6-2.fc40                 fedora                       329.0 KiB
 libsemanage                      ppc64le 3.6-1.fc40                 copr_base                    489.4 KiB
 libsepol                         ppc64le 3.6-1.fc40                 copr_base                      1.1 MiB
 libsigsegv                       ppc64le 2.14-5.fc40                copr_base                    225.0 KiB
 libsmartcols                     ppc64le 2.39.3-1.fc40              fedora                       287.9 KiB
 libssh                           ppc64le 0.10.6-2.fc40              copr_base                    709.3 KiB
 libssh-config                    noarch  0.10.6-2.fc40              copr_base                    277.0   B
 libstdc++                        ppc64le 14.0.0-0.4.fc40            copr_fberat_gcc_14_smoketest   3.8 MiB
 libtasn1                         ppc64le 4.19.0-3.fc40              copr_base                    347.3 KiB
 libtirpc                         ppc64le 1.3.4-1.rc1.fc40           fedora                       338.7 KiB
 libunistring                     ppc64le 1.1-5.fc40                 copr_base                      1.9 MiB
 libutempter                      ppc64le 1.2.1-10.fc40              copr_base                    417.4 KiB
 libuuid                          ppc64le 2.39.3-1.fc40              fedora                       197.2 KiB
 libverto                         ppc64le 0.3.2-6.fc39               fedora                       197.1 KiB
 libxcrypt                        ppc64le 4.4.36-3.fc40              copr_base                    398.5 KiB
 libxml2                          ppc64le 2.12.3-1.fc40              copr_base                      2.6 MiB
 libzstd                          ppc64le 1.5.5-4.fc40               copr_base                    988.0 KiB
 lua-libs                         ppc64le 5.4.6-3.fc39               fedora                       456.9 KiB
 lua-srpm-macros                  noarch  1-9.fc39                   fedora                         1.3 KiB
 lz4-libs                         ppc64le 1.9.4-4.fc40               copr_base                    325.0 KiB
 mpfr                             ppc64le 4.2.1-1.fc40               copr_base                    976.8 KiB
 ncurses-base                     noarch  6.4-8.20231001.fc40        copr_base                    324.7 KiB
 ncurses-libs                     ppc64le 6.4-8.20231001.fc40        copr_base                      2.4 MiB
 ocaml-srpm-macros                noarch  9-1.fc40                   fedora                         1.9 KiB
 openblas-srpm-macros             noarch  2-14.fc39                  fedora                       104.0   B
 openldap                         ppc64le 2.6.6-1.fc39               fedora                         1.1 MiB
 openssl-libs                     ppc64le 1:3.1.4-1.fc40             copr_base                      8.3 MiB
 p11-kit                          ppc64le 0.25.3-1.fc40              copr_base                      3.3 MiB
 p11-kit-trust                    ppc64le 0.25.3-1.fc40              copr_base                    655.2 KiB
 package-notes-srpm-macros        noarch  0.5-9.fc39                 fedora                         1.6 KiB
 pam                              ppc64le 1.5.3-9.fc40               copr_base                     10.8 MiB
 pam-libs                         ppc64le 1.5.3-9.fc40               copr_base                    606.3 KiB
 pcre2                            ppc64le 10.42-2.fc40               copr_base                    969.0 KiB
 pcre2-syntax                     noarch  10.42-2.fc40               copr_base                    235.1 KiB
 perl-srpm-macros                 noarch  1-51.fc39                  fedora                       861.0   B
 pkgconf                          ppc64le 1.9.5-2.fc40               copr_base                    235.6 KiB
 pkgconf-m4                       noarch  1.9.5-2.fc40               copr_base                     13.9 KiB
 pkgconf-pkg-config               ppc64le 1.9.5-2.fc40               copr_base                    990.0   B
 popt                             ppc64le 1.19-3.fc40                copr_base                    272.7 KiB
 publicsuffix-list-dafsa          noarch  20230812-1.fc40            fedora                        66.7 KiB
 pyproject-srpm-macros            noarch  1.11.0-1.fc40              fedora                         1.5 KiB
 python-srpm-macros               noarch  3.12-5.fc40                fedora                        50.1 KiB
 qt5-srpm-macros                  noarch  5.15.12-1.fc40             fedora                       492.0   B
 qt6-srpm-macros                  noarch  6.6.1-3.fc40               fedora                       456.0   B
 readline                         ppc64le 8.2-4.fc40                 copr_base                    816.9 KiB
 rpm                              ppc64le 4.19.1-2.fc40              copr_base                      4.9 MiB
 rpm-build-libs                   ppc64le 4.19.1-2.fc40              copr_base                    326.2 KiB
 rpm-libs                         ppc64le 4.19.1-2.fc40              copr_base                      1.2 MiB
 rpm-sequoia                      ppc64le 1.5.0-2.fc40               copr_base                      5.0 MiB
 rust-srpm-macros                 noarch  25.2-2.fc40                fedora                         5.1 KiB
 setup                            noarch  2.14.5-1.fc40              fedora                       720.4 KiB
 sqlite-libs                      ppc64le 3.44.2-1.fc40              copr_base                      1.9 MiB
 systemd-libs                     ppc64le 255.1-1.fc40               copr_base                      2.9 MiB
 util-linux-core                  ppc64le 2.39.3-1.fc40              fedora                         6.1 MiB
 xxhash-libs                      ppc64le 0.8.2-1.fc40               copr_base                    211.9 KiB
 xz-libs                          ppc64le 5.4.5-1.fc40               copr_base                    329.4 KiB
 zig-srpm-macros                  noarch  1-1.fc40                   fedora                         1.1 KiB
 zip                              ppc64le 3.0-39.fc40                copr_base                      1.2 MiB
 zlib-ng-compat                   ppc64le 2.1.5-1.fc40               copr_base                    261.3 KiB
 zstd                             ppc64le 1.5.5-4.fc40               copr_base                      2.1 MiB
Installing groups:                                                                                         
 Buildsystem building group                                                                                

Transaction Summary:
 Installing:      154 packages

Total size of inbound packages is 56 MiB. Need to download 56 MiB.
After this operation 324 MiB will be used (install 324 MiB, remove 0 B).
[  1/154] fedora-release-common-0:40-0. 100% | 262.8 KiB/s |  20.2 KiB |  00m00s
[  2/154] bzip2-0:1.0.8-16.fc40.ppc64le 100% | 518.9 KiB/s |  54.0 KiB |  00m00s
[  3/154] cpio-0:2.14-5.fc40.ppc64le    100% |   3.4 MiB/s | 281.3 KiB |  00m00s
[  4/154] bash-0:5.2.21-2.fc40.ppc64le  100% |   8.4 MiB/s |   1.9 MiB |  00m00s
[  5/154] coreutils-0:9.4-1.fc40.ppc64l 100% |   9.4 MiB/s |   1.4 MiB |  00m00s
[  6/154] diffutils-0:3.10-3.fc40.ppc64 100% |   8.9 MiB/s | 411.1 KiB |  00m00s
[  7/154] findutils-1:4.9.0-6.fc40.ppc6 100% |  30.8 MiB/s | 535.7 KiB |  00m00s
[  8/154] gawk-0:5.2.2-2.fc40.ppc64le   100% |  36.4 MiB/s |   1.1 MiB |  00m00s
[  9/154] grep-0:3.11-5.fc40.ppc64le    100% |   8.1 MiB/s | 300.3 KiB |  00m00s
[ 10/154] gzip-0:1.12-6.fc40.ppc64le    100% |   6.7 MiB/s | 164.1 KiB |  00m00s
[ 11/154] info-0:7.1-1.fc40.ppc64le     100% |  15.4 MiB/s | 204.4 KiB |  00m00s
[ 12/154] patch-0:2.7.6-22.fc40.ppc64le 100% |  12.7 MiB/s | 143.6 KiB |  00m00s
[ 13/154] rpm-build-0:4.19.1-2.fc40.ppc 100% |   7.2 MiB/s |  73.8 KiB |  00m00s
[ 14/154] glibc-minimal-langpack-0:2.38 100% |   1.1 MiB/s |  88.9 KiB |  00m00s
[ 15/154] sed-0:4.8-14.fc40.ppc64le     100% |  21.3 MiB/s | 304.7 KiB |  00m00s
[ 16/154] shadow-utils-2:4.14.0-2.fc40. 100% |  17.3 MiB/s |   1.2 MiB |  00m00s
[ 17/154] tar-2:1.35-2.fc40.ppc64le     100% |  11.7 MiB/s | 878.1 KiB |  00m00s
[ 18/154] unzip-0:6.0-62.fc40.ppc64le   100% |  11.1 MiB/s | 192.4 KiB |  00m00s
[ 19/154] which-0:2.21-40.fc40.ppc64le  100% |   2.8 MiB/s |  43.7 KiB |  00m00s
[ 20/154] redhat-rpm-config-0:275-1.fc4 100% | 589.9 KiB/s |  80.8 KiB |  00m00s
[ 21/154] xz-0:5.4.5-1.fc40.ppc64le     100% |  29.0 MiB/s | 534.7 KiB |  00m00s
[ 22/154] fedora-repos-0:40-0.2.noarch  100% | 359.6 KiB/s |   9.3 KiB |  00m00s
[ 23/154] libattr-0:2.5.1-9.fc40.ppc64l 100% | 639.9 KiB/s |  18.6 KiB |  00m00s
[ 24/154] util-linux-0:2.39.3-1.fc40.pp 100% |   8.9 MiB/s |   1.3 MiB |  00m00s
[ 25/154] glibc-common-0:2.38.9000-30.f 100% |  11.8 MiB/s | 385.4 KiB |  00m00s
[ 26/154] ansible-srpm-macros-0:1-11.fc 100% | 796.3 KiB/s |  20.7 KiB |  00m00s
[ 27/154] efi-srpm-macros-0:5-9.fc39.no 100% | 824.0 KiB/s |  22.2 KiB |  00m00s
[ 28/154] file-0:5.45-1.fc40.ppc64le    100% |   1.5 MiB/s |  50.0 KiB |  00m00s
[ 29/154] filesystem-0:3.18-6.fc39.ppc6 100% |   4.7 MiB/s |   1.1 MiB |  00m00s
[ 30/154] fonts-srpm-macros-1:2.0.5-12. 100% | 944.9 KiB/s |  26.5 KiB |  00m00s
[ 31/154] glibc-0:2.38.9000-30.fc40.ppc 100% |  10.4 MiB/s |   2.3 MiB |  00m00s
[ 32/154] forge-srpm-macros-0:0.2.0-1.f 100% | 527.6 KiB/s |  18.5 KiB |  00m00s
[ 33/154] fpc-srpm-macros-0:1.3-8.fc39. 100% | 320.7 KiB/s |   7.4 KiB |  00m00s
[ 34/154] ghc-srpm-macros-0:1.6.1-3.fc4 100% | 351.8 KiB/s |   8.1 KiB |  00m00s
[ 35/154] gnat-srpm-macros-0:6-3.fc39.n 100% | 367.7 KiB/s |   8.8 KiB |  00m00s
[ 36/154] go-srpm-macros-0:3.3.1-1.fc40 100% |   1.1 MiB/s |  27.7 KiB |  00m00s
[ 37/154] kernel-srpm-macros-0:1.0-20.f 100% | 436.8 KiB/s |  10.5 KiB |  00m00s
[ 38/154] lua-srpm-macros-0:1-9.fc39.no 100% | 359.2 KiB/s |   8.6 KiB |  00m00s
[ 39/154] ocaml-srpm-macros-0:9-1.fc40. 100% | 375.0 KiB/s |   9.0 KiB |  00m00s
[ 40/154] openblas-srpm-macros-0:2-14.f 100% | 314.5 KiB/s |   7.5 KiB |  00m00s
[ 41/154] package-notes-srpm-macros-0:0 100% | 447.3 KiB/s |  11.2 KiB |  00m00s
[ 42/154] perl-srpm-macros-0:1-51.fc39. 100% | 333.7 KiB/s |   8.0 KiB |  00m00s
[ 43/154] pyproject-srpm-macros-0:1.11. 100% | 614.6 KiB/s |  14.8 KiB |  00m00s
[ 44/154] python-srpm-macros-0:3.12-5.f 100% |   1.0 MiB/s |  24.9 KiB |  00m00s
[ 45/154] rust-srpm-macros-0:25.2-2.fc4 100% | 564.2 KiB/s |  13.0 KiB |  00m00s
[ 46/154] zig-srpm-macros-0:1-1.fc40.no 100% | 332.4 KiB/s |   8.0 KiB |  00m00s
[ 47/154] elfutils-libelf-0:0.190-4.fc4 100% |   6.6 MiB/s | 203.4 KiB |  00m00s
[ 48/154] elfutils-0:0.190-4.fc40.ppc64 100% |  13.2 MiB/s | 580.9 KiB |  00m00s
[ 49/154] setup-0:2.14.5-1.fc40.noarch  100% |   5.2 MiB/s | 154.7 KiB |  00m00s
[ 50/154] libblkid-0:2.39.3-1.fc40.ppc6 100% |   4.8 MiB/s | 133.8 KiB |  00m00s
[ 51/154] libfdisk-0:2.39.3-1.fc40.ppc6 100% |   6.2 MiB/s | 178.7 KiB |  00m00s
[ 52/154] libmount-0:2.39.3-1.fc40.ppc6 100% |   6.6 MiB/s | 176.5 KiB |  00m00s
[ 53/154] librtas-0:2.0.4-3.fc39.ppc64l 100% |   2.7 MiB/s |  69.9 KiB |  00m00s
[ 54/154] libsmartcols-0:2.39.3-1.fc40. 100% |   2.9 MiB/s |  73.7 KiB |  00m00s
[ 55/154] libuuid-0:2.39.3-1.fc40.ppc64 100% |   1.2 MiB/s |  29.7 KiB |  00m00s
[ 56/154] util-linux-core-0:2.39.3-1.fc 100% |  16.3 MiB/s | 549.9 KiB |  00m00s
[ 57/154] fedora-gpg-keys-0:40-0.2.noar 100% |   4.7 MiB/s | 130.0 KiB |  00m00s
[ 58/154] fedora-repos-rawhide-0:40-0.2 100% | 371.8 KiB/s |   8.9 KiB |  00m00s
[ 59/154] basesystem-0:11-18.fc39.noarc 100% | 288.2 KiB/s |   7.2 KiB |  00m00s
[ 60/154] file-libs-0:5.45-1.fc40.ppc64 100% |  16.4 MiB/s | 774.4 KiB |  00m00s
[ 61/154] glibc-gconv-extra-0:2.38.9000 100% |  30.2 MiB/s |   2.0 MiB |  00m00s
[ 62/154] elfutils-libs-0:0.190-4.fc40. 100% |   6.7 MiB/s | 294.5 KiB |  00m00s
[ 63/154] xz-libs-0:5.4.5-1.fc40.ppc64l 100% |  12.0 MiB/s | 122.5 KiB |  00m00s
[ 64/154] elfutils-default-yama-scope-0 100% | 513.4 KiB/s |  12.8 KiB |  00m00s
[ 65/154] bzip2-libs-0:1.0.8-16.fc40.pp 100% |   4.6 MiB/s |  47.2 KiB |  00m00s
[ 66/154] libacl-0:2.3.1-11.fc40.ppc64l 100% |   2.9 MiB/s |  27.1 KiB |  00m00s
[ 67/154] audit-libs-0:3.1.2-5.fc40.ppc 100% |  11.8 MiB/s | 133.2 KiB |  00m00s
[ 68/154] libeconf-0:0.5.2-1.fc40.ppc64 100% |   3.8 MiB/s |  34.6 KiB |  00m00s
[ 69/154] libsemanage-0:3.6-1.fc40.ppc6 100% |  11.5 MiB/s | 129.2 KiB |  00m00s
[ 70/154] libselinux-0:3.6-2.fc40.ppc64 100% |   3.9 MiB/s | 100.8 KiB |  00m00s
[ 71/154] libxcrypt-0:4.4.36-3.fc40.ppc 100% |  11.6 MiB/s | 130.9 KiB |  00m00s
[ 72/154] debugedit-0:5.0-12.fc40.ppc64 100% |   7.3 MiB/s |  81.9 KiB |  00m00s
[ 73/154] elfutils-debuginfod-client-0: 100% |   1.5 MiB/s |  39.4 KiB |  00m00s
[ 74/154] pkgconf-pkg-config-0:1.9.5-2. 100% | 921.0 KiB/s |  10.1 KiB |  00m00s
[ 75/154] pkgconf-0:1.9.5-2.fc40.ppc64l 100% |   3.3 MiB/s |  43.8 KiB |  00m00s
[ 76/154] pkgconf-m4-0:1.9.5-2.fc40.noa 100% |   1.0 MiB/s |  14.4 KiB |  00m00s
[ 77/154] libpkgconf-0:1.9.5-2.fc40.ppc 100% |   2.6 MiB/s |  42.8 KiB |  00m00s
[ 78/154] popt-0:1.19-3.fc40.ppc64le    100% |   3.3 MiB/s |  64.5 KiB |  00m00s
[ 79/154] readline-0:8.2-4.fc40.ppc64le 100% |   6.3 MiB/s | 231.3 KiB |  00m00s
[ 80/154] rpm-0:4.19.1-2.fc40.ppc64le   100% |  11.9 MiB/s | 511.4 KiB |  00m00s
[ 81/154] rpm-build-libs-0:4.19.1-2.fc4 100% |   7.3 MiB/s | 104.2 KiB |  00m00s
[ 82/154] binutils-0:2.41-20.fc40.ppc64 100% |  40.6 MiB/s |   6.4 MiB |  00m00s
[ 83/154] lua-libs-0:5.4.6-3.fc39.ppc64 100% |   2.9 MiB/s | 149.4 KiB |  00m00s
[ 84/154] rpm-libs-0:4.19.1-2.fc40.ppc6 100% |   7.0 MiB/s | 358.6 KiB |  00m00s
[ 85/154] zstd-0:1.5.5-4.fc40.ppc64le   100% |  16.3 MiB/s | 499.2 KiB |  00m00s
[ 86/154] libarchive-0:3.7.2-1.fc40.ppc 100% |   7.7 MiB/s | 478.7 KiB |  00m00s
[ 87/154] libstdc++-0:14.0.0-0.4.fc40.p 100% |  12.8 MiB/s |   1.0 MiB |  00m00s
[ 88/154] ncurses-libs-0:6.4-8.20231001 100% |   6.6 MiB/s | 382.5 KiB |  00m00s
[ 89/154] ed-0:1.19-4.fc40.ppc64le      100% |   3.2 MiB/s |  82.2 KiB |  00m00s
[ 90/154] ncurses-base-0:6.4-8.20231001 100% |   5.6 MiB/s |  63.6 KiB |  00m00s
[ 91/154] libsepol-0:3.6-1.fc40.ppc64le 100% |  18.2 MiB/s | 373.4 KiB |  00m00s
[ 92/154] libxml2-0:2.12.3-1.fc40.ppc64 100% |  19.9 MiB/s | 775.0 KiB |  00m00s
[ 93/154] libzstd-0:1.5.5-4.fc40.ppc64l 100% |   8.0 MiB/s | 334.7 KiB |  00m00s
[ 94/154] lz4-libs-0:1.9.4-4.fc40.ppc64 100% |   3.4 MiB/s |  86.2 KiB |  00m00s
[ 95/154] crypto-policies-0:20231204-1. 100% |   3.5 MiB/s |  99.7 KiB |  00m00s
[ 96/154] ca-certificates-0:2023.2.62_v 100% |  21.1 MiB/s | 862.6 KiB |  00m00s
[ 97/154] openssl-libs-1:3.1.4-1.fc40.p 100% |  28.7 MiB/s |   2.3 MiB |  00m00s
[ 98/154] zlib-ng-compat-0:2.1.5-1.fc40 100% |   1.7 MiB/s |  80.2 KiB |  00m00s
[ 99/154] pcre2-0:10.42-2.fc40.ppc64le  100% |   6.5 MiB/s | 246.8 KiB |  00m00s
[100/154] gmp-1:6.2.1-5.fc40.ppc64le    100% |  18.6 MiB/s | 305.2 KiB |  00m00s
[101/154] libsigsegv-0:2.14-5.fc40.ppc6 100% |   1.8 MiB/s |  28.1 KiB |  00m00s
[102/154] mpfr-0:4.2.1-1.fc40.ppc64le   100% |  15.8 MiB/s | 355.8 KiB |  00m00s
[103/154] dwz-0:0.15-3.fc40.ppc64le     100% |  11.8 MiB/s | 144.5 KiB |  00m00s
[104/154] libcap-ng-0:0.8.4-2.fc40.ppc6 100% |   1.3 MiB/s |  33.5 KiB |  00m00s
[105/154] coreutils-common-0:9.4-1.fc40 100% |  38.0 MiB/s |   2.1 MiB |  00m00s
[106/154] libcap-0:2.69-1.fc40.ppc64le  100% |   1.7 MiB/s |  89.9 KiB |  00m00s
[107/154] systemd-libs-0:255.1-1.fc40.p 100% |  31.0 MiB/s | 762.0 KiB |  00m00s
[108/154] authselect-libs-0:1.4.3-1.fc4 100% |  16.7 MiB/s | 240.1 KiB |  00m00s
[109/154] libutempter-0:1.2.1-10.fc40.p 100% |   2.0 MiB/s |  27.2 KiB |  00m00s
[110/154] pam-0:1.5.3-9.fc40.ppc64le    100% |  28.6 MiB/s | 556.2 KiB |  00m00s
[111/154] pam-libs-0:1.5.3-9.fc40.ppc64 100% |   6.2 MiB/s |  63.9 KiB |  00m00s
[112/154] zip-0:3.0-39.fc40.ppc64le     100% |  19.1 MiB/s | 274.0 KiB |  00m00s
[113/154] qt5-srpm-macros-0:5.15.12-1.f 100% | 336.2 KiB/s |   8.4 KiB |  00m00s
[114/154] qt6-srpm-macros-0:6.6.1-3.fc4 100% | 366.7 KiB/s |   8.8 KiB |  00m00s
[115/154] libgcc-0:14.0.0-0.4.fc40.ppc6 100% |   8.9 MiB/s |  90.6 KiB |  00m00s
[116/154] p11-kit-0:0.25.3-1.fc40.ppc64 100% |  26.2 MiB/s | 509.1 KiB |  00m00s
[117/154] p11-kit-trust-0:0.25.3-1.fc40 100% |  12.0 MiB/s | 159.3 KiB |  00m00s
[118/154] alternatives-0:1.25-1.fc40.pp 100% |   3.7 MiB/s |  41.8 KiB |  00m00s
[119/154] jansson-0:2.13.1-7.fc40.ppc64 100% |   5.5 MiB/s |  50.3 KiB |  00m00s
[120/154] rpm-sequoia-0:1.5.0-2.fc40.pp 100% |  26.1 MiB/s |   1.6 MiB |  00m00s
[121/154] sqlite-libs-0:3.44.2-1.fc40.p 100% |  14.4 MiB/s | 811.7 KiB |  00m00s
[122/154] pcre2-syntax-0:10.42-2.fc40.n 100% |   9.3 MiB/s | 143.6 KiB |  00m00s
[123/154] libgomp-0:14.0.0-0.4.fc40.ppc 100% |  19.4 MiB/s | 338.5 KiB |  00m00s
[124/154] binutils-gold-0:2.41-20.fc40. 100% |  12.2 MiB/s |   1.1 MiB |  00m00s
[125/154] authselect-0:1.4.3-1.fc40.ppc 100% |  13.0 MiB/s | 146.0 KiB |  00m00s
[126/154] gdbm-1:1.23-4.fc40.ppc64le    100% |  13.9 MiB/s | 156.5 KiB |  00m00s
[127/154] gdbm-libs-1:1.23-4.fc40.ppc64 100% |   6.8 MiB/s |  62.6 KiB |  00m00s
[128/154] libnsl2-0:2.0.0-6.fc40.ppc64l 100% |   3.5 MiB/s |  32.3 KiB |  00m00s
[129/154] libpwquality-0:1.4.5-6.fc40.p 100% |  10.9 MiB/s | 112.1 KiB |  00m00s
[130/154] libtasn1-0:4.19.0-3.fc40.ppc6 100% |   7.8 MiB/s |  80.3 KiB |  00m00s
[131/154] cracklib-0:2.9.11-2.fc40.ppc6 100% |   8.4 MiB/s |  85.5 KiB |  00m00s
[132/154] libtirpc-0:1.3.4-1.rc1.fc40.p 100% |   4.2 MiB/s | 108.4 KiB |  00m00s
[133/154] libffi-0:3.4.4-5.fc40.ppc64le 100% |   1.5 MiB/s |  37.9 KiB |  00m00s
[134/154] krb5-libs-0:1.21.2-2.fc40.ppc 100% |  34.6 MiB/s | 850.5 KiB |  00m00s
[135/154] libcom_err-0:1.47.0-2.fc40.pp 100% |   1.6 MiB/s |  27.1 KiB |  00m00s
[136/154] libverto-0:0.3.2-6.fc39.ppc64 100% | 911.5 KiB/s |  21.9 KiB |  00m00s
[137/154] keyutils-libs-0:1.6.3-1.fc40. 100% |   3.2 MiB/s |  33.0 KiB |  00m00s
[138/154] curl-0:8.5.0-1.fc40.ppc64le   100% |  11.8 MiB/s | 375.5 KiB |  00m00s
[139/154] xxhash-libs-0:0.8.2-1.fc40.pp 100% |   2.1 MiB/s |  38.1 KiB |  00m00s
[140/154] fedora-release-identity-basic 100% | 376.2 KiB/s |  10.5 KiB |  00m00s
[141/154] gdb-minimal-0:14.1-1.fc40.ppc 100% |  35.7 MiB/s |   4.3 MiB |  00m00s
[142/154] libcurl-0:8.5.0-1.fc40.ppc64l 100% |   9.4 MiB/s | 384.0 KiB |  00m00s
[143/154] openldap-0:2.6.6-1.fc39.ppc64 100% |   9.0 MiB/s | 287.2 KiB |  00m00s
[144/154] cyrus-sasl-lib-0:2.1.28-11.fc 100% |  23.1 MiB/s | 876.9 KiB |  00m00s
[145/154] libevent-0:2.1.12-9.fc40.ppc6 100% |  20.7 MiB/s | 275.9 KiB |  00m00s
[146/154] libbrotli-0:1.1.0-1.fc40.ppc6 100% |  25.0 MiB/s | 384.6 KiB |  00m00s
[147/154] libidn2-0:2.3.4-3.fc40.ppc64l 100% |  10.1 MiB/s | 114.2 KiB |  00m00s
[148/154] libnghttp2-0:1.58.0-1.fc40.pp 100% |   8.3 MiB/s |  85.3 KiB |  00m00s
[149/154] libpsl-0:0.21.2-4.fc40.ppc64l 100% |   7.1 MiB/s |  65.2 KiB |  00m00s
[150/154] libssh-0:0.10.6-2.fc40.ppc64l 100% |  18.1 MiB/s | 240.4 KiB |  00m00s
[151/154] libssh-config-0:0.10.6-2.fc40 100% |   1.0 MiB/s |   9.5 KiB |  00m00s
[152/154] publicsuffix-list-dafsa-0:202 100% |   2.3 MiB/s |  57.4 KiB |  00m00s
[153/154] libunistring-0:1.1-5.fc40.ppc 100% |  27.0 MiB/s | 580.0 KiB |  00m00s
[154/154] fedora-release-0:40-0.26.noar 100% |  33.7 KiB/s |   9.7 KiB |  00m00s
--------------------------------------------------------------------------------
[154/154] Total                         100% |  27.4 MiB/s |  56.1 MiB |  00m02s
Running transaction
Importing PGP key 0xA15B79CC:
 Userid     : "Fedora (40) <fedora-40-primary@fedoraproject.org>"
 Fingerprint: 115DF9AEF857853EE8445D0A0727707EA15B79CC
 From       : file:///usr/share/distribution-gpg-keys/fedora/RPM-GPG-KEY-fedora-40-primary
The key was successfully imported.
Importing PGP key 0xA15B79CC:
 Userid     : "Fedora (40) <fedora-40-primary@fedoraproject.org>"
 Fingerprint: 115DF9AEF857853EE8445D0A0727707EA15B79CC
 From       : file:///usr/share/distribution-gpg-keys/fedora/RPM-GPG-KEY-fedora-40-primary
The key was successfully imported.
Importing PGP key 0x18B8E74C:
 Userid     : "Fedora (39) <fedora-39-primary@fedoraproject.org>"
 Fingerprint: E8F23996F23218640CB44CBE75CF5AC418B8E74C
 From       : file:///usr/share/distribution-gpg-keys/fedora/RPM-GPG-KEY-fedora-39-primary
The key was successfully imported.
[  1/156] Verify package files          100% | 164.0   B/s | 154.0   B |  00m01s
>>> Running pre-transaction scriptlet: filesystem-0:3.18-6.fc39.ppc64le
>>> Stop pre-transaction scriptlet: filesystem-0:3.18-6.fc39.ppc64le
[  2/156] Prepare transaction           100% |   1.1 KiB/s | 154.0   B |  00m00s
[  3/156] Installing libgcc-0:14.0.0-0. 100% |  68.8 MiB/s | 352.1 KiB |  00m00s
>>> Running post-install scriptlet: libgcc-0:14.0.0-0.4.fc40.ppc64le
>>> Stop post-install scriptlet: libgcc-0:14.0.0-0.4.fc40.ppc64le
[  4/156] Installing crypto-policies-0: 100% |   9.9 MiB/s | 181.7 KiB |  00m00s
>>> Running post-install scriptlet: crypto-policies-0:20231204-1.git1e3a2e4.fc40
>>> Stop post-install scriptlet: crypto-policies-0:20231204-1.git1e3a2e4.fc40.no
[  5/156] Installing fedora-release-ide 100% | 929.7 KiB/s | 952.0   B |  00m00s
[  6/156] Installing fedora-repos-rawhi 100% |   1.2 MiB/s |   2.4 KiB |  00m00s
[  7/156] Installing fedora-gpg-keys-0: 100% |  12.6 MiB/s | 167.6 KiB |  00m00s
[  8/156] Installing fedora-repos-0:40- 100% |   5.6 MiB/s |   5.7 KiB |  00m00s
[  9/156] Installing fedora-release-com 100% |   7.5 MiB/s |  23.1 KiB |  00m00s
[ 10/156] Installing fedora-release-0:4 100% | 121.1 KiB/s | 124.0   B |  00m00s
[ 11/156] Installing setup-0:2.14.5-1.f 100% |  18.7 MiB/s | 725.8 KiB |  00m00s
>>> Running post-install scriptlet: setup-0:2.14.5-1.fc40.noarch
>>> Stop post-install scriptlet: setup-0:2.14.5-1.fc40.noarch
[ 12/156] Installing filesystem-0:3.18- 100% | 997.0 KiB/s | 212.4 KiB |  00m00s
[ 13/156] Installing basesystem-0:11-18 100% |   0.0   B/s | 124.0   B |  00m00s
[ 14/156] Installing libssh-config-0:0. 100% | 796.9 KiB/s | 816.0   B |  00m00s
[ 15/156] Installing publicsuffix-list- 100% |  65.8 MiB/s |  67.4 KiB |  00m00s
[ 16/156] Installing pcre2-syntax-0:10. 100% |  77.3 MiB/s | 237.6 KiB |  00m00s
[ 17/156] Installing qt6-srpm-macros-0: 100% | 714.8 KiB/s | 732.0   B |  00m00s
[ 18/156] Installing qt5-srpm-macros-0: 100% | 750.0 KiB/s | 768.0   B |  00m00s
[ 19/156] Installing coreutils-common-0 100% | 131.8 MiB/s |  11.5 MiB |  00m00s
[ 20/156] Installing ncurses-base-0:6.4 100% |  21.4 MiB/s | 350.1 KiB |  00m00s
[ 21/156] Installing glibc-minimal-lang 100% |  24.2 KiB/s | 124.0   B |  00m00s
[ 22/156] Installing glibc-gconv-extra- 100% | 186.2 MiB/s |  49.0 MiB |  00m00s
>>> Running post-install scriptlet: glibc-gconv-extra-0:2.38.9000-30.fc40.ppc64l
>>> Stop post-install scriptlet: glibc-gconv-extra-0:2.38.9000-30.fc40.ppc64le
[ 23/156] Installing glibc-common-0:2.3 100% | 128.1 MiB/s |   2.6 MiB |  00m00s
>>> Running pre-install scriptlet: glibc-0:2.38.9000-30.fc40.ppc64le
>>> Stop pre-install scriptlet: glibc-0:2.38.9000-30.fc40.ppc64le
[ 24/156] Installing glibc-0:2.38.9000- 100% | 123.6 MiB/s |  11.6 MiB |  00m00s
>>> Running post-install scriptlet: glibc-0:2.38.9000-30.fc40.ppc64le
>>> Stop post-install scriptlet: glibc-0:2.38.9000-30.fc40.ppc64le
[ 25/156] Installing ncurses-libs-0:6.4 100% | 135.2 MiB/s |   2.4 MiB |  00m00s
[ 26/156] Installing bash-0:5.2.21-2.fc 100% | 142.4 MiB/s |   8.7 MiB |  00m00s
>>> Running post-install scriptlet: bash-0:5.2.21-2.fc40.ppc64le
>>> Stop post-install scriptlet: bash-0:5.2.21-2.fc40.ppc64le
[ 27/156] Installing zlib-ng-compat-0:2 100% | 128.0 MiB/s | 262.1 KiB |  00m00s
[ 28/156] Installing xz-libs-0:5.4.5-1. 100% | 107.6 MiB/s | 330.5 KiB |  00m00s
[ 29/156] Installing bzip2-libs-0:1.0.8 100% |  98.5 MiB/s | 201.7 KiB |  00m00s
[ 30/156] Installing readline-0:8.2-4.f 100% | 114.3 MiB/s | 819.0 KiB |  00m00s
[ 31/156] Installing libuuid-0:2.39.3-1 100% |  96.9 MiB/s | 198.4 KiB |  00m00s
[ 32/156] Installing popt-0:1.19-3.fc40 100% |  34.1 MiB/s | 279.3 KiB |  00m00s
[ 33/156] Installing libstdc++-0:14.0.0 100% | 147.6 MiB/s |   3.8 MiB |  00m00s
[ 34/156] Installing libzstd-0:1.5.5-4. 100% | 120.8 MiB/s | 989.3 KiB |  00m00s
[ 35/156] Installing elfutils-libelf-0: 100% | 125.6 MiB/s |   1.1 MiB |  00m00s
[ 36/156] Installing libblkid-0:2.39.3- 100% | 111.8 MiB/s | 458.0 KiB |  00m00s
[ 37/156] Installing libattr-0:2.5.1-9. 100% |  96.3 MiB/s | 197.1 KiB |  00m00s
[ 38/156] Installing libacl-0:2.3.1-11. 100% |  95.9 MiB/s | 196.5 KiB |  00m00s
[ 39/156] Installing libxcrypt-0:4.4.36 100% |  78.4 MiB/s | 401.2 KiB |  00m00s
[ 40/156] Installing gmp-1:6.2.1-5.fc40 100% | 118.8 MiB/s | 851.7 KiB |  00m00s
[ 41/156] Installing libeconf-0:0.5.2-1 100% | 100.4 MiB/s | 205.6 KiB |  00m00s
[ 42/156] Installing lz4-libs-0:1.9.4-4 100% | 106.2 MiB/s | 326.1 KiB |  00m00s
[ 43/156] Installing gdbm-libs-1:1.23-4 100% | 139.0 MiB/s | 427.0 KiB |  00m00s
[ 44/156] Installing mpfr-0:4.2.1-1.fc4 100% | 119.4 MiB/s | 978.3 KiB |  00m00s
[ 45/156] Installing dwz-0:0.15-3.fc40. 100% | 110.4 MiB/s | 452.1 KiB |  00m00s
[ 46/156] Installing unzip-0:6.0-62.fc4 100% | 119.7 MiB/s | 857.7 KiB |  00m00s
[ 47/156] Installing file-libs-0:5.45-1 100% | 201.7 MiB/s |  10.1 MiB |  00m00s
[ 48/156] Installing file-0:5.45-1.fc40 100% |  87.5 MiB/s | 268.8 KiB |  00m00s
[ 49/156] Installing libsmartcols-0:2.3 100% |  94.1 MiB/s | 289.2 KiB |  00m00s
[ 50/156] Installing lua-libs-0:5.4.6-3 100% | 111.8 MiB/s | 458.1 KiB |  00m00s
[ 51/156] Installing libsepol-0:3.6-1.f 100% | 122.7 MiB/s |   1.1 MiB |  00m00s
[ 52/156] Installing pcre2-0:10.42-2.fc 100% | 135.4 MiB/s | 970.4 KiB |  00m00s
[ 53/156] Installing libselinux-0:3.6-2 100% | 107.5 MiB/s | 330.3 KiB |  00m00s
[ 54/156] Installing sed-0:4.8-14.fc40. 100% |  71.3 MiB/s | 949.7 KiB |  00m00s
[ 55/156] Installing grep-0:3.11-5.fc40 100% |  77.3 MiB/s |   1.2 MiB |  00m00s
[ 56/156] Installing findutils-1:4.9.0- 100% |  97.6 MiB/s |   1.9 MiB |  00m00s
[ 57/156] Installing xz-0:5.4.5-1.fc40. 100% |  87.8 MiB/s |   2.3 MiB |  00m00s
[ 58/156] Installing libmount-0:2.39.3- 100% | 107.3 MiB/s | 549.4 KiB |  00m00s
[ 59/156] Installing libcap-ng-0:0.8.4- 100% | 136.2 MiB/s | 418.4 KiB |  00m00s
[ 60/156] Installing audit-libs-0:3.1.2 100% | 119.7 MiB/s | 613.0 KiB |  00m00s
[ 61/156] Installing pam-libs-0:1.5.3-9 100% | 118.8 MiB/s | 608.4 KiB |  00m00s
[ 62/156] Installing libcap-0:2.69-1.fc 100% | 137.1 MiB/s |   1.4 MiB |  00m00s
[ 63/156] Installing systemd-libs-0:255 100% | 144.7 MiB/s |   2.9 MiB |  00m00s
[ 64/156] Installing alternatives-0:1.2 100% | 107.3 MiB/s | 219.8 KiB |  00m00s
[ 65/156] Installing jansson-0:2.13.1-7 100% | 108.2 MiB/s | 221.6 KiB |  00m00s
[ 66/156] Installing libtasn1-0:4.19.0- 100% | 113.7 MiB/s | 349.1 KiB |  00m00s
[ 67/156] Installing libcom_err-0:1.47. 100% | 117.3 MiB/s | 240.2 KiB |  00m00s
[ 68/156] Installing libunistring-0:1.1 100% | 129.0 MiB/s |   1.9 MiB |  00m00s
[ 69/156] Installing libidn2-0:2.3.4-3. 100% |  55.7 MiB/s | 456.7 KiB |  00m00s
[ 70/156] Installing libpsl-0:0.21.2-4. 100% |  64.2 MiB/s | 197.2 KiB |  00m00s
[ 71/156] Installing util-linux-core-0: 100% | 156.3 MiB/s |   6.1 MiB |  00m00s
[ 72/156] Installing libsemanage-0:3.6- 100% |  79.9 MiB/s | 491.2 KiB |  00m00s
[ 73/156] Installing shadow-utils-2:4.1 100% |  78.0 MiB/s |   7.3 MiB |  00m00s
>>> Running pre-install scriptlet: libutempter-0:1.2.1-10.fc40.ppc64le
>>> Stop pre-install scriptlet: libutempter-0:1.2.1-10.fc40.ppc64le
[ 74/156] Installing libutempter-0:1.2. 100% | 102.4 MiB/s | 419.4 KiB |  00m00s
[ 75/156] Installing tar-2:1.35-2.fc40. 100% | 114.0 MiB/s |   3.2 MiB |  00m00s
[ 76/156] Installing zip-0:3.0-39.fc40. 100% | 124.8 MiB/s |   1.2 MiB |  00m00s
[ 77/156] Installing gdbm-1:1.23-4.fc40 100% |  91.1 MiB/s | 932.9 KiB |  00m00s
[ 78/156] Installing cyrus-sasl-lib-0:2 100% | 141.7 MiB/s |   3.5 MiB |  00m00s
[ 79/156] Installing zstd-0:1.5.5-4.fc4 100% | 137.3 MiB/s |   2.1 MiB |  00m00s
[ 80/156] Installing libfdisk-0:2.39.3- 100% | 109.4 MiB/s | 560.3 KiB |  00m00s
[ 81/156] Installing bzip2-0:1.0.8-16.f 100% |  84.3 MiB/s | 431.8 KiB |  00m00s
[ 82/156] Installing libxml2-0:2.12.3-1 100% | 135.7 MiB/s |   2.6 MiB |  00m00s
[ 83/156] Installing sqlite-libs-0:3.44 100% | 128.9 MiB/s |   1.9 MiB |  00m00s
[ 84/156] Installing elfutils-default-y 100% | 340.5 KiB/s |   2.0 KiB |  00m00s
>>> Running post-install scriptlet: elfutils-default-yama-scope-0:0.190-4.fc40.n
>>> Stop post-install scriptlet: elfutils-default-yama-scope-0:0.190-4.fc40.noar
[ 85/156] Installing ed-0:1.19-4.fc40.p 100% |  68.9 MiB/s | 282.4 KiB |  00m00s
[ 86/156] Installing patch-0:2.7.6-22.f 100% |  95.7 MiB/s | 392.0 KiB |  00m00s
[ 87/156] Installing cpio-0:2.14-5.fc40 100% |  88.6 MiB/s |   1.2 MiB |  00m00s
[ 88/156] Installing diffutils-0:3.10-3 100% | 103.4 MiB/s |   2.2 MiB |  00m00s
[ 89/156] Installing librtas-0:2.0.4-3. 100% |  32.2 MiB/s | 461.3 KiB |  00m00s
>>> Running post-install scriptlet: librtas-0:2.0.4-3.fc39.ppc64le
>>> Stop post-install scriptlet: librtas-0:2.0.4-3.fc39.ppc64le
[ 90/156] Installing libpkgconf-0:1.9.5 100% |  64.8 MiB/s | 199.0 KiB |  00m00s
[ 91/156] Installing pkgconf-0:1.9.5-2. 100% |  58.1 MiB/s | 238.1 KiB |  00m00s
[ 92/156] Installing libsigsegv-0:2.14- 100% |  73.8 MiB/s | 226.7 KiB |  00m00s
[ 93/156] Installing gawk-0:5.2.2-2.fc4 100% | 145.3 MiB/s |   4.5 MiB |  00m00s
[ 94/156] Installing libgomp-0:14.0.0-0 100% | 112.6 MiB/s | 691.6 KiB |  00m00s
[ 95/156] Installing libffi-0:3.4.4-5.f 100% |  71.1 MiB/s | 218.6 KiB |  00m00s
[ 96/156] Installing p11-kit-0:0.25.3-1 100% | 104.1 MiB/s |   3.3 MiB |  00m00s
[ 97/156] Installing p11-kit-trust-0:0. 100% |  49.4 MiB/s | 657.0 KiB |  00m00s
>>> Running post-install scriptlet: p11-kit-trust-0:0.25.3-1.fc40.ppc64le
>>> Stop post-install scriptlet: p11-kit-trust-0:0.25.3-1.fc40.ppc64le
[ 98/156] Installing openssl-libs-1:3.1 100% | 148.7 MiB/s |   8.3 MiB |  00m00s
[ 99/156] Installing coreutils-0:9.4-1. 100% | 169.0 MiB/s |  22.5 MiB |  00m00s
>>> Running pre-install scriptlet: ca-certificates-0:2023.2.62_v7.0.401-4.fc40.n
>>> Stop pre-install scriptlet: ca-certificates-0:2023.2.62_v7.0.401-4.fc40.noar
[100/156] Installing ca-certificates-0: 100% |   1.2 MiB/s |   2.3 MiB |  00m02s
>>> Running post-install scriptlet: ca-certificates-0:2023.2.62_v7.0.401-4.fc40.
>>> Stop post-install scriptlet: ca-certificates-0:2023.2.62_v7.0.401-4.fc40.noa
[101/156] Installing gzip-0:1.12-6.fc40 100% |  44.4 MiB/s | 545.3 KiB |  00m00s
>>> Running pre-install scriptlet: authselect-libs-0:1.4.3-1.fc40.ppc64le
>>> Stop pre-install scriptlet: authselect-libs-0:1.4.3-1.fc40.ppc64le
[102/156] Installing authselect-libs-0: 100% |  34.0 MiB/s |   1.1 MiB |  00m00s
[103/156] Installing authselect-0:1.4.3 100% |  28.1 MiB/s | 316.7 KiB |  00m00s
[104/156] Installing cracklib-0:2.9.11- 100% |  38.5 MiB/s | 945.2 KiB |  00m00s
[105/156] Installing libpwquality-0:1.4 100% |  42.6 MiB/s |   1.1 MiB |  00m00s
[106/156] Installing libarchive-0:3.7.2 100% |  83.0 MiB/s |   1.3 MiB |  00m00s
[107/156] Installing rpm-sequoia-0:1.5. 100% |  97.9 MiB/s |   5.0 MiB |  00m00s
[108/156] Installing rpm-libs-0:4.19.1- 100% |  88.9 MiB/s |   1.2 MiB |  00m00s
[109/156] Installing libevent-0:2.1.12- 100% |  93.2 MiB/s |   1.6 MiB |  00m00s
[110/156] Installing openldap-0:2.6.6-1 100% |  74.6 MiB/s |   1.1 MiB |  00m00s
[111/156] Installing libverto-0:0.3.2-6 100% |  38.8 MiB/s | 198.9 KiB |  00m00s
[112/156] Installing keyutils-libs-0:1. 100% |  55.5 MiB/s | 227.4 KiB |  00m00s
[113/156] Installing krb5-libs-0:1.21.2 100% |  88.8 MiB/s |   3.9 MiB |  00m00s
[114/156] Installing libtirpc-0:1.3.4-1 100% |  55.4 MiB/s | 340.5 KiB |  00m00s
[115/156] Installing libnsl2-0:2.0.0-6. 100% |  43.5 MiB/s | 222.8 KiB |  00m00s
[116/156] Installing pam-0:1.5.3-9.fc40 100% |  90.2 MiB/s |  10.8 MiB |  00m00s
[117/156] Installing libssh-0:0.10.6-2. 100% |  63.2 MiB/s | 711.4 KiB |  00m00s
[118/156] Installing xxhash-libs-0:0.8. 100% |  52.1 MiB/s | 213.3 KiB |  00m00s
[119/156] Installing libbrotli-0:1.1.0- 100% |  79.0 MiB/s |   1.3 MiB |  00m00s
[120/156] Installing libnghttp2-0:1.58. 100% |  51.4 MiB/s | 263.1 KiB |  00m00s
[121/156] Installing libcurl-0:8.5.0-1. 100% |  78.9 MiB/s |   1.0 MiB |  00m00s
[122/156] Installing elfutils-libs-0:0. 100% |  80.2 MiB/s |   1.0 MiB |  00m00s
[123/156] Installing elfutils-debuginfo 100% |  55.6 MiB/s | 398.3 KiB |  00m00s
[124/156] Installing binutils-gold-0:2. 100% |  81.9 MiB/s |   3.8 MiB |  00m00s
>>> Running post-install scriptlet: binutils-gold-0:2.41-20.fc40.ppc64le
>>> Stop post-install scriptlet: binutils-gold-0:2.41-20.fc40.ppc64le
[125/156] Installing binutils-0:2.41-20 100% | 105.8 MiB/s |  32.0 MiB |  00m00s
>>> Running post-install scriptlet: binutils-0:2.41-20.fc40.ppc64le
>>> Stop post-install scriptlet: binutils-0:2.41-20.fc40.ppc64le
[126/156] Installing elfutils-0:0.190-4 100% | 104.4 MiB/s |   5.3 MiB |  00m00s
[127/156] Installing gdb-minimal-0:14.1 100% |  96.7 MiB/s |  14.4 MiB |  00m00s
[128/156] Installing debugedit-0:5.0-12 100% |  61.2 MiB/s | 501.3 KiB |  00m00s
[129/156] Installing rpm-build-libs-0:4 100% |  53.2 MiB/s | 327.1 KiB |  00m00s
[130/156] Installing curl-0:8.5.0-1.fc4 100% |  34.7 MiB/s | 924.6 KiB |  00m00s
>>> Running pre-install scriptlet: rpm-0:4.19.1-2.fc40.ppc64le
>>> Stop pre-install scriptlet: rpm-0:4.19.1-2.fc40.ppc64le
[131/156] Installing rpm-0:4.19.1-2.fc4 100% |  41.4 MiB/s |   3.4 MiB |  00m00s
[132/156] Installing efi-srpm-macros-0: 100% |  13.4 MiB/s |  41.2 KiB |  00m00s
[133/156] Installing lua-srpm-macros-0: 100% | 925.8 KiB/s |   1.9 KiB |  00m00s
[134/156] Installing zig-srpm-macros-0: 100% |   1.6 MiB/s |   1.7 KiB |  00m00s
[135/156] Installing pkgconf-m4-0:1.9.5 100% |  14.0 MiB/s |  14.3 KiB |  00m00s
[136/156] Installing pkgconf-pkg-config 100% | 886.7 KiB/s |   1.8 KiB |  00m00s
[137/156] Installing rust-srpm-macros-0 100% |   2.8 MiB/s |   5.8 KiB |  00m00s
[138/156] Installing perl-srpm-macros-0 100% | 556.6 KiB/s |   1.1 KiB |  00m00s
[139/156] Installing package-notes-srpm 100% |   1.0 MiB/s |   2.0 KiB |  00m00s
[140/156] Installing openblas-srpm-macr 100% | 375.0 KiB/s | 384.0   B |  00m00s
[141/156] Installing ocaml-srpm-macros- 100% |   1.1 MiB/s |   2.2 KiB |  00m00s
[142/156] Installing kernel-srpm-macros 100% |   1.1 MiB/s |   2.3 KiB |  00m00s
[143/156] Installing gnat-srpm-macros-0 100% |   1.2 MiB/s |   1.3 KiB |  00m00s
[144/156] Installing ghc-srpm-macros-0: 100% | 316.4 KiB/s | 648.0   B |  00m00s
[145/156] Installing fpc-srpm-macros-0: 100% | 205.1 KiB/s | 420.0   B |  00m00s
[146/156] Installing ansible-srpm-macro 100% |  11.8 MiB/s |  36.1 KiB |  00m00s
[147/156] Installing pyproject-srpm-mac 100% |   1.0 MiB/s |   2.1 KiB |  00m00s
[148/156] Installing rpm-build-0:4.19.1 100% |  66.9 MiB/s |   1.2 MiB |  00m00s
[149/156] Installing fonts-srpm-macros- 100% |  13.8 MiB/s |  56.5 KiB |  00m00s
[150/156] Installing forge-srpm-macros- 100% |  12.6 MiB/s |  38.6 KiB |  00m00s
[151/156] Installing go-srpm-macros-0:3 100% |  20.1 MiB/s |  61.6 KiB |  00m00s
[152/156] Installing python-srpm-macros 100% |  12.5 MiB/s |  51.3 KiB |  00m00s
[153/156] Installing redhat-rpm-config- 100% |  15.2 MiB/s | 186.9 KiB |  00m00s
[154/156] Installing util-linux-0:2.39. 100% |  94.8 MiB/s |  17.0 MiB |  00m00s
[155/156] Installing which-0:2.21-40.fc 100% |  40.7 MiB/s | 250.1 KiB |  00m00s
[156/156] Installing info-0:7.1-1.fc40. 100% | 267.5 KiB/s | 677.7 KiB |  00m03s
>>> Running post-transaction scriptlet: filesystem-0:3.18-6.fc39.ppc64le
>>> Stop post-transaction scriptlet: filesystem-0:3.18-6.fc39.ppc64le
>>> Running post-transaction scriptlet: ca-certificates-0:2023.2.62_v7.0.401-4.f
>>> Stop post-transaction scriptlet: ca-certificates-0:2023.2.62_v7.0.401-4.fc40
>>> Running post-transaction scriptlet: authselect-libs-0:1.4.3-1.fc40.ppc64le
>>> Stop post-transaction scriptlet: authselect-libs-0:1.4.3-1.fc40.ppc64le
>>> Running post-transaction scriptlet: rpm-0:4.19.1-2.fc40.ppc64le
>>> Stop post-transaction scriptlet: rpm-0:4.19.1-2.fc40.ppc64le
>>> Running trigger-install scriptlet: glibc-common-0:2.38.9000-30.fc40.ppc64le
>>> Stop trigger-install scriptlet: glibc-common-0:2.38.9000-30.fc40.ppc64le
>>> Running trigger-install scriptlet: info-0:7.1-1.fc40.ppc64le
>>> Stop trigger-install scriptlet: info-0:7.1-1.fc40.ppc64le
Warning: skipped PGP checks for 88 package(s).
Finish: installing minimal buildroot with dnf5
Start: creating root cache
Finish: creating root cache
Finish: chroot init
INFO: Installed packages:
INFO: alternatives-1.25-1.fc40.ppc64le
ansible-srpm-macros-1-11.fc39.noarch
audit-libs-3.1.2-5.fc40.ppc64le
authselect-1.4.3-1.fc40.ppc64le
authselect-libs-1.4.3-1.fc40.ppc64le
basesystem-11-18.fc39.noarch
bash-5.2.21-2.fc40.ppc64le
binutils-2.41-20.fc40.ppc64le
binutils-gold-2.41-20.fc40.ppc64le
bzip2-1.0.8-16.fc40.ppc64le
bzip2-libs-1.0.8-16.fc40.ppc64le
ca-certificates-2023.2.62_v7.0.401-4.fc40.noarch
coreutils-9.4-1.fc40.ppc64le
coreutils-common-9.4-1.fc40.ppc64le
cpio-2.14-5.fc40.ppc64le
cracklib-2.9.11-2.fc40.ppc64le
crypto-policies-20231204-1.git1e3a2e4.fc40.noarch
curl-8.5.0-1.fc40.ppc64le
cyrus-sasl-lib-2.1.28-11.fc39.ppc64le
debugedit-5.0-12.fc40.ppc64le
diffutils-3.10-3.fc40.ppc64le
dwz-0.15-3.fc40.ppc64le
ed-1.19-4.fc40.ppc64le
efi-srpm-macros-5-9.fc39.noarch
elfutils-0.190-4.fc40.ppc64le
elfutils-debuginfod-client-0.190-4.fc40.ppc64le
elfutils-default-yama-scope-0.190-4.fc40.noarch
elfutils-libelf-0.190-4.fc40.ppc64le
elfutils-libs-0.190-4.fc40.ppc64le
fedora-gpg-keys-40-0.2.noarch
fedora-release-40-0.26.noarch
fedora-release-common-40-0.26.noarch
fedora-release-identity-basic-40-0.26.noarch
fedora-repos-40-0.2.noarch
fedora-repos-rawhide-40-0.2.noarch
file-5.45-1.fc40.ppc64le
file-libs-5.45-1.fc40.ppc64le
filesystem-3.18-6.fc39.ppc64le
findutils-4.9.0-6.fc40.ppc64le
fonts-srpm-macros-2.0.5-12.fc39.noarch
forge-srpm-macros-0.2.0-1.fc40.noarch
fpc-srpm-macros-1.3-8.fc39.noarch
gawk-5.2.2-2.fc40.ppc64le
gdb-minimal-14.1-1.fc40.ppc64le
gdbm-1.23-4.fc40.ppc64le
gdbm-libs-1.23-4.fc40.ppc64le
ghc-srpm-macros-1.6.1-3.fc40.noarch
glibc-2.38.9000-30.fc40.ppc64le
glibc-common-2.38.9000-30.fc40.ppc64le
glibc-gconv-extra-2.38.9000-30.fc40.ppc64le
glibc-minimal-langpack-2.38.9000-30.fc40.ppc64le
gmp-6.2.1-5.fc40.ppc64le
gnat-srpm-macros-6-3.fc39.noarch
go-srpm-macros-3.3.1-1.fc40.noarch
gpg-pubkey-18b8e74c-62f2920f
gpg-pubkey-a15b79cc-63d04c2c
grep-3.11-5.fc40.ppc64le
gzip-1.12-6.fc40.ppc64le
info-7.1-1.fc40.ppc64le
jansson-2.13.1-7.fc40.ppc64le
kernel-srpm-macros-1.0-20.fc39.noarch
keyutils-libs-1.6.3-1.fc40.ppc64le
krb5-libs-1.21.2-2.fc40.ppc64le
libacl-2.3.1-11.fc40.ppc64le
libarchive-3.7.2-1.fc40.ppc64le
libattr-2.5.1-9.fc40.ppc64le
libblkid-2.39.3-1.fc40.ppc64le
libbrotli-1.1.0-1.fc40.ppc64le
libcap-2.69-1.fc40.ppc64le
libcap-ng-0.8.4-2.fc40.ppc64le
libcom_err-1.47.0-2.fc40.ppc64le
libcurl-8.5.0-1.fc40.ppc64le
libeconf-0.5.2-1.fc40.ppc64le
libevent-2.1.12-9.fc40.ppc64le
libfdisk-2.39.3-1.fc40.ppc64le
libffi-3.4.4-5.fc40.ppc64le
libgcc-14.0.0-0.4.fc40.ppc64le
libgomp-14.0.0-0.4.fc40.ppc64le
libidn2-2.3.4-3.fc40.ppc64le
libmount-2.39.3-1.fc40.ppc64le
libnghttp2-1.58.0-1.fc40.ppc64le
libnsl2-2.0.0-6.fc40.ppc64le
libpkgconf-1.9.5-2.fc40.ppc64le
libpsl-0.21.2-4.fc40.ppc64le
libpwquality-1.4.5-6.fc40.ppc64le
librtas-2.0.4-3.fc39.ppc64le
libselinux-3.6-2.fc40.ppc64le
libsemanage-3.6-1.fc40.ppc64le
libsepol-3.6-1.fc40.ppc64le
libsigsegv-2.14-5.fc40.ppc64le
libsmartcols-2.39.3-1.fc40.ppc64le
libssh-0.10.6-2.fc40.ppc64le
libssh-config-0.10.6-2.fc40.noarch
libstdc++-14.0.0-0.4.fc40.ppc64le
libtasn1-4.19.0-3.fc40.ppc64le
libtirpc-1.3.4-1.rc1.fc40.ppc64le
libunistring-1.1-5.fc40.ppc64le
libutempter-1.2.1-10.fc40.ppc64le
libuuid-2.39.3-1.fc40.ppc64le
libverto-0.3.2-6.fc39.ppc64le
libxcrypt-4.4.36-3.fc40.ppc64le
libxml2-2.12.3-1.fc40.ppc64le
libzstd-1.5.5-4.fc40.ppc64le
lua-libs-5.4.6-3.fc39.ppc64le
lua-srpm-macros-1-9.fc39.noarch
lz4-libs-1.9.4-4.fc40.ppc64le
mpfr-4.2.1-1.fc40.ppc64le
ncurses-base-6.4-8.20231001.fc40.noarch
ncurses-libs-6.4-8.20231001.fc40.ppc64le
ocaml-srpm-macros-9-1.fc40.noarch
openblas-srpm-macros-2-14.fc39.noarch
openldap-2.6.6-1.fc39.ppc64le
openssl-libs-3.1.4-1.fc40.ppc64le
p11-kit-0.25.3-1.fc40.ppc64le
p11-kit-trust-0.25.3-1.fc40.ppc64le
package-notes-srpm-macros-0.5-9.fc39.noarch
pam-1.5.3-9.fc40.ppc64le
pam-libs-1.5.3-9.fc40.ppc64le
patch-2.7.6-22.fc40.ppc64le
pcre2-10.42-2.fc40.ppc64le
pcre2-syntax-10.42-2.fc40.noarch
perl-srpm-macros-1-51.fc39.noarch
pkgconf-1.9.5-2.fc40.ppc64le
pkgconf-m4-1.9.5-2.fc40.noarch
pkgconf-pkg-config-1.9.5-2.fc40.ppc64le
popt-1.19-3.fc40.ppc64le
publicsuffix-list-dafsa-20230812-1.fc40.noarch
pyproject-srpm-macros-1.11.0-1.fc40.noarch
python-srpm-macros-3.12-5.fc40.noarch
qt5-srpm-macros-5.15.12-1.fc40.noarch
qt6-srpm-macros-6.6.1-3.fc40.noarch
readline-8.2-4.fc40.ppc64le
redhat-rpm-config-275-1.fc40.noarch
rpm-4.19.1-2.fc40.ppc64le
rpm-build-4.19.1-2.fc40.ppc64le
rpm-build-libs-4.19.1-2.fc40.ppc64le
rpm-libs-4.19.1-2.fc40.ppc64le
rpm-sequoia-1.5.0-2.fc40.ppc64le
rust-srpm-macros-25.2-2.fc40.noarch
sed-4.8-14.fc40.ppc64le
setup-2.14.5-1.fc40.noarch
shadow-utils-4.14.0-2.fc40.ppc64le
sqlite-libs-3.44.2-1.fc40.ppc64le
systemd-libs-255.1-1.fc40.ppc64le
tar-1.35-2.fc40.ppc64le
unzip-6.0-62.fc40.ppc64le
util-linux-2.39.3-1.fc40.ppc64le
util-linux-core-2.39.3-1.fc40.ppc64le
which-2.21-40.fc40.ppc64le
xxhash-libs-0.8.2-1.fc40.ppc64le
xz-5.4.5-1.fc40.ppc64le
xz-libs-5.4.5-1.fc40.ppc64le
zig-srpm-macros-1-1.fc40.noarch
zip-3.0-39.fc40.ppc64le
zlib-ng-compat-2.1.5-1.fc40.ppc64le
zstd-1.5.5-4.fc40.ppc64le
Start: buildsrpm
Start: rpmbuild -bs
warning: %patchN is deprecated (1 usages found), use %patch N (or %patch -P N)
Building target platforms: ppc64le
Building for target ppc64le
setting SOURCE_DATE_EPOCH=1689897600
Wrote: /builddir/build/SRPMS/rubygem-posix-spawn-0.3.15-10.fc40.src.rpm

RPM build warnings:
    %patchN is deprecated (1 usages found), use %patch N (or %patch -P N)
Finish: rpmbuild -bs
INFO: chroot_scan: 1 files copied to /var/lib/copr-rpmbuild/results/chroot_scan
INFO: /var/lib/mock/fedora-rawhide-ppc64le-1704799633.748946/root/var/log/dnf5.log
Finish: buildsrpm
INFO: Done(/var/lib/copr-rpmbuild/workspace/workdir-1p5s9j3v/rubygem-posix-spawn/rubygem-posix-spawn.spec) Config(child) 1 minutes 38 seconds
INFO: Results and/or logs in: /var/lib/copr-rpmbuild/results
INFO: Cleaning up build root ('cleanup_on_success=True')
Start: clean chroot
INFO: unmounting tmpfs.
Finish: clean chroot
INFO: Start(/var/lib/copr-rpmbuild/results/rubygem-posix-spawn-0.3.15-10.fc40.src.rpm)  Config(fedora-rawhide-ppc64le)
Start(bootstrap): chroot init
INFO: mounting tmpfs at /var/lib/mock/fedora-rawhide-ppc64le-bootstrap-1704799633.748946/root.
INFO: reusing tmpfs at /var/lib/mock/fedora-rawhide-ppc64le-bootstrap-1704799633.748946/root.
INFO: calling preinit hooks
INFO: enabled root cache
INFO: enabled package manager cache
Start(bootstrap): cleaning package manager metadata
Finish(bootstrap): cleaning package manager metadata
Finish(bootstrap): chroot init
Start: chroot init
INFO: mounting tmpfs at /var/lib/mock/fedora-rawhide-ppc64le-1704799633.748946/root.
INFO: calling preinit hooks
INFO: enabled root cache
Start: unpacking root cache
Finish: unpacking root cache
INFO: enabled package manager cache
Start: cleaning package manager metadata
Finish: cleaning package manager metadata
INFO: enabled HW Info plugin
INFO: Buildroot is handled by package management downloaded with a bootstrap image:
  rpm-4.19.1-2.fc40.ppc64le
  rpm-sequoia-1.5.0-2.fc40.ppc64le
  python3-dnf-4.18.2-1.fc40.noarch
  yum-4.18.2-1.fc40.noarch
  dnf5-5.1.10-3.fc40.ppc64le
  dnf5-plugins-5.1.10-3.fc40.ppc64le
Finish: chroot init
Start: build phase for rubygem-posix-spawn-0.3.15-10.fc40.src.rpm
Start: build setup for rubygem-posix-spawn-0.3.15-10.fc40.src.rpm
warning: %patchN is deprecated (1 usages found), use %patch N (or %patch -P N)
Building target platforms: ppc64le
Building for target ppc64le
setting SOURCE_DATE_EPOCH=1689897600
Wrote: /builddir/build/SRPMS/rubygem-posix-spawn-0.3.15-10.fc40.src.rpm

RPM build warnings:
    %patchN is deprecated (1 usages found), use %patch N (or %patch -P N)
Updating and loading repositories:
 fedora                                 100% | 114.7 KiB/s |   5.0 KiB |  00m00s
 Additional repo copr_fberat_gcc_14_smo 100% |  18.6 KiB/s |   1.5 KiB |  00m00s
 Copr repository                        100% |  23.7 KiB/s |   1.5 KiB |  00m00s
Repositories loaded.
Package                  Arch    Version             Repository                        Size
Installing:                                                                                
 gcc                     ppc64le 14.0.0-0.4.fc40     copr_fberat_gcc_14_smoketest  91.8 MiB
 ruby-devel              ppc64le 3.3.0-1.fc40        fedora                         1.6 MiB
 rubygem-minitest        noarch  5.20.0-200.fc40     fedora                       143.3 KiB
 rubygems-devel          noarch  3.5.3-1.fc40        fedora                        12.5 KiB
Installing dependencies:                                                                   
 annobin-docs            noarch  12.34-1.fc40        copr_fberat_gcc_14_smoketest  95.8 KiB
 annobin-plugin-gcc      ppc64le 12.34-1.fc40        copr_fberat_gcc_14_smoketest   1.1 MiB
 cpp                     ppc64le 14.0.0-0.4.fc40     copr_fberat_gcc_14_smoketest  32.2 MiB
 gc                      ppc64le 8.2.2-4.fc40        copr_base                    913.6 KiB
 gcc-plugin-annobin      ppc64le 14.0.0-0.4.fc40     copr_fberat_gcc_14_smoketest 196.8 KiB
 glibc-devel             ppc64le 2.38.9000-30.fc40   fedora                         2.5 MiB
 guile22                 ppc64le 2.2.7-9.fc39        fedora                        44.5 MiB
 kernel-headers          ppc64le 6.7.0-0.rc8.61.fc40 fedora                         6.1 MiB
 libasan                 ppc64le 14.0.0-0.4.fc40     copr_fberat_gcc_14_smoketest   2.0 MiB
 libatomic               ppc64le 14.0.0-0.4.fc40     copr_fberat_gcc_14_smoketest 196.2 KiB
 libmpc                  ppc64le 1.3.1-3.fc40        copr_base                    345.5 KiB
 libtool-ltdl            ppc64le 2.4.7-8.fc40        copr_fberat_gcc_14_smoketest 222.0 KiB
 libubsan                ppc64le 14.0.0-0.4.fc40     copr_fberat_gcc_14_smoketest 668.3 KiB
 libxcrypt-devel         ppc64le 4.4.36-3.fc40       copr_base                     30.3 KiB
 libyaml                 ppc64le 0.2.5-12.fc40       copr_base                    262.4 KiB
 make                    ppc64le 1:4.4.1-2.fc40      copr_base                      1.9 MiB
 ruby                    ppc64le 3.3.0-1.fc40        fedora                       269.3 KiB
 ruby-default-gems       noarch  3.3.0-1.fc40        fedora                        76.6 KiB
 ruby-libs               ppc64le 3.3.0-1.fc40        fedora                        29.2 MiB
 rubygem-io-console      ppc64le 0.7.1-1.fc40        fedora                       196.9 KiB
 rubygem-json            ppc64le 2.7.1-201.fc40      fedora                       489.2 KiB
 rubygem-psych           ppc64le 5.1.2-1.fc40        fedora                       295.6 KiB
 rubygem-rdoc            noarch  6.6.2-1.fc40        fedora                         1.8 MiB
 rubygems                noarch  3.5.3-1.fc40        fedora                         1.3 MiB
 rubypick                noarch  1.1.1-19.fc39       fedora                         4.4 KiB

Transaction Summary:
 Installing:       29 packages

Total size of inbound packages is 59 MiB. Need to download 59 MiB.
After this operation 220 MiB will be used (install 220 MiB, remove 0 B).
[ 1/29] rubygems-devel-0:3.5.3-1.fc40.n 100% | 138.0 KiB/s |  14.9 KiB |  00m00s
[ 2/29] ruby-devel-0:3.3.0-1.fc40.ppc64 100% |   1.1 MiB/s | 321.8 KiB |  00m00s
[ 3/29] ruby-0:3.3.0-1.fc40.ppc64le     100% | 429.0 KiB/s |  39.5 KiB |  00m00s
[ 4/29] cpp-0:14.0.0-0.4.fc40.ppc64le   100% |  32.0 MiB/s |  10.4 MiB |  00m00s
[ 5/29] rubygem-json-0:2.7.1-201.fc40.p 100% | 679.4 KiB/s |  72.7 KiB |  00m00s
[ 6/29] gcc-0:14.0.0-0.4.fc40.ppc64le   100% |  42.0 MiB/s |  32.1 MiB |  00m01s
[ 7/29] rubygem-rdoc-0:6.6.2-1.fc40.noa 100% |   2.0 MiB/s | 492.7 KiB |  00m00s
[ 8/29] rubypick-0:1.1.1-19.fc39.noarch 100% | 341.5 KiB/s |   9.9 KiB |  00m00s
[ 9/29] rubygem-psych-0:5.1.2-1.fc40.pp 100% |   1.3 MiB/s |  58.6 KiB |  00m00s
[10/29] rubygem-io-console-0:0.7.1-1.fc 100% | 862.1 KiB/s |  25.0 KiB |  00m00s
[11/29] rubygem-minitest-0:5.20.0-200.f 100% |   1.4 MiB/s |  50.2 KiB |  00m00s
[12/29] rubygems-0:3.5.3-1.fc40.noarch  100% |   1.8 MiB/s | 361.0 KiB |  00m00s
[13/29] kernel-headers-0:6.7.0-0.rc8.61 100% |  12.2 MiB/s |   1.5 MiB |  00m00s
[14/29] glibc-devel-0:2.38.9000-30.fc40 100% |   3.7 MiB/s | 609.1 KiB |  00m00s
[15/29] libasan-0:14.0.0-0.4.fc40.ppc64 100% |  23.0 MiB/s | 495.3 KiB |  00m00s
[16/29] libatomic-0:14.0.0-0.4.fc40.ppc 100% |   1.1 MiB/s |  19.7 KiB |  00m00s
[17/29] libmpc-0:1.3.1-3.fc40.ppc64le   100% |   7.9 MiB/s |  96.7 KiB |  00m00s
[18/29] libubsan-0:14.0.0-0.4.fc40.ppc6 100% |  13.8 MiB/s | 240.9 KiB |  00m00s
[19/29] make-1:4.4.1-2.fc40.ppc64le     100% |  24.3 MiB/s | 598.0 KiB |  00m00s
[20/29] libyaml-0:0.2.5-12.fc40.ppc64le 100% |   3.6 MiB/s |  69.3 KiB |  00m00s
[21/29] ruby-default-gems-0:3.3.0-1.fc4 100% |   1.9 MiB/s |  47.9 KiB |  00m00s
[22/29] gc-0:8.2.2-4.fc40.ppc64le       100% |   9.2 MiB/s | 122.2 KiB |  00m00s
[23/29] libtool-ltdl-0:2.4.7-8.fc40.ppc 100% |   4.0 MiB/s |  40.8 KiB |  00m00s
[24/29] libxcrypt-devel-0:4.4.36-3.fc40 100% |   3.2 MiB/s |  29.3 KiB |  00m00s
[25/29] gcc-plugin-annobin-0:14.0.0-0.4 100% |   3.3 MiB/s |  34.0 KiB |  00m00s
[26/29] annobin-plugin-gcc-0:12.34-1.fc 100% |  33.5 MiB/s | 961.8 KiB |  00m00s
[27/29] annobin-docs-0:12.34-1.fc40.noa 100% |   8.1 MiB/s |  91.6 KiB |  00m00s
[28/29] ruby-libs-0:3.3.0-1.fc40.ppc64l 100% |   3.8 MiB/s |   3.8 MiB |  00m01s
[29/29] guile22-0:2.2.7-9.fc39.ppc64le  100% |   8.2 MiB/s |   6.6 MiB |  00m01s
--------------------------------------------------------------------------------
[29/29] Total                           100% |  29.4 MiB/s |  59.2 MiB |  00m02s
Running transaction
[ 1/31] Verify package files            100% |  22.0   B/s |  29.0   B |  00m01s
[ 2/31] Prepare transaction             100% | 211.0   B/s |  29.0   B |  00m00s
[ 3/31] Installing ruby-libs-0:3.3.0-1. 100% |  91.7 MiB/s |  29.3 MiB |  00m00s
[ 4/31] Installing libmpc-0:1.3.1-3.fc4 100% |  56.5 MiB/s | 347.1 KiB |  00m00s
[ 5/31] Installing cpp-0:14.0.0-0.4.fc4 100% |  84.9 MiB/s |  32.2 MiB |  00m00s
[ 6/31] Installing annobin-docs-0:12.34 100% |  31.5 MiB/s |  96.8 KiB |  00m00s
[ 7/31] Installing libtool-ltdl-0:2.4.7 100% |  54.5 MiB/s | 223.1 KiB |  00m00s
[ 8/31] Installing gc-0:8.2.2-4.fc40.pp 100% |  55.9 MiB/s | 916.1 KiB |  00m00s
[ 9/31] Installing guile22-0:2.2.7-9.fc 100% |  91.4 MiB/s |  44.6 MiB |  00m00s
[10/31] Installing make-1:4.4.1-2.fc40. 100% |  66.0 MiB/s |   1.9 MiB |  00m00s
[11/31] Installing libyaml-0:0.2.5-12.f 100% |  42.9 MiB/s | 263.7 KiB |  00m00s
[12/31] Installing rubygem-json-0:2.7.1 100% |  34.6 MiB/s | 495.7 KiB |  00m00s
[13/31] Installing rubygem-rdoc-0:6.6.2 100% |  39.3 MiB/s |   1.8 MiB |  00m00s
[14/31] Installing rubygem-io-console-0 100% |  24.3 MiB/s | 199.1 KiB |  00m00s
[15/31] Installing rubygems-0:3.5.3-1.f 100% |  27.8 MiB/s |   1.3 MiB |  00m00s
[16/31] Installing rubygem-psych-0:5.1. 100% |  24.8 MiB/s | 304.3 KiB |  00m00s
[17/31] Installing ruby-default-gems-0: 100% |   7.9 MiB/s |  88.8 KiB |  00m00s
[18/31] Installing rubypick-0:1.1.1-19. 100% |   2.5 MiB/s |   5.1 KiB |  00m00s
[19/31] Installing ruby-0:3.3.0-1.fc40. 100% |  44.1 MiB/s | 270.9 KiB |  00m00s
[20/31] Installing libubsan-0:14.0.0-0. 100% |  65.3 MiB/s | 669.1 KiB |  00m00s
[21/31] Installing libatomic-0:14.0.0-0 100% |  64.1 MiB/s | 197.0 KiB |  00m00s
[22/31] Installing libasan-0:14.0.0-0.4 100% |  68.2 MiB/s |   2.0 MiB |  00m00s
[23/31] Installing kernel-headers-0:6.7 100% |  42.8 MiB/s |   6.2 MiB |  00m00s
[24/31] Installing libxcrypt-devel-0:4. 100% |   5.3 MiB/s |  32.6 KiB |  00m00s
[25/31] Installing glibc-devel-0:2.38.9 100% |  49.9 MiB/s |   2.6 MiB |  00m00s
[26/31] Installing gcc-0:14.0.0-0.4.fc4 100% | 148.8 MiB/s |  91.8 MiB |  00m01s
>>> Running trigger-install scriptlet: redhat-rpm-config-0:275-1.fc40.noarch
>>> Stop trigger-install scriptlet: redhat-rpm-config-0:275-1.fc40.noarch
[27/31] Installing gcc-plugin-annobin-0 100% |   7.8 MiB/s | 198.4 KiB |  00m00s
>>> Running trigger-install scriptlet: redhat-rpm-config-0:275-1.fc40.noarch
>>> Stop trigger-install scriptlet: redhat-rpm-config-0:275-1.fc40.noarch
[28/31] Installing annobin-plugin-gcc-0 100% |  40.1 MiB/s |   1.1 MiB |  00m00s
>>> Running trigger-install scriptlet: redhat-rpm-config-0:275-1.fc40.noarch
>>> Stop trigger-install scriptlet: redhat-rpm-config-0:275-1.fc40.noarch
[29/31] Installing ruby-devel-0:3.3.0-1 100% |  66.9 MiB/s |   1.6 MiB |  00m00s
[30/31] Installing rubygems-devel-0:3.5 100% |   6.5 MiB/s |  13.3 KiB |  00m00s
[31/31] Installing rubygem-minitest-0:5 100% | 562.9 KiB/s | 146.9 KiB |  00m00s
>>> Running trigger-install scriptlet: glibc-common-0:2.38.9000-30.fc40.ppc64le
>>> Stop trigger-install scriptlet: glibc-common-0:2.38.9000-30.fc40.ppc64le
>>> Running trigger-install scriptlet: info-0:7.1-1.fc40.ppc64le
>>> Stop trigger-install scriptlet: info-0:7.1-1.fc40.ppc64le
Warning: skipped PGP checks for 14 package(s).
Finish: build setup for rubygem-posix-spawn-0.3.15-10.fc40.src.rpm
Start: rpmbuild rubygem-posix-spawn-0.3.15-10.fc40.src.rpm
warning: %patchN is deprecated (1 usages found), use %patch N (or %patch -P N)
Building target platforms: ppc64le
Building for target ppc64le
setting SOURCE_DATE_EPOCH=1689897600
Executing(%prep): /bin/sh -e /var/tmp/rpm-tmp.rFcVcQ
+ umask 022
+ cd /builddir/build/BUILD
+ gem unpack /builddir/build/SOURCES/posix-spawn-0.3.15.gem
Unpacked gem: '/builddir/build/BUILD/posix-spawn-0.3.15'
+ cd /builddir/build/BUILD
+ cd posix-spawn-0.3.15
+ rm -rf /builddir/build/BUILD/posix-spawn-0.3.15-SPECPARTS
+ /usr/bin/mkdir -p /builddir/build/BUILD/posix-spawn-0.3.15-SPECPARTS
+ /usr/bin/chmod -Rf a+rX,u+w,g-w,o-w .
+ gem spec /builddir/build/SOURCES/posix-spawn-0.3.15.gem -l --ruby
+ FREEZE=
+ FREEZE=.freeze
+ for f in .gitignore Gemfile Rakefile
+ rm .gitignore
+ sed -i 's|".gitignore".freeze,||g' posix-spawn.gemspec
+ for f in .gitignore Gemfile Rakefile
+ rm Gemfile
+ sed -i 's|"Gemfile".freeze,||g' posix-spawn.gemspec
+ for f in .gitignore Gemfile Rakefile
+ rm Rakefile
+ sed -i 's|"Rakefile".freeze,||g' posix-spawn.gemspec
+ echo 'Patch #0 (rubygem-posix-spawn-0.3.11-skip-tests.patch):'
Patch #0 (rubygem-posix-spawn-0.3.11-skip-tests.patch):
+ /usr/bin/patch --no-backup-if-mismatch -f -p1 --fuzz=0
patching file test/test_spawn.rb
+ RPM_EC=0
++ jobs -p
+ exit 0
Executing(%build): /bin/sh -e /var/tmp/rpm-tmp.CO4vei
+ umask 022
+ cd /builddir/build/BUILD
+ CFLAGS='-O2 -flto=auto -ffat-lto-objects -fexceptions -g -grecord-gcc-switches -pipe -Wall -Werror=format-security -Werror=implicit-function-declaration -Werror=implicit-int -Wp,-U_FORTIFY_SOURCE,-D_FORTIFY_SOURCE=3 -Wp,-D_GLIBCXX_ASSERTIONS -specs=/usr/lib/rpm/redhat/redhat-hardened-cc1 -fstack-protector-strong -specs=/usr/lib/rpm/redhat/redhat-annobin-cc1  -m64 -mcpu=power8 -mtune=power8 -fasynchronous-unwind-tables -fstack-clash-protection '
+ export CFLAGS
+ CXXFLAGS='-O2 -flto=auto -ffat-lto-objects -fexceptions -g -grecord-gcc-switches -pipe -Wall -Werror=format-security -Wp,-U_FORTIFY_SOURCE,-D_FORTIFY_SOURCE=3 -Wp,-D_GLIBCXX_ASSERTIONS -specs=/usr/lib/rpm/redhat/redhat-hardened-cc1 -fstack-protector-strong -specs=/usr/lib/rpm/redhat/redhat-annobin-cc1  -m64 -mcpu=power8 -mtune=power8 -fasynchronous-unwind-tables -fstack-clash-protection '
+ export CXXFLAGS
+ FFLAGS='-O2 -flto=auto -ffat-lto-objects -fexceptions -g -grecord-gcc-switches -pipe -Wall -Wp,-U_FORTIFY_SOURCE,-D_FORTIFY_SOURCE=3 -Wp,-D_GLIBCXX_ASSERTIONS -specs=/usr/lib/rpm/redhat/redhat-hardened-cc1 -fstack-protector-strong -specs=/usr/lib/rpm/redhat/redhat-annobin-cc1  -m64 -mcpu=power8 -mtune=power8 -fasynchronous-unwind-tables -fstack-clash-protection -I/usr/lib64/gfortran/modules '
+ export FFLAGS
+ FCFLAGS='-O2 -flto=auto -ffat-lto-objects -fexceptions -g -grecord-gcc-switches -pipe -Wall -Wp,-U_FORTIFY_SOURCE,-D_FORTIFY_SOURCE=3 -Wp,-D_GLIBCXX_ASSERTIONS -specs=/usr/lib/rpm/redhat/redhat-hardened-cc1 -fstack-protector-strong -specs=/usr/lib/rpm/redhat/redhat-annobin-cc1  -m64 -mcpu=power8 -mtune=power8 -fasynchronous-unwind-tables -fstack-clash-protection -I/usr/lib64/gfortran/modules '
+ export FCFLAGS
+ VALAFLAGS=-g
+ export VALAFLAGS
+ RUSTFLAGS='-Copt-level=3 -Cdebuginfo=2 -Ccodegen-units=1 -Cstrip=none -Clink-arg=-Wl,-z,relro -Clink-arg=-Wl,-z,now -Clink-arg=-specs=/usr/lib/rpm/redhat/redhat-package-notes --cap-lints=warn'
+ export RUSTFLAGS
+ LDFLAGS='-Wl,-z,relro -Wl,--as-needed  -Wl,-z,pack-relative-relocs -Wl,-z,now -specs=/usr/lib/rpm/redhat/redhat-hardened-ld -specs=/usr/lib/rpm/redhat/redhat-annobin-cc1  -Wl,--build-id=sha1 -specs=/usr/lib/rpm/redhat/redhat-package-notes '
+ export LDFLAGS
+ LT_SYS_LIBRARY_PATH=/usr/lib64:
+ export LT_SYS_LIBRARY_PATH
+ CC=gcc
+ export CC
+ CXX=g++
+ export CXX
+ cd posix-spawn-0.3.15
+ gem build posix-spawn.gemspec
WARNING:  open-ended dependency on minitest (>= 4, development) is not recommended
  if minitest is semantically versioned, use:
    add_development_dependency "minitest", "~> 4"
WARNING:  See https://guides.rubygems.org/specification-reference/ for help
  Successfully built RubyGem
  Name: posix-spawn
  Version: 0.3.15
  File: posix-spawn-0.3.15.gem
+ mkdir -p ./usr/share/gems
+ CONFIGURE_ARGS='--with-cflags='\''-O2 -flto=auto -ffat-lto-objects -fexceptions -g -grecord-gcc-switches -pipe -Wall -Wno-complain-wrong-lang -Werror=format-security -Werror=implicit-function-declaration -Werror=implicit-int -Wp,-U_FORTIFY_SOURCE,-D_FORTIFY_SOURCE=3 -Wp,-D_GLIBCXX_ASSERTIONS -specs=/usr/lib/rpm/redhat/redhat-hardened-cc1 -fstack-protector-strong -specs=/usr/lib/rpm/redhat/redhat-annobin-cc1  -m64 -mcpu=power8 -mtune=power8 -fasynchronous-unwind-tables -fstack-clash-protection'\'' --with-cxxflags='\''-O2 -flto=auto -ffat-lto-objects -fexceptions -g -grecord-gcc-switches -pipe -Wall -Wno-complain-wrong-lang -Werror=format-security -Werror=implicit-function-declaration -Werror=implicit-int -Wp,-U_FORTIFY_SOURCE,-D_FORTIFY_SOURCE=3 -Wp,-D_GLIBCXX_ASSERTIONS -specs=/usr/lib/rpm/redhat/redhat-hardened-cc1 -fstack-protector-strong -specs=/usr/lib/rpm/redhat/redhat-annobin-cc1  -m64 -mcpu=power8 -mtune=power8 -fasynchronous-unwind-tables -fstack-clash-protection'\'' --with-ldflags='\''-Wl,-z,relro -Wl,--as-needed  -Wl,-z,pack-relative-relocs -Wl,-z,now -specs=/usr/lib/rpm/redhat/redhat-hardened-ld -specs=/usr/lib/rpm/redhat/redhat-annobin-cc1  -Wl,--build-id=sha1 -specs=/usr/lib/rpm/redhat/redhat-package-notes '\'' '
+ gem install -V --local --build-root . --force --document=ri,rdoc posix-spawn-0.3.15.gem
WARNING:  You build with buildroot.
  Build root: /builddir/build/BUILD/posix-spawn-0.3.15
  Bin dir: /builddir/build/BUILD/posix-spawn-0.3.15/usr/bin
  Gem home: /builddir/build/BUILD/posix-spawn-0.3.15/usr/share/gems
  Plugins dir: /builddir/build/BUILD/posix-spawn-0.3.15/usr/share/gems/plugins
/builddir/build/BUILD/posix-spawn-0.3.15/usr/share/gems/gems/posix-spawn-0.3.15/.travis.yml
/builddir/build/BUILD/posix-spawn-0.3.15/usr/share/gems/gems/posix-spawn-0.3.15/COPYING
/builddir/build/BUILD/posix-spawn-0.3.15/usr/share/gems/gems/posix-spawn-0.3.15/HACKING
/builddir/build/BUILD/posix-spawn-0.3.15/usr/share/gems/gems/posix-spawn-0.3.15/README.md
/builddir/build/BUILD/posix-spawn-0.3.15/usr/share/gems/gems/posix-spawn-0.3.15/TODO
/builddir/build/BUILD/posix-spawn-0.3.15/usr/share/gems/gems/posix-spawn-0.3.15/bin/posix-spawn-benchmark
/builddir/build/BUILD/posix-spawn-0.3.15/usr/share/gems/gems/posix-spawn-0.3.15/ext/extconf.rb
/builddir/build/BUILD/posix-spawn-0.3.15/usr/share/gems/gems/posix-spawn-0.3.15/ext/posix-spawn.c
/builddir/build/BUILD/posix-spawn-0.3.15/usr/share/gems/gems/posix-spawn-0.3.15/lib/posix-spawn.rb
/builddir/build/BUILD/posix-spawn-0.3.15/usr/share/gems/gems/posix-spawn-0.3.15/lib/posix/spawn.rb
/builddir/build/BUILD/posix-spawn-0.3.15/usr/share/gems/gems/posix-spawn-0.3.15/lib/posix/spawn/child.rb
/builddir/build/BUILD/posix-spawn-0.3.15/usr/share/gems/gems/posix-spawn-0.3.15/lib/posix/spawn/version.rb
/builddir/build/BUILD/posix-spawn-0.3.15/usr/share/gems/gems/posix-spawn-0.3.15/posix-spawn.gemspec
/builddir/build/BUILD/posix-spawn-0.3.15/usr/share/gems/gems/posix-spawn-0.3.15/test/test_backtick.rb
/builddir/build/BUILD/posix-spawn-0.3.15/usr/share/gems/gems/posix-spawn-0.3.15/test/test_child.rb
/builddir/build/BUILD/posix-spawn-0.3.15/usr/share/gems/gems/posix-spawn-0.3.15/test/test_helper.rb
/builddir/build/BUILD/posix-spawn-0.3.15/usr/share/gems/gems/posix-spawn-0.3.15/test/test_popen.rb
/builddir/build/BUILD/posix-spawn-0.3.15/usr/share/gems/gems/posix-spawn-0.3.15/test/test_spawn.rb
/builddir/build/BUILD/posix-spawn-0.3.15/usr/share/gems/gems/posix-spawn-0.3.15/test/test_system.rb
Building native extensions. This could take a while...
current directory: /builddir/build/BUILD/posix-spawn-0.3.15/usr/share/gems/gems/posix-spawn-0.3.15/ext
["/usr/bin/ruby", "-I/usr/share/rubygems", "extconf.rb"]
creating Makefile
current directory: /builddir/build/BUILD/posix-spawn-0.3.15/usr/share/gems/gems/posix-spawn-0.3.15/ext
["make", "DESTDIR=", "sitearchdir=./.gem.20240109-47-b9vuh2", "sitelibdir=./.gem.20240109-47-b9vuh2", "clean"]
rm -f 
rm -fr posix_spawn_ext.so false posix-spawn.o *.bak mkmf.log .*.time
current directory: /builddir/build/BUILD/posix-spawn-0.3.15/usr/share/gems/gems/posix-spawn-0.3.15/ext
["make", "DESTDIR=", "sitearchdir=./.gem.20240109-47-b9vuh2", "sitelibdir=./.gem.20240109-47-b9vuh2"]
ERROR:  Error installing posix-spawn-0.3.15.gem:
	ERROR: Failed to build gem native extension.

    current directory: /builddir/build/BUILD/posix-spawn-0.3.15/usr/share/gems/gems/posix-spawn-0.3.15/ext
/usr/bin/ruby -I/usr/share/rubygems extconf.rb
current directory: /builddir/build/BUILD/posix-spawn-0.3.15/usr/share/gems/gems/posix-spawn-0.3.15/ext
make DESTDIR\= sitearchdir\=./.gem.20240109-47-b9vuh2 sitelibdir\=./.gem.20240109-47-b9vuh2 clean
current directory: /builddir/build/BUILD/posix-spawn-0.3.15/usr/share/gems/gems/posix-spawn-0.3.15/ext
make DESTDIR\= sitearchdir\=./.gem.20240109-47-b9vuh2 sitelibdir\=./.gem.20240109-47-b9vuh2
Building has failed. See above output for more information on the failure.
make failed, exit code 2

Gem files will remain installed in /builddir/build/BUILD/posix-spawn-0.3.15/usr/share/gems/gems/posix-spawn-0.3.15 for inspection.
Results logged to /builddir/build/BUILD/posix-spawn-0.3.15/usr/lib64/gems/ruby/posix-spawn-0.3.15/gem_make.out
gcc -I. -I/usr/include -I/usr/include/ruby/backward -I/usr/include -I.   -fPIC -O2 -flto=auto -ffat-lto-objects -fexceptions -g -grecord-gcc-switches -pipe -Wall -Wno-complain-wrong-lang -Werror=format-security -Werror=implicit-function-declaration -Werror=implicit-int -Wp,-U_FORTIFY_SOURCE,-D_FORTIFY_SOURCE=3 -Wp,-D_GLIBCXX_ASSERTIONS -specs=/usr/lib/rpm/redhat/redhat-hardened-cc1 -fstack-protector-strong -specs=/usr/lib/rpm/redhat/redhat-annobin-cc1  -m64 -mcpu=power8 -mtune=power8 -fasynchronous-unwind-tables -fstack-clash-protection -Wall  -m64 -o posix-spawn.o -c posix-spawn.c
posix-spawn.c: In function ‘posixspawn_file_actions_init’:
posix-spawn.c:226:34: error: passing argument 2 of ‘rb_hash_foreach’ from incompatible pointer type [-Wincompatible-pointer-types]
  226 |         rb_hash_foreach(options, posixspawn_file_actions_operations_iter, (VALUE)fops);
      |                                  ^~~~~~~~~~~~~~~~~~~~~~~~~~~~~~~~~~~~~~~
      |                                  |
      |                                  int (*)(VALUE,  VALUE,  posix_spawn_file_actions_t *) {aka int (*)(long unsigned int,  long unsigned int,  posix_spawn_file_actions_t *)}
In file included from /usr/include/ruby/internal/scan_args.h:37,
                 from /usr/include/ruby/ruby.h:46,
                 from /usr/include/ruby.h:38,
                 from posix-spawn.c:14:
/usr/include/ruby/internal/intern/hash.h:83:40: note: expected ‘int (*)(VALUE,  VALUE,  VALUE)’ {aka ‘int (*)(long unsigned int,  long unsigned int,  long unsigned int)’} but argument is of type ‘int (*)(VALUE,  VALUE,  posix_spawn_file_actions_t *)’ {aka ‘int (*)(long unsigned int,  long unsigned int,  posix_spawn_file_actions_t *)’}
   83 | void rb_hash_foreach(VALUE hash, int (*func)(VALUE key, VALUE val, VALUE arg), VALUE arg);
      |                                  ~~~~~~^~~~~~~~~~~~~~~~~~~~~~~~~~~~~~~~~~~~~~
make: *** [Makefile:249: posix-spawn.o] Error 1

RPM build warnings:

RPM build errors:
error: Bad exit status from /var/tmp/rpm-tmp.CO4vei (%build)
    %patchN is deprecated (1 usages found), use %patch N (or %patch -P N)
    Bad exit status from /var/tmp/rpm-tmp.CO4vei (%build)
Finish: rpmbuild rubygem-posix-spawn-0.3.15-10.fc40.src.rpm
Finish: build phase for rubygem-posix-spawn-0.3.15-10.fc40.src.rpm
INFO: chroot_scan: 1 files copied to /var/lib/copr-rpmbuild/results/chroot_scan
INFO: /var/lib/mock/fedora-rawhide-ppc64le-1704799633.748946/root/var/log/dnf5.log
ERROR: Exception(/var/lib/copr-rpmbuild/results/rubygem-posix-spawn-0.3.15-10.fc40.src.rpm) Config(fedora-rawhide-ppc64le) 0 minutes 18 seconds
INFO: Results and/or logs in: /var/lib/copr-rpmbuild/results
INFO: Cleaning up build root ('cleanup_on_failure=True')
Start: clean chroot
INFO: unmounting tmpfs.
Finish: clean chroot
ERROR: Command failed: 
 # /usr/bin/systemd-nspawn -q -M b014eb95bbde44a3b61519b62eee2884 -D /var/lib/mock/fedora-rawhide-ppc64le-1704799633.748946/root -a -u mockbuild --capability=cap_ipc_lock --rlimit=RLIMIT_NOFILE=10240 --capability=cap_ipc_lock --bind=/tmp/mock-resolv.jemjnqxv:/etc/resolv.conf --bind=/dev/btrfs-control --bind=/dev/mapper/control --bind=/dev/fuse --bind=/dev/loop-control --bind=/dev/loop0 --bind=/dev/loop1 --bind=/dev/loop2 --bind=/dev/loop3 --bind=/dev/loop4 --bind=/dev/loop5 --bind=/dev/loop6 --bind=/dev/loop7 --bind=/dev/loop8 --bind=/dev/loop9 --bind=/dev/loop10 --bind=/dev/loop11 --console=pipe --setenv=TERM=vt100 --setenv=SHELL=/bin/bash --setenv=HOME=/builddir --setenv=HOSTNAME=mock --setenv=PATH=/usr/bin:/bin:/usr/sbin:/sbin '--setenv=PROMPT_COMMAND=printf "\033]0;<mock-chroot>\007"' '--setenv=PS1=<mock-chroot> \s-\v\$ ' --setenv=LANG=C.UTF-8 --resolv-conf=off bash --login -c '/usr/bin/rpmbuild -bb  --target ppc64le --nodeps /builddir/build/originals/rubygem-posix-spawn.spec'

Copr build error: Build failed
