Warning: Permanently added '2620:52:3:1:dead:beef:cafe:c14a' (ED25519) to the list of known hosts.

You can reproduce this build on your computer by running:

  sudo dnf install copr-rpmbuild
  /usr/bin/copr-rpmbuild --verbose --drop-resultdir --task-url https://copr.fedorainfracloud.org/backend/get-build-task/6853665-fedora-rawhide-i386 --chroot fedora-rawhide-i386


Version: 0.70
PID: 21867
Logging PID: 21868
Task:
{'appstream': False,
 'background': True,
 'build_id': 6853665,
 'buildroot_pkgs': [],
 'chroot': 'fedora-rawhide-i386',
 'enable_net': False,
 'fedora_review': False,
 'git_hash': 'b3378c5e2a35acd58fb22827d3df0ed8f8825395',
 'git_repo': 'https://copr-dist-git.fedorainfracloud.org/git/fberat/gcc-14_fulldeps_x86/php-pecl-xattr',
 'isolation': 'default',
 'memory_reqs': 2048,
 'package_name': 'php-pecl-xattr',
 'package_version': '1.4.0-13',
 'project_dirname': 'gcc-14_fulldeps_x86',
 'project_name': 'gcc-14_fulldeps_x86',
 'project_owner': 'fberat',
 'repo_priority': None,
 'repos': [{'baseurl': 'https://download.copr.fedorainfracloud.org/results/fberat/gcc-14_fulldeps_x86/fedora-rawhide-i386/',
            'id': 'copr_base',
            'name': 'Copr repository',
            'priority': None},
           {'baseurl': 'https://download.copr.fedorainfracloud.org/results/fberat/gcc-14_smoketest/fedora-rawhide-i386/',
            'id': 'copr_fberat_gcc_14_smoketest',
            'name': 'Additional repo copr_fberat_gcc_14_smoketest'}],
 'sandbox': 'fberat/gcc-14_fulldeps_x86--fberat',
 'source_json': {},
 'source_type': None,
 'submitter': 'fberat',
 'tags': [],
 'task_id': '6853665-fedora-rawhide-i386',
 'timeout': 115200,
 'uses_devel_repo': False,
 'with_opts': [],
 'without_opts': []}

Running: git clone https://copr-dist-git.fedorainfracloud.org/git/fberat/gcc-14_fulldeps_x86/php-pecl-xattr /var/lib/copr-rpmbuild/workspace/workdir-o_g3p_96/php-pecl-xattr --depth 500 --no-single-branch --recursive

cmd: ['git', 'clone', 'https://copr-dist-git.fedorainfracloud.org/git/fberat/gcc-14_fulldeps_x86/php-pecl-xattr', '/var/lib/copr-rpmbuild/workspace/workdir-o_g3p_96/php-pecl-xattr', '--depth', '500', '--no-single-branch', '--recursive']
cwd: .
rc: 0
stdout: 
stderr: Cloning into '/var/lib/copr-rpmbuild/workspace/workdir-o_g3p_96/php-pecl-xattr'...

Running: git checkout b3378c5e2a35acd58fb22827d3df0ed8f8825395 --

cmd: ['git', 'checkout', 'b3378c5e2a35acd58fb22827d3df0ed8f8825395', '--']
cwd: /var/lib/copr-rpmbuild/workspace/workdir-o_g3p_96/php-pecl-xattr
rc: 0
stdout: 
stderr: Note: switching to 'b3378c5e2a35acd58fb22827d3df0ed8f8825395'.

You are in 'detached HEAD' state. You can look around, make experimental
changes and commit them, and you can discard any commits you make in this
state without impacting any branches by switching back to a branch.

If you want to create a new branch to retain commits you create, you may
do so (now or later) by using -c with the switch command. Example:

  git switch -c <new-branch-name>

Or undo this operation with:

  git switch -

Turn off this advice by setting config variable advice.detachedHead to false

HEAD is now at b3378c5 automatic import of php-pecl-xattr

Running: copr-distgit-client sources
/usr/bin/tail: /var/lib/copr-rpmbuild/main.log: file truncated

cmd: ['copr-distgit-client', 'sources']
cwd: /var/lib/copr-rpmbuild/workspace/workdir-o_g3p_96/php-pecl-xattr
rc: 0
stdout: 
stderr: INFO: Reading stdout from command: git rev-parse --abbrev-ref HEAD
INFO: Reading stdout from command: git rev-parse HEAD
INFO: Reading sources specification file: sources
INFO: Downloading xattr-1.4.0.tgz
INFO: Reading stdout from command: curl --help all
INFO: Calling: curl -H Pragma: -o xattr-1.4.0.tgz --location --connect-timeout 60 --retry 3 --retry-delay 10 --remote-time --show-error --fail --retry-all-errors https://copr-dist-git.fedorainfracloud.org/repo/pkgs/fberat/gcc-14_fulldeps_x86/php-pecl-xattr/xattr-1.4.0.tgz/md5/8f9354949259ccbe58b3513a35e5d03b/xattr-1.4.0.tgz
  % Total    % Received % Xferd  Average Speed   Time    Time     Time  Current
                                 Dload  Upload   Total   Spent    Left  Speed
100  8401  100  8401    0     0   124k      0 --:--:-- --:--:-- --:--:--  126k
INFO: Reading stdout from command: md5sum xattr-1.4.0.tgz

Running (timeout=115200): unbuffer mock --spec /var/lib/copr-rpmbuild/workspace/workdir-o_g3p_96/php-pecl-xattr/php-pecl-xattr.spec --sources /var/lib/copr-rpmbuild/workspace/workdir-o_g3p_96/php-pecl-xattr --resultdir /var/lib/copr-rpmbuild/results --uniqueext 1704298850.980728 -r /var/lib/copr-rpmbuild/results/configs/child.cfg
INFO: mock.py version 5.3 starting (python version = 3.11.3, NVR = mock-5.3-1.fc38), args: /usr/libexec/mock/mock --spec /var/lib/copr-rpmbuild/workspace/workdir-o_g3p_96/php-pecl-xattr/php-pecl-xattr.spec --sources /var/lib/copr-rpmbuild/workspace/workdir-o_g3p_96/php-pecl-xattr --resultdir /var/lib/copr-rpmbuild/results --uniqueext 1704298850.980728 -r /var/lib/copr-rpmbuild/results/configs/child.cfg
Start(bootstrap): init plugins
INFO: tmpfs initialized
INFO: selinux enabled
INFO: chroot_scan: initialized
INFO: compress_logs: initialized
Finish(bootstrap): init plugins
Start: init plugins
INFO: tmpfs initialized
INFO: selinux enabled
INFO: chroot_scan: initialized
INFO: compress_logs: initialized
Finish: init plugins
INFO: Signal handler active
Start: run
INFO: Start(/var/lib/copr-rpmbuild/workspace/workdir-o_g3p_96/php-pecl-xattr/php-pecl-xattr.spec)  Config(fedora-rawhide-i686)
Start: clean chroot
Finish: clean chroot
Mock Version: 5.3
INFO: Mock Version: 5.3
Start(bootstrap): chroot init
INFO: mounting tmpfs at /var/lib/mock/fedora-rawhide-i686-bootstrap-1704298850.980728/root.
INFO: calling preinit hooks
INFO: enabled root cache
INFO: enabled package manager cache
Start(bootstrap): cleaning package manager metadata
Finish(bootstrap): cleaning package manager metadata
INFO: Guessed host environment type: unknown
INFO: Using bootstrap image: registry.fedoraproject.org/fedora:rawhide
INFO: Pulling image: registry.fedoraproject.org/fedora:rawhide
INFO: Copy content of container registry.fedoraproject.org/fedora:rawhide to /var/lib/mock/fedora-rawhide-i686-bootstrap-1704298850.980728/root
INFO: Checking that registry.fedoraproject.org/fedora:rawhide image matches host's architecture
INFO: mounting registry.fedoraproject.org/fedora:rawhide with podman image mount
INFO: image registry.fedoraproject.org/fedora:rawhide as /var/lib/containers/storage/overlay/c069b2feab839a2711b6a9fdd2d87873fa2700a4173b6f4506bb0003ffe7e5d2/merged
INFO: umounting image registry.fedoraproject.org/fedora:rawhide (/var/lib/containers/storage/overlay/c069b2feab839a2711b6a9fdd2d87873fa2700a4173b6f4506bb0003ffe7e5d2/merged) with podman image umount
INFO: Package manager dnf detected and used (fallback)
INFO: Bootstrap image not marked ready
Start(bootstrap): installing dnf tooling
No matches found for the following disable plugin patterns: local, spacewalk, versionlock
Copr repository                                  41 MB/s |  35 MB     00:00    
Additional repo copr_fberat_gcc_14_smoketest    1.5 MB/s | 136 kB     00:00    
local                                            25 MB/s |  17 MB     00:00    
Errors during downloading metadata for repository 'local':
  - Status code: 404 for https://kojipkgs.fedoraproject.org/repos/rawhide/latest/x86_64/repodata/5bd2946e7430ca4ed38e9d4b800b6978d73ac1ecaf20d13bde53d5d7929a54b5-filelists.xml.gz (IP: 38.145.60.21)
Error: Failed to download metadata for repo 'local': Yum repo downloading error: Downloading error(s): repodata/5bd2946e7430ca4ed38e9d4b800b6978d73ac1ecaf20d13bde53d5d7929a54b5-filelists.xml.gz - Cannot download, all mirrors were already tried without success
WARNING: DNF command failed, retrying, attempt #2, sleeping 10s
No matches found for the following disable plugin patterns: local, spacewalk, versionlock
Copr repository                                  33 kB/s | 1.5 kB     00:00    
Additional repo copr_fberat_gcc_14_smoketest     45 kB/s | 1.5 kB     00:00    
local                                            29 MB/s |  17 MB     00:00    
Errors during downloading metadata for repository 'local':
  - Status code: 404 for https://kojipkgs.fedoraproject.org/repos/rawhide/latest/x86_64/repodata/5bd2946e7430ca4ed38e9d4b800b6978d73ac1ecaf20d13bde53d5d7929a54b5-filelists.xml.gz (IP: 38.145.60.21)
Error: Failed to download metadata for repo 'local': Yum repo downloading error: Downloading error(s): repodata/5bd2946e7430ca4ed38e9d4b800b6978d73ac1ecaf20d13bde53d5d7929a54b5-filelists.xml.gz - Cannot download, all mirrors were already tried without success
WARNING: DNF command failed, retrying, attempt #3, sleeping 10s
No matches found for the following disable plugin patterns: local, spacewalk, versionlock
Copr repository                                  45 kB/s | 1.5 kB     00:00    
Additional repo copr_fberat_gcc_14_smoketest     44 kB/s | 1.5 kB     00:00    
local                                            51 MB/s |  17 MB     00:00    
Errors during downloading metadata for repository 'local':
  - Status code: 404 for https://kojipkgs.fedoraproject.org/repos/rawhide/latest/x86_64/repodata/5bd2946e7430ca4ed38e9d4b800b6978d73ac1ecaf20d13bde53d5d7929a54b5-filelists.xml.gz (IP: 38.145.60.21)
Error: Failed to download metadata for repo 'local': Yum repo downloading error: Downloading error(s): repodata/5bd2946e7430ca4ed38e9d4b800b6978d73ac1ecaf20d13bde53d5d7929a54b5-filelists.xml.gz - Cannot download, all mirrors were already tried without success
ERROR: Exception(/var/lib/copr-rpmbuild/workspace/workdir-o_g3p_96/php-pecl-xattr/php-pecl-xattr.spec) Config(fedora-rawhide-i686) 0 minutes 31 seconds
INFO: Results and/or logs in: /var/lib/copr-rpmbuild/results
INFO: Cleaning up build root ('cleanup_on_failure=True')
Start: clean chroot
Finish: clean chroot
ERROR: Command failed: 
 # /usr/bin/systemd-nspawn -q -M c92c2c0e5025468886ede0e80db09b8e -D /var/lib/mock/fedora-rawhide-i686-bootstrap-1704298850.980728/root -a --console=pipe --setenv=TERM=vt100 --setenv=SHELL=/bin/bash --setenv=HOME=/var/lib/mock/fedora-rawhide-i686-bootstrap-1704298850.980728/root/installation-homedir --setenv=HOSTNAME=mock --setenv=PATH=/usr/bin:/bin:/usr/sbin:/sbin '--setenv=PROMPT_COMMAND=printf "\033]0;<mock-chroot>\007"' '--setenv=PS1=<mock-chroot> \s-\v\$ ' --setenv=LANG=C.UTF-8 --setenv=LC_MESSAGES=C.UTF-8 --setenv=SYSTEMD_NSPAWN_TMPFS_TMP=0 --setenv=SYSTEMD_SECCOMP=0 --resolv-conf=off /usr/bin/dnf-3 --releasever 40 --setopt=deltarpm=False --setopt=allow_vendor_change=yes --allowerasing --disableplugin=local --disableplugin=spacewalk --disableplugin=versionlock install python3-dnf python3-dnf-plugins-core --setopt=tsflags=nocontexts --setopt=tsflags=nocontexts --setopt=tsflags=nocontexts
No matches found for the following disable plugin patterns: local, spacewalk, versionlock
Copr repository                                  45 kB/s | 1.5 kB     00:00    
Additional repo copr_fberat_gcc_14_smoketest     44 kB/s | 1.5 kB     00:00    
local                                            51 MB/s |  17 MB     00:00    
Errors during downloading metadata for repository 'local':
  - Status code: 404 for https://kojipkgs.fedoraproject.org/repos/rawhide/latest/x86_64/repodata/5bd2946e7430ca4ed38e9d4b800b6978d73ac1ecaf20d13bde53d5d7929a54b5-filelists.xml.gz (IP: 38.145.60.21)
Error: Failed to download metadata for repo 'local': Yum repo downloading error: Downloading error(s): repodata/5bd2946e7430ca4ed38e9d4b800b6978d73ac1ecaf20d13bde53d5d7929a54b5-filelists.xml.gz - Cannot download, all mirrors were already tried without success

Copr build error: Build failed
