Warning: Permanently added '2620:52:3:1:dead:beef:cafe:c1d9' (ED25519) to the list of known hosts.

You can reproduce this build on your computer by running:

  sudo dnf install copr-rpmbuild
  /usr/bin/copr-rpmbuild --verbose --drop-resultdir --task-url https://copr.fedorainfracloud.org/backend/get-build-task/6855451-fedora-rawhide-i386 --chroot fedora-rawhide-i386


Version: 0.70
PID: 20584
Logging PID: 20585
Task:
{'appstream': False,
 'background': True,
 'build_id': 6855451,
 'buildroot_pkgs': [],
 'chroot': 'fedora-rawhide-i386',
 'enable_net': False,
 'fedora_review': False,
 'git_hash': 'b30e757656e8dd7ed9ff2a14c2411193986cbe37',
 'git_repo': 'https://copr-dist-git.fedorainfracloud.org/git/fberat/gcc-14_fulldeps_x86.checker/klamav',
 'isolation': 'default',
 'memory_reqs': 2048,
 'package_name': 'klamav',
 'package_version': '0.46-42',
 'project_dirname': 'gcc-14_fulldeps_x86.checker',
 'project_name': 'gcc-14_fulldeps_x86.checker',
 'project_owner': 'fberat',
 'repo_priority': None,
 'repos': [{'baseurl': 'https://download.copr.fedorainfracloud.org/results/fberat/gcc-14_fulldeps_x86.checker/fedora-rawhide-i386/',
            'id': 'copr_base',
            'name': 'Copr repository',
            'priority': None}],
 'sandbox': 'fberat/gcc-14_fulldeps_x86.checker--fberat',
 'source_json': {},
 'source_type': None,
 'submitter': 'fberat',
 'tags': [],
 'task_id': '6855451-fedora-rawhide-i386',
 'timeout': 115200,
 'uses_devel_repo': False,
 'with_opts': [],
 'without_opts': []}

Running: git clone https://copr-dist-git.fedorainfracloud.org/git/fberat/gcc-14_fulldeps_x86.checker/klamav /var/lib/copr-rpmbuild/workspace/workdir-lwz5l15k/klamav --depth 500 --no-single-branch --recursive

cmd: ['git', 'clone', 'https://copr-dist-git.fedorainfracloud.org/git/fberat/gcc-14_fulldeps_x86.checker/klamav', '/var/lib/copr-rpmbuild/workspace/workdir-lwz5l15k/klamav', '--depth', '500', '--no-single-branch', '--recursive']
cwd: .
rc: 0
stdout: 
stderr: Cloning into '/var/lib/copr-rpmbuild/workspace/workdir-lwz5l15k/klamav'...

Running: git checkout b30e757656e8dd7ed9ff2a14c2411193986cbe37 --

cmd: ['git', 'checkout', 'b30e757656e8dd7ed9ff2a14c2411193986cbe37', '--']
cwd: /var/lib/copr-rpmbuild/workspace/workdir-lwz5l15k/klamav
rc: 0
stdout: 
stderr: Note: switching to 'b30e757656e8dd7ed9ff2a14c2411193986cbe37'.

You are in 'detached HEAD' state. You can look around, make experimental
changes and commit them, and you can discard any commits you make in this
state without impacting any branches by switching back to a branch.

If you want to create a new branch to retain commits you create, you may
do so (now or later) by using -c with the switch command. Example:

  git switch -c <new-branch-name>

Or undo this operation with:

  git switch -

Turn off this advice by setting config variable advice.detachedHead to false

HEAD is now at b30e757 automatic import of klamav

Running: copr-distgit-client sources
/usr/bin/tail: /var/lib/copr-rpmbuild/main.log: file truncated

cmd: ['copr-distgit-client', 'sources']
cwd: /var/lib/copr-rpmbuild/workspace/workdir-lwz5l15k/klamav
rc: 0
stdout: 
stderr: INFO: Reading stdout from command: git rev-parse --abbrev-ref HEAD
INFO: Reading stdout from command: git rev-parse HEAD
INFO: Reading sources specification file: sources
INFO: Downloading klamav-0.46.tar.bz2
INFO: Reading stdout from command: curl --help all
INFO: Calling: curl -H Pragma: -o klamav-0.46.tar.bz2 --location --connect-timeout 60 --retry 3 --retry-delay 10 --remote-time --show-error --fail --retry-all-errors https://copr-dist-git.fedorainfracloud.org/repo/pkgs/fberat/gcc-14_fulldeps_x86.checker/klamav/klamav-0.46.tar.bz2/md5/0c189ccc63434fe29b8eba166950551f/klamav-0.46.tar.bz2
  % Total    % Received % Xferd  Average Speed   Time    Time     Time  Current
                                 Dload  Upload   Total   Spent    Left  Speed
100 1174k  100 1174k    0     0  10.7M      0 --:--:-- --:--:-- --:--:-- 10.8M
INFO: Reading stdout from command: md5sum klamav-0.46.tar.bz2

Running (timeout=115200): unbuffer mock --spec /var/lib/copr-rpmbuild/workspace/workdir-lwz5l15k/klamav/klamav.spec --sources /var/lib/copr-rpmbuild/workspace/workdir-lwz5l15k/klamav --resultdir /var/lib/copr-rpmbuild/results --uniqueext 1704298146.216836 -r /var/lib/copr-rpmbuild/results/configs/child.cfg
INFO: mock.py version 5.3 starting (python version = 3.11.3, NVR = mock-5.3-1.fc38), args: /usr/libexec/mock/mock --spec /var/lib/copr-rpmbuild/workspace/workdir-lwz5l15k/klamav/klamav.spec --sources /var/lib/copr-rpmbuild/workspace/workdir-lwz5l15k/klamav --resultdir /var/lib/copr-rpmbuild/results --uniqueext 1704298146.216836 -r /var/lib/copr-rpmbuild/results/configs/child.cfg
Start(bootstrap): init plugins
INFO: tmpfs initialized
INFO: selinux enabled
INFO: chroot_scan: initialized
INFO: compress_logs: initialized
Finish(bootstrap): init plugins
Start: init plugins
INFO: tmpfs initialized
INFO: selinux enabled
INFO: chroot_scan: initialized
INFO: compress_logs: initialized
Finish: init plugins
INFO: Signal handler active
Start: run
INFO: Start(/var/lib/copr-rpmbuild/workspace/workdir-lwz5l15k/klamav/klamav.spec)  Config(fedora-rawhide-i686)
Start: clean chroot
Finish: clean chroot
Mock Version: 5.3
INFO: Mock Version: 5.3
Start(bootstrap): chroot init
INFO: mounting tmpfs at /var/lib/mock/fedora-rawhide-i686-bootstrap-1704298146.216836/root.
INFO: calling preinit hooks
INFO: enabled root cache
INFO: enabled package manager cache
Start(bootstrap): cleaning package manager metadata
Finish(bootstrap): cleaning package manager metadata
INFO: Guessed host environment type: unknown
INFO: Using bootstrap image: registry.fedoraproject.org/fedora:rawhide
INFO: Pulling image: registry.fedoraproject.org/fedora:rawhide
INFO: Copy content of container registry.fedoraproject.org/fedora:rawhide to /var/lib/mock/fedora-rawhide-i686-bootstrap-1704298146.216836/root
INFO: Checking that registry.fedoraproject.org/fedora:rawhide image matches host's architecture
INFO: mounting registry.fedoraproject.org/fedora:rawhide with podman image mount
INFO: image registry.fedoraproject.org/fedora:rawhide as /var/lib/containers/storage/overlay/c069b2feab839a2711b6a9fdd2d87873fa2700a4173b6f4506bb0003ffe7e5d2/merged
INFO: umounting image registry.fedoraproject.org/fedora:rawhide (/var/lib/containers/storage/overlay/c069b2feab839a2711b6a9fdd2d87873fa2700a4173b6f4506bb0003ffe7e5d2/merged) with podman image umount
INFO: Package manager dnf detected and used (fallback)
INFO: Bootstrap image not marked ready
Start(bootstrap): installing dnf tooling
No matches found for the following disable plugin patterns: local, spacewalk, versionlock
Copr repository                                 3.7 MB/s | 474 kB     00:00    
local                                            24 MB/s |  71 MB     00:02    
Package python3-dnf-4.18.2-1.fc40.noarch is already installed.
Dependencies resolved.
================================================================================
 Package                      Arch       Version                Repo       Size
================================================================================
Installing:
 python3-dnf-plugins-core     noarch     4.4.4-1.fc40           local     302 k
Installing dependencies:
 dbus-libs                    x86_64     1:1.14.10-1.fc40       local     155 k
 python3-dateutil             noarch     1:2.8.2-11.fc40        local     345 k
 python3-dbus                 x86_64     1.3.2-4.fc39           local     146 k
 python3-distro               noarch     1.8.0-6.fc39           local      44 k
 python3-six                  noarch     1.16.0-12.fc39         local      41 k
 python3-systemd              x86_64     235-5.fc39             local     101 k

Transaction Summary
================================================================================
Install  7 Packages

Total download size: 1.1 M
Installed size: 3.6 M
Downloading Packages:
(1/7): dbus-libs-1.14.10-1.fc40.x86_64.rpm      1.1 MB/s | 155 kB     00:00    
(2/7): python3-dbus-1.3.2-4.fc39.x86_64.rpm     985 kB/s | 146 kB     00:00    
(3/7): python3-distro-1.8.0-6.fc39.noarch.rpm   2.5 MB/s |  44 kB     00:00    
(4/7): python3-dateutil-2.8.2-11.fc40.noarch.rp 2.1 MB/s | 345 kB     00:00    
(5/7): python3-six-1.16.0-12.fc39.noarch.rpm    2.0 MB/s |  41 kB     00:00    
(6/7): python3-systemd-235-5.fc39.x86_64.rpm    4.5 MB/s | 101 kB     00:00    
(7/7): python3-dnf-plugins-core-4.4.4-1.fc40.no 7.7 MB/s | 302 kB     00:00    
--------------------------------------------------------------------------------
Total                                           5.8 MB/s | 1.1 MB     00:00     
Running transaction check
Transaction check succeeded.
Running transaction test
Transaction test succeeded.
Running transaction
  Preparing        :                                                        1/1 
  Installing       : python3-systemd-235-5.fc39.x86_64                      1/7 
  Installing       : python3-six-1.16.0-12.fc39.noarch                      2/7 
  Installing       : python3-dateutil-1:2.8.2-11.fc40.noarch                3/7 
  Installing       : python3-distro-1.8.0-6.fc39.noarch                     4/7 
  Installing       : dbus-libs-1:1.14.10-1.fc40.x86_64                      5/7 
  Installing       : python3-dbus-1.3.2-4.fc39.x86_64                       6/7 
  Installing       : python3-dnf-plugins-core-4.4.4-1.fc40.noarch           7/7 
  Running scriptlet: python3-dnf-plugins-core-4.4.4-1.fc40.noarch           7/7 

Installed:
  dbus-libs-1:1.14.10-1.fc40.x86_64                                             
  python3-dateutil-1:2.8.2-11.fc40.noarch                                       
  python3-dbus-1.3.2-4.fc39.x86_64                                              
  python3-distro-1.8.0-6.fc39.noarch                                            
  python3-dnf-plugins-core-4.4.4-1.fc40.noarch                                  
  python3-six-1.16.0-12.fc39.noarch                                             
  python3-systemd-235-5.fc39.x86_64                                             

Complete!
Finish(bootstrap): installing dnf tooling
Start(bootstrap): creating root cache
Finish(bootstrap): creating root cache
Finish(bootstrap): chroot init
Start: chroot init
INFO: mounting tmpfs at /var/lib/mock/fedora-rawhide-i686-1704298146.216836/root.
INFO: calling preinit hooks
INFO: enabled root cache
INFO: enabled package manager cache
Start: cleaning package manager metadata
Finish: cleaning package manager metadata
INFO: enabled HW Info plugin
INFO: Package manager dnf detected and used (direct choice)
INFO: Buildroot is handled by package management downloaded with a bootstrap image:
  rpm-4.19.1-2.fc40.x86_64
  rpm-sequoia-1.5.0-2.fc40.x86_64
  python3-dnf-4.18.2-1.fc40.noarch
  python3-dnf-plugins-core-4.4.4-1.fc40.noarch
  yum-4.18.2-1.fc40.noarch
Start: installing minimal buildroot with dnf
No matches found for the following disable plugin patterns: local, spacewalk, versionlock
Copr repository                                  29 kB/s | 1.5 kB     00:00    
Copr repository                                 2.1 MB/s | 474 kB     00:00    
local                                            29 kB/s | 3.8 kB     00:00    
local                                           3.6 MB/s |  60 MB     00:16    
Dependencies resolved.
================================================================================
 Package                      Arch   Version                    Repo       Size
================================================================================
Installing group/module packages:
 bash                         i686   5.2.21-2.fc40              local     1.8 M
 bzip2                        i686   1.0.8-16.fc39              local      53 k
 coreutils                    i686   9.4-1.fc40                 copr_base 1.2 M
 cpio                         i686   2.14-5.fc40                local     278 k
 diffutils                    i686   3.10-3.fc39                local     394 k
 fedora-release               noarch 40-0.26                    local     9.7 k
 findutils                    i686   1:4.9.0-6.fc40             local     492 k
 gawk                         i686   5.2.2-2.fc39               local     1.0 M
 glibc-minimal-langpack       i686   2.38.9000-29.fc40          local      89 k
 grep                         i686   3.11-5.fc40                local     294 k
 gzip                         i686   1.12-6.fc39                local     158 k
 info                         i686   7.1-1.fc40                 local     187 k
 patch                        i686   2.7.6-22.fc39              local     138 k
 redhat-rpm-config            noarch 273-1.fc40                 local      74 k
 rpm-build                    i686   4.19.1-2.fc40              local      72 k
 sed                          i686   4.8-14.fc39                local     300 k
 shadow-utils                 i686   2:4.14.0-2.fc40            local     1.2 M
 tar                          i686   2:1.35-2.fc40              local     864 k
 unzip                        i686   6.0-62.fc39                local     180 k
 util-linux                   i686   2.39.3-1.fc40              local     1.1 M
 which                        i686   2.21-40.fc39               local      42 k
 xz                           i686   5.4.5-1.fc40               local     535 k
Installing dependencies:
 alternatives                 i686   1.25-1.fc39                local      39 k
 ansible-srpm-macros          noarch 1-11.fc39                  local      21 k
 audit-libs                   i686   3.1.2-5.fc40               local     125 k
 authselect                   i686   1.4.3-1.fc40               local     145 k
 authselect-libs              i686   1.4.3-1.fc40               local     237 k
 basesystem                   noarch 11-18.fc39                 local     7.2 k
 binutils                     i686   2.41-17.fc40               local     5.9 M
 binutils-gold                i686   2.41-17.fc40               local     863 k
 bzip2-libs                   i686   1.0.8-16.fc39              local      41 k
 ca-certificates              noarch 2023.2.62_v7.0.401-4.fc40  local     863 k
 coreutils-common             i686   9.4-1.fc40                 copr_base 2.1 M
 cracklib                     i686   2.9.11-2.fc39              local      83 k
 crypto-policies              noarch 20231204-1.git1e3a2e4.fc40 local      69 k
 curl                         i686   8.5.0-1.fc40               local     375 k
 cyrus-sasl-lib               i686   2.1.28-11.fc39             local     857 k
 debugedit                    i686   5.0-12.fc40                local      80 k
 dwz                          i686   0.15-3.fc39                local     139 k
 ed                           i686   1.19-4.fc39                local      78 k
 efi-srpm-macros              noarch 5-9.fc39                   local      22 k
 elfutils                     i686   0.190-4.fc40               local     568 k
 elfutils-debuginfod-client   i686   0.190-4.fc40               local      38 k
 elfutils-default-yama-scope  noarch 0.190-4.fc40               local      13 k
 elfutils-libelf              i686   0.190-4.fc40               local     201 k
 elfutils-libs                i686   0.190-4.fc40               local     290 k
 fedora-gpg-keys              noarch 40-0.2                     local     119 k
 fedora-release-common        noarch 40-0.26                    local      20 k
 fedora-release-identity-basic
                              noarch 40-0.26                    local      11 k
 fedora-repos                 noarch 40-0.2                     local     9.3 k
 fedora-repos-rawhide         noarch 40-0.2                     local     8.9 k
 file                         i686   5.45-1.fc40                local      49 k
 file-libs                    i686   5.45-1.fc40                local     770 k
 filesystem                   i686   3.18-6.fc39                local     1.1 M
 fonts-srpm-macros            noarch 1:2.0.5-12.fc39            local      26 k
 forge-srpm-macros            noarch 0.2.0-1.fc40               local      18 k
 fpc-srpm-macros              noarch 1.3-8.fc39                 local     7.4 k
 gdb-minimal                  i686   14.1-1.fc40                copr_base 4.5 M
 gdbm                         i686   1:1.23-4.fc39              local     150 k
 gdbm-libs                    i686   1:1.23-4.fc39              local      60 k
 ghc-srpm-macros              noarch 1.6.1-3.fc40               local     8.1 k
 glibc                        i686   2.38.9000-29.fc40          local     2.0 M
 glibc-common                 i686   2.38.9000-29.fc40          local     378 k
 glibc-gconv-extra            i686   2.38.9000-29.fc40          local     1.7 M
 gmp                          i686   1:6.2.1-5.fc39             local     306 k
 gnat-srpm-macros             noarch 6-3.fc39                   local     8.8 k
 go-srpm-macros               noarch 3.3.1-1.fc40               local      28 k
 jansson                      i686   2.13.1-7.fc39              local      46 k
 kernel-srpm-macros           noarch 1.0-20.fc39                local      10 k
 keyutils-libs                i686   1.6.3-1.fc40               local      32 k
 krb5-libs                    i686   1.21.2-2.fc40              local     804 k
 libacl                       i686   2.3.1-11.fc40              local      25 k
 libarchive                   i686   3.7.2-1.fc40               local     450 k
 libattr                      i686   2.5.1-9.fc40               local      18 k
 libblkid                     i686   2.39.3-1.fc40              local     128 k
 libbrotli                    i686   1.1.0-1.fc40               local     340 k
 libcap                       i686   2.69-1.fc40                local      84 k
 libcap-ng                    i686   0.8.4-1.fc40               local      33 k
 libcom_err                   i686   1.47.0-2.fc39              local      26 k
 libcurl                      i686   8.5.0-1.fc40               local     372 k
 libeconf                     i686   0.5.2-1.fc40               local      32 k
 libevent                     i686   2.1.12-9.fc39              local     277 k
 libfdisk                     i686   2.39.3-1.fc40              local     175 k
 libffi                       i686   3.4.4-5.fc40               local      37 k
 libgcc                       i686   13.2.1-6.fc40              local     121 k
 libgomp                      i686   13.2.1-6.fc40              local     324 k
 libidn2                      i686   2.3.4-3.fc39               local     111 k
 libmount                     i686   2.39.3-1.fc40              local     162 k
 libnghttp2                   i686   1.58.0-1.fc40              local      82 k
 libnsl2                      i686   2.0.0-6.fc39               local      31 k
 libpkgconf                   i686   1.9.5-2.fc39               local      41 k
 libpsl                       i686   0.21.2-4.fc39              local      63 k
 libpwquality                 i686   1.4.5-6.fc39               local     109 k
 libselinux                   i686   3.6-1.fc40                 local      93 k
 libsemanage                  i686   3.6-1.fc40                 local     125 k
 libsepol                     i686   3.6-1.fc40                 local     351 k
 libsigsegv                   i686   2.14-5.fc39                local      27 k
 libsmartcols                 i686   2.39.3-1.fc40              local      69 k
 libssh                       i686   0.10.6-2.fc40              local     227 k
 libssh-config                noarch 0.10.6-2.fc40              local     9.1 k
 libstdc++                    i686   13.2.1-6.fc40              local     931 k
 libtasn1                     i686   4.19.0-3.fc39              local      75 k
 libtirpc                     i686   1.3.4-0.fc40               local     101 k
 libunistring                 i686   1.1-5.fc40                 local     551 k
 libutempter                  i686   1.2.1-10.fc39              local      27 k
 libuuid                      i686   2.39.3-1.fc40              local      29 k
 libverto                     i686   0.3.2-6.fc39               local      21 k
 libxcrypt                    i686   4.4.36-3.fc40              local     122 k
 libxml2                      i686   2.12.3-1.fc40              local     729 k
 libzstd                      i686   1.5.5-4.fc39               local     290 k
 lua-libs                     i686   5.4.6-3.fc39               local     149 k
 lua-srpm-macros              noarch 1-9.fc39                   local     8.6 k
 lz4-libs                     i686   1.9.4-4.fc39               local      70 k
 mpfr                         i686   4.2.1-1.fc40               local     380 k
 ncurses-base                 noarch 6.4-8.20231001.fc40        local      63 k
 ncurses-libs                 i686   6.4-8.20231001.fc40        local     359 k
 ocaml-srpm-macros            noarch 9-1.fc40                   local     9.0 k
 openblas-srpm-macros         noarch 2-14.fc39                  local     7.5 k
 openldap                     i686   2.6.6-1.fc39               local     273 k
 openssl-libs                 i686   1:3.1.4-1.fc40             local     2.1 M
 p11-kit                      i686   0.25.3-1.fc40              local     490 k
 p11-kit-trust                i686   0.25.3-1.fc40              local     140 k
 package-notes-srpm-macros    noarch 0.5-9.fc39                 local      11 k
 pam                          i686   1.5.3-9.fc40               local     527 k
 pam-libs                     i686   1.5.3-9.fc40               local      60 k
 pcre2                        i686   10.42-2.fc40               local     231 k
 pcre2-syntax                 noarch 10.42-2.fc40               local     143 k
 perl-srpm-macros             noarch 1-51.fc39                  local     8.0 k
 pkgconf                      i686   1.9.5-2.fc39               local      43 k
 pkgconf-m4                   noarch 1.9.5-2.fc39               local      14 k
 pkgconf-pkg-config           i686   1.9.5-2.fc39               local     9.6 k
 popt                         i686   1.19-3.fc39                local      62 k
 publicsuffix-list-dafsa      noarch 20230812-1.fc40            local      57 k
 pyproject-srpm-macros        noarch 1.11.0-1.fc40              local      15 k
 python-srpm-macros           noarch 3.12-5.fc40                local      25 k
 qt5-srpm-macros              noarch 5.15.11-1.fc40             local     8.3 k
 qt6-srpm-macros              noarch 6.6.1-3.fc40               local     8.8 k
 readline                     i686   8.2-4.fc39                 local     218 k
 rpm                          i686   4.19.1-2.fc40              local     506 k
 rpm-build-libs               i686   4.19.1-2.fc40              local     102 k
 rpm-libs                     i686   4.19.1-2.fc40              local     341 k
 rpm-sequoia                  i686   1.5.0-2.fc40               local     945 k
 rust-srpm-macros             noarch 25.2-2.fc40                local      13 k
 setup                        noarch 2.14.5-1.fc40              local     148 k
 sqlite-libs                  i686   3.44.2-1.fc40              local     733 k
 systemd-libs                 i686   255.1-1.fc40               local     744 k
 util-linux-core              i686   2.39.3-1.fc40              local     506 k
 xxhash-libs                  i686   0.8.2-1.fc39               local      49 k
 xz-libs                      i686   5.4.5-1.fc40               local     118 k
 zig-srpm-macros              noarch 1-1.fc40                   local     8.0 k
 zip                          i686   3.0-39.fc40                local     267 k
 zlib-ng-compat               i686   2.1.5-1.fc40               local      81 k
 zstd                         i686   1.5.5-4.fc39               local     451 k
Installing Groups:
 build                                                                         

Transaction Summary
================================================================================
Install  153 Packages

Total size: 52 M
Installed size: 175 M
Downloading Packages:
[SKIPPED] coreutils-9.4-1.fc40.i686.rpm: Already downloaded                    
[SKIPPED] coreutils-common-9.4-1.fc40.i686.rpm: Already downloaded             
[SKIPPED] gdb-minimal-14.1-1.fc40.i686.rpm: Already downloaded                 
[SKIPPED] alternatives-1.25-1.fc39.i686.rpm: Already downloaded                
[SKIPPED] ansible-srpm-macros-1-11.fc39.noarch.rpm: Already downloaded         
[SKIPPED] audit-libs-3.1.2-5.fc40.i686.rpm: Already downloaded                 
[SKIPPED] authselect-1.4.3-1.fc40.i686.rpm: Already downloaded                 
[SKIPPED] authselect-libs-1.4.3-1.fc40.i686.rpm: Already downloaded            
[SKIPPED] basesystem-11-18.fc39.noarch.rpm: Already downloaded                 
[SKIPPED] bash-5.2.21-2.fc40.i686.rpm: Already downloaded                      
[SKIPPED] binutils-2.41-17.fc40.i686.rpm: Already downloaded                   
[SKIPPED] binutils-gold-2.41-17.fc40.i686.rpm: Already downloaded              
[SKIPPED] bzip2-1.0.8-16.fc39.i686.rpm: Already downloaded                     
[SKIPPED] bzip2-libs-1.0.8-16.fc39.i686.rpm: Already downloaded                
[SKIPPED] ca-certificates-2023.2.62_v7.0.401-4.fc40.noarch.rpm: Already downloaded
[SKIPPED] cpio-2.14-5.fc40.i686.rpm: Already downloaded                        
[SKIPPED] cracklib-2.9.11-2.fc39.i686.rpm: Already downloaded                  
[SKIPPED] crypto-policies-20231204-1.git1e3a2e4.fc40.noarch.rpm: Already downloaded
[SKIPPED] curl-8.5.0-1.fc40.i686.rpm: Already downloaded                       
[SKIPPED] cyrus-sasl-lib-2.1.28-11.fc39.i686.rpm: Already downloaded           
[SKIPPED] debugedit-5.0-12.fc40.i686.rpm: Already downloaded                   
[SKIPPED] diffutils-3.10-3.fc39.i686.rpm: Already downloaded                   
[SKIPPED] dwz-0.15-3.fc39.i686.rpm: Already downloaded                         
[SKIPPED] ed-1.19-4.fc39.i686.rpm: Already downloaded                          
[SKIPPED] efi-srpm-macros-5-9.fc39.noarch.rpm: Already downloaded              
[SKIPPED] elfutils-0.190-4.fc40.i686.rpm: Already downloaded                   
[SKIPPED] elfutils-debuginfod-client-0.190-4.fc40.i686.rpm: Already downloaded 
[SKIPPED] elfutils-default-yama-scope-0.190-4.fc40.noarch.rpm: Already downloaded
[SKIPPED] elfutils-libelf-0.190-4.fc40.i686.rpm: Already downloaded            
[SKIPPED] elfutils-libs-0.190-4.fc40.i686.rpm: Already downloaded              
[SKIPPED] fedora-gpg-keys-40-0.2.noarch.rpm: Already downloaded                
[SKIPPED] fedora-release-40-0.26.noarch.rpm: Already downloaded                
[SKIPPED] fedora-release-common-40-0.26.noarch.rpm: Already downloaded         
[SKIPPED] fedora-release-identity-basic-40-0.26.noarch.rpm: Already downloaded 
[SKIPPED] fedora-repos-40-0.2.noarch.rpm: Already downloaded                   
[SKIPPED] fedora-repos-rawhide-40-0.2.noarch.rpm: Already downloaded           
[SKIPPED] file-5.45-1.fc40.i686.rpm: Already downloaded                        
[SKIPPED] file-libs-5.45-1.fc40.i686.rpm: Already downloaded                   
[SKIPPED] filesystem-3.18-6.fc39.i686.rpm: Already downloaded                  
[SKIPPED] findutils-4.9.0-6.fc40.i686.rpm: Already downloaded                  
[SKIPPED] fonts-srpm-macros-2.0.5-12.fc39.noarch.rpm: Already downloaded       
[SKIPPED] forge-srpm-macros-0.2.0-1.fc40.noarch.rpm: Already downloaded        
[SKIPPED] fpc-srpm-macros-1.3-8.fc39.noarch.rpm: Already downloaded            
[SKIPPED] gawk-5.2.2-2.fc39.i686.rpm: Already downloaded                       
[SKIPPED] gdbm-1.23-4.fc39.i686.rpm: Already downloaded                        
[SKIPPED] gdbm-libs-1.23-4.fc39.i686.rpm: Already downloaded                   
[SKIPPED] ghc-srpm-macros-1.6.1-3.fc40.noarch.rpm: Already downloaded          
[SKIPPED] glibc-2.38.9000-29.fc40.i686.rpm: Already downloaded                 
[SKIPPED] glibc-common-2.38.9000-29.fc40.i686.rpm: Already downloaded          
[SKIPPED] glibc-gconv-extra-2.38.9000-29.fc40.i686.rpm: Already downloaded     
[SKIPPED] glibc-minimal-langpack-2.38.9000-29.fc40.i686.rpm: Already downloaded
[SKIPPED] gmp-6.2.1-5.fc39.i686.rpm: Already downloaded                        
[SKIPPED] gnat-srpm-macros-6-3.fc39.noarch.rpm: Already downloaded             
[SKIPPED] go-srpm-macros-3.3.1-1.fc40.noarch.rpm: Already downloaded           
[SKIPPED] grep-3.11-5.fc40.i686.rpm: Already downloaded                        
[SKIPPED] gzip-1.12-6.fc39.i686.rpm: Already downloaded                        
[SKIPPED] info-7.1-1.fc40.i686.rpm: Already downloaded                         
[SKIPPED] jansson-2.13.1-7.fc39.i686.rpm: Already downloaded                   
[SKIPPED] kernel-srpm-macros-1.0-20.fc39.noarch.rpm: Already downloaded        
[SKIPPED] keyutils-libs-1.6.3-1.fc40.i686.rpm: Already downloaded              
[SKIPPED] krb5-libs-1.21.2-2.fc40.i686.rpm: Already downloaded                 
[SKIPPED] libacl-2.3.1-11.fc40.i686.rpm: Already downloaded                    
[SKIPPED] libarchive-3.7.2-1.fc40.i686.rpm: Already downloaded                 
[SKIPPED] libattr-2.5.1-9.fc40.i686.rpm: Already downloaded                    
[SKIPPED] libblkid-2.39.3-1.fc40.i686.rpm: Already downloaded                  
[SKIPPED] libbrotli-1.1.0-1.fc40.i686.rpm: Already downloaded                  
[SKIPPED] libcap-2.69-1.fc40.i686.rpm: Already downloaded                      
[SKIPPED] libcap-ng-0.8.4-1.fc40.i686.rpm: Already downloaded                  
[SKIPPED] libcom_err-1.47.0-2.fc39.i686.rpm: Already downloaded                
[SKIPPED] libcurl-8.5.0-1.fc40.i686.rpm: Already downloaded                    
[SKIPPED] libeconf-0.5.2-1.fc40.i686.rpm: Already downloaded                   
[SKIPPED] libevent-2.1.12-9.fc39.i686.rpm: Already downloaded                  
[SKIPPED] libfdisk-2.39.3-1.fc40.i686.rpm: Already downloaded                  
[SKIPPED] libffi-3.4.4-5.fc40.i686.rpm: Already downloaded                     
[SKIPPED] libgcc-13.2.1-6.fc40.i686.rpm: Already downloaded                    
[SKIPPED] libgomp-13.2.1-6.fc40.i686.rpm: Already downloaded                   
[SKIPPED] libidn2-2.3.4-3.fc39.i686.rpm: Already downloaded                    
[SKIPPED] libmount-2.39.3-1.fc40.i686.rpm: Already downloaded                  
[SKIPPED] libnghttp2-1.58.0-1.fc40.i686.rpm: Already downloaded                
[SKIPPED] libnsl2-2.0.0-6.fc39.i686.rpm: Already downloaded                    
[SKIPPED] libpkgconf-1.9.5-2.fc39.i686.rpm: Already downloaded                 
[SKIPPED] libpsl-0.21.2-4.fc39.i686.rpm: Already downloaded                    
[SKIPPED] libpwquality-1.4.5-6.fc39.i686.rpm: Already downloaded               
[SKIPPED] libselinux-3.6-1.fc40.i686.rpm: Already downloaded                   
[SKIPPED] libsemanage-3.6-1.fc40.i686.rpm: Already downloaded                  
[SKIPPED] libsepol-3.6-1.fc40.i686.rpm: Already downloaded                     
[SKIPPED] libsigsegv-2.14-5.fc39.i686.rpm: Already downloaded                  
[SKIPPED] libsmartcols-2.39.3-1.fc40.i686.rpm: Already downloaded              
[SKIPPED] libssh-0.10.6-2.fc40.i686.rpm: Already downloaded                    
[SKIPPED] libssh-config-0.10.6-2.fc40.noarch.rpm: Already downloaded           
[SKIPPED] libstdc++-13.2.1-6.fc40.i686.rpm: Already downloaded                 
[SKIPPED] libtasn1-4.19.0-3.fc39.i686.rpm: Already downloaded                  
[SKIPPED] libtirpc-1.3.4-0.fc40.i686.rpm: Already downloaded                   
[SKIPPED] libunistring-1.1-5.fc40.i686.rpm: Already downloaded                 
[SKIPPED] libutempter-1.2.1-10.fc39.i686.rpm: Already downloaded               
[SKIPPED] libuuid-2.39.3-1.fc40.i686.rpm: Already downloaded                   
[SKIPPED] libverto-0.3.2-6.fc39.i686.rpm: Already downloaded                   
[SKIPPED] libxcrypt-4.4.36-3.fc40.i686.rpm: Already downloaded                 
[SKIPPED] libxml2-2.12.3-1.fc40.i686.rpm: Already downloaded                   
[SKIPPED] libzstd-1.5.5-4.fc39.i686.rpm: Already downloaded                    
[SKIPPED] lua-libs-5.4.6-3.fc39.i686.rpm: Already downloaded                   
[SKIPPED] lua-srpm-macros-1-9.fc39.noarch.rpm: Already downloaded              
[SKIPPED] lz4-libs-1.9.4-4.fc39.i686.rpm: Already downloaded                   
[SKIPPED] mpfr-4.2.1-1.fc40.i686.rpm: Already downloaded                       
[SKIPPED] ncurses-base-6.4-8.20231001.fc40.noarch.rpm: Already downloaded      
[SKIPPED] ncurses-libs-6.4-8.20231001.fc40.i686.rpm: Already downloaded        
[SKIPPED] ocaml-srpm-macros-9-1.fc40.noarch.rpm: Already downloaded            
[SKIPPED] openblas-srpm-macros-2-14.fc39.noarch.rpm: Already downloaded        
[SKIPPED] openldap-2.6.6-1.fc39.i686.rpm: Already downloaded                   
[SKIPPED] openssl-libs-3.1.4-1.fc40.i686.rpm: Already downloaded               
[SKIPPED] p11-kit-0.25.3-1.fc40.i686.rpm: Already downloaded                   
[SKIPPED] p11-kit-trust-0.25.3-1.fc40.i686.rpm: Already downloaded             
[SKIPPED] package-notes-srpm-macros-0.5-9.fc39.noarch.rpm: Already downloaded  
[SKIPPED] pam-1.5.3-9.fc40.i686.rpm: Already downloaded                        
[SKIPPED] pam-libs-1.5.3-9.fc40.i686.rpm: Already downloaded                   
[SKIPPED] patch-2.7.6-22.fc39.i686.rpm: Already downloaded                     
[SKIPPED] pcre2-10.42-2.fc40.i686.rpm: Already downloaded                      
[SKIPPED] pcre2-syntax-10.42-2.fc40.noarch.rpm: Already downloaded             
[SKIPPED] perl-srpm-macros-1-51.fc39.noarch.rpm: Already downloaded            
[SKIPPED] pkgconf-1.9.5-2.fc39.i686.rpm: Already downloaded                    
[SKIPPED] pkgconf-m4-1.9.5-2.fc39.noarch.rpm: Already downloaded               
[SKIPPED] pkgconf-pkg-config-1.9.5-2.fc39.i686.rpm: Already downloaded         
[SKIPPED] popt-1.19-3.fc39.i686.rpm: Already downloaded                        
[SKIPPED] publicsuffix-list-dafsa-20230812-1.fc40.noarch.rpm: Already downloaded
[SKIPPED] pyproject-srpm-macros-1.11.0-1.fc40.noarch.rpm: Already downloaded   
[SKIPPED] python-srpm-macros-3.12-5.fc40.noarch.rpm: Already downloaded        
[SKIPPED] qt5-srpm-macros-5.15.11-1.fc40.noarch.rpm: Already downloaded        
[SKIPPED] qt6-srpm-macros-6.6.1-3.fc40.noarch.rpm: Already downloaded          
[SKIPPED] readline-8.2-4.fc39.i686.rpm: Already downloaded                     
[SKIPPED] redhat-rpm-config-273-1.fc40.noarch.rpm: Already downloaded          
[SKIPPED] rpm-4.19.1-2.fc40.i686.rpm: Already downloaded                       
[SKIPPED] rpm-build-4.19.1-2.fc40.i686.rpm: Already downloaded                 
[SKIPPED] rpm-build-libs-4.19.1-2.fc40.i686.rpm: Already downloaded            
[SKIPPED] rpm-libs-4.19.1-2.fc40.i686.rpm: Already downloaded                  
[SKIPPED] rpm-sequoia-1.5.0-2.fc40.i686.rpm: Already downloaded                
[SKIPPED] rust-srpm-macros-25.2-2.fc40.noarch.rpm: Already downloaded          
[SKIPPED] sed-4.8-14.fc39.i686.rpm: Already downloaded                         
[SKIPPED] setup-2.14.5-1.fc40.noarch.rpm: Already downloaded                   
[SKIPPED] shadow-utils-4.14.0-2.fc40.i686.rpm: Already downloaded              
[SKIPPED] sqlite-libs-3.44.2-1.fc40.i686.rpm: Already downloaded               
[SKIPPED] systemd-libs-255.1-1.fc40.i686.rpm: Already downloaded               
[SKIPPED] tar-1.35-2.fc40.i686.rpm: Already downloaded                         
[SKIPPED] unzip-6.0-62.fc39.i686.rpm: Already downloaded                       
[SKIPPED] util-linux-2.39.3-1.fc40.i686.rpm: Already downloaded                
[SKIPPED] util-linux-core-2.39.3-1.fc40.i686.rpm: Already downloaded           
[SKIPPED] which-2.21-40.fc39.i686.rpm: Already downloaded                      
[SKIPPED] xxhash-libs-0.8.2-1.fc39.i686.rpm: Already downloaded                
[SKIPPED] xz-5.4.5-1.fc40.i686.rpm: Already downloaded                         
[SKIPPED] xz-libs-5.4.5-1.fc40.i686.rpm: Already downloaded                    
[SKIPPED] zig-srpm-macros-1-1.fc40.noarch.rpm: Already downloaded              
[SKIPPED] zip-3.0-39.fc40.i686.rpm: Already downloaded                         
[SKIPPED] zlib-ng-compat-2.1.5-1.fc40.i686.rpm: Already downloaded             
[SKIPPED] zstd-1.5.5-4.fc39.i686.rpm: Already downloaded                       
Running transaction check
Transaction check succeeded.
Running transaction test
Transaction test succeeded.
Running transaction
  Running scriptlet: filesystem-3.18-6.fc39.i686                            1/1 
  Preparing        :                                                        1/1 
  Installing       : crypto-policies-20231204-1.git1e3a2e4.fc40.noarc     1/153 
  Running scriptlet: crypto-policies-20231204-1.git1e3a2e4.fc40.noarc     1/153 
  Installing       : fedora-release-identity-basic-40-0.26.noarch         2/153 
  Installing       : fedora-repos-rawhide-40-0.2.noarch                   3/153 
  Installing       : fedora-gpg-keys-40-0.2.noarch                        4/153 
  Installing       : fedora-repos-40-0.2.noarch                           5/153 
  Installing       : fedora-release-common-40-0.26.noarch                 6/153 
  Installing       : fedora-release-40-0.26.noarch                        7/153 
  Installing       : setup-2.14.5-1.fc40.noarch                           8/153 
warning: /etc/hosts created as /etc/hosts.rpmnew

  Running scriptlet: setup-2.14.5-1.fc40.noarch                           8/153 
  Installing       : filesystem-3.18-6.fc39.i686                          9/153 
  Installing       : basesystem-11-18.fc39.noarch                        10/153 
  Installing       : rust-srpm-macros-25.2-2.fc40.noarch                 11/153 
  Installing       : qt6-srpm-macros-6.6.1-3.fc40.noarch                 12/153 
  Installing       : qt5-srpm-macros-5.15.11-1.fc40.noarch               13/153 
  Installing       : publicsuffix-list-dafsa-20230812-1.fc40.noarch      14/153 
  Installing       : pkgconf-m4-1.9.5-2.fc39.noarch                      15/153 
  Installing       : perl-srpm-macros-1-51.fc39.noarch                   16/153 
  Installing       : pcre2-syntax-10.42-2.fc40.noarch                    17/153 
  Installing       : package-notes-srpm-macros-0.5-9.fc39.noarch         18/153 
  Installing       : openblas-srpm-macros-2-14.fc39.noarch               19/153 
  Installing       : ocaml-srpm-macros-9-1.fc40.noarch                   20/153 
  Installing       : ncurses-base-6.4-8.20231001.fc40.noarch             21/153 
  Installing       : libssh-config-0.10.6-2.fc40.noarch                  22/153 
  Installing       : kernel-srpm-macros-1.0-20.fc39.noarch               23/153 
  Installing       : gnat-srpm-macros-6-3.fc39.noarch                    24/153 
  Installing       : ghc-srpm-macros-1.6.1-3.fc40.noarch                 25/153 
  Installing       : fpc-srpm-macros-1.3-8.fc39.noarch                   26/153 
  Installing       : ansible-srpm-macros-1-11.fc39.noarch                27/153 
  Installing       : coreutils-common-9.4-1.fc40.i686                    28/153 
  Installing       : libgcc-13.2.1-6.fc40.i686                           29/153 
  Running scriptlet: libgcc-13.2.1-6.fc40.i686                           29/153 
  Installing       : glibc-gconv-extra-2.38.9000-29.fc40.i686            30/153 
  Running scriptlet: glibc-gconv-extra-2.38.9000-29.fc40.i686            30/153 
  Installing       : glibc-minimal-langpack-2.38.9000-29.fc40.i686       31/153 
  Installing       : glibc-common-2.38.9000-29.fc40.i686                 32/153 
  Running scriptlet: glibc-2.38.9000-29.fc40.i686                        33/153 
  Installing       : glibc-2.38.9000-29.fc40.i686                        33/153 
  Running scriptlet: glibc-2.38.9000-29.fc40.i686                        33/153 
  Installing       : ncurses-libs-6.4-8.20231001.fc40.i686               34/153 
  Installing       : bash-5.2.21-2.fc40.i686                             35/153 
  Running scriptlet: bash-5.2.21-2.fc40.i686                             35/153 
  Installing       : zlib-ng-compat-2.1.5-1.fc40.i686                    36/153 
  Installing       : xz-libs-5.4.5-1.fc40.i686                           37/153 
  Installing       : bzip2-libs-1.0.8-16.fc39.i686                       38/153 
  Installing       : readline-8.2-4.fc39.i686                            39/153 
  Installing       : libstdc++-13.2.1-6.fc40.i686                        40/153 
  Installing       : libuuid-2.39.3-1.fc40.i686                          41/153 
  Installing       : libzstd-1.5.5-4.fc39.i686                           42/153 
  Installing       : elfutils-libelf-0.190-4.fc40.i686                   43/153 
  Installing       : popt-1.19-3.fc39.i686                               44/153 
  Installing       : libblkid-2.39.3-1.fc40.i686                         45/153 
  Installing       : gmp-1:6.2.1-5.fc39.i686                             46/153 
  Installing       : libattr-2.5.1-9.fc40.i686                           47/153 
  Installing       : libacl-2.3.1-11.fc40.i686                           48/153 
  Installing       : libxcrypt-4.4.36-3.fc40.i686                        49/153 
  Installing       : gdbm-libs-1:1.23-4.fc39.i686                        50/153 
  Installing       : libeconf-0.5.2-1.fc40.i686                          51/153 
  Installing       : lz4-libs-1.9.4-4.fc39.i686                          52/153 
  Installing       : mpfr-4.2.1-1.fc40.i686                              53/153 
  Installing       : dwz-0.15-3.fc39.i686                                54/153 
  Installing       : unzip-6.0-62.fc39.i686                              55/153 
  Installing       : file-libs-5.45-1.fc40.i686                          56/153 
  Installing       : file-5.45-1.fc40.i686                               57/153 
  Installing       : alternatives-1.25-1.fc39.i686                       58/153 
  Installing       : jansson-2.13.1-7.fc39.i686                          59/153 
  Installing       : libcap-ng-0.8.4-1.fc40.i686                         60/153 
  Installing       : audit-libs-3.1.2-5.fc40.i686                        61/153 
  Installing       : pam-libs-1.5.3-9.fc40.i686                          62/153 
  Installing       : libcap-2.69-1.fc40.i686                             63/153 
  Installing       : systemd-libs-255.1-1.fc40.i686                      64/153 
  Installing       : libcom_err-1.47.0-2.fc39.i686                       65/153 
  Installing       : libsepol-3.6-1.fc40.i686                            66/153 
  Installing       : libsmartcols-2.39.3-1.fc40.i686                     67/153 
  Installing       : libtasn1-4.19.0-3.fc39.i686                         68/153 
  Installing       : libunistring-1.1-5.fc40.i686                        69/153 
  Installing       : libidn2-2.3.4-3.fc39.i686                           70/153 
  Installing       : lua-libs-5.4.6-3.fc39.i686                          71/153 
  Installing       : pcre2-10.42-2.fc40.i686                             72/153 
  Installing       : elfutils-default-yama-scope-0.190-4.fc40.noarch     73/153 
  Running scriptlet: elfutils-default-yama-scope-0.190-4.fc40.noarch     73/153 
  Installing       : libselinux-3.6-1.fc40.i686                          74/153 
  Installing       : sed-4.8-14.fc39.i686                                75/153 
  Installing       : grep-3.11-5.fc40.i686                               76/153 
  Installing       : findutils-1:4.9.0-6.fc40.i686                       77/153 
  Installing       : xz-5.4.5-1.fc40.i686                                78/153 
  Installing       : libmount-2.39.3-1.fc40.i686                         79/153 
  Installing       : util-linux-core-2.39.3-1.fc40.i686                  80/153 
  Installing       : libsemanage-3.6-1.fc40.i686                         81/153 
  Installing       : shadow-utils-2:4.14.0-2.fc40.i686                   82/153 
  Running scriptlet: libutempter-1.2.1-10.fc39.i686                      83/153 
  Installing       : libutempter-1.2.1-10.fc39.i686                      83/153 
  Installing       : tar-2:1.35-2.fc40.i686                              84/153 
  Installing       : libpsl-0.21.2-4.fc39.i686                           85/153 
  Installing       : zip-3.0-39.fc40.i686                                86/153 
  Installing       : zstd-1.5.5-4.fc39.i686                              87/153 
  Installing       : cyrus-sasl-lib-2.1.28-11.fc39.i686                  88/153 
  Installing       : gdbm-1:1.23-4.fc39.i686                             89/153 
  Installing       : libfdisk-2.39.3-1.fc40.i686                         90/153 
  Installing       : bzip2-1.0.8-16.fc39.i686                            91/153 
  Installing       : libxml2-2.12.3-1.fc40.i686                          92/153 
  Installing       : sqlite-libs-3.44.2-1.fc40.i686                      93/153 
  Installing       : ed-1.19-4.fc39.i686                                 94/153 
  Installing       : patch-2.7.6-22.fc39.i686                            95/153 
  Installing       : cpio-2.14-5.fc40.i686                               96/153 
  Installing       : diffutils-3.10-3.fc39.i686                          97/153 
  Installing       : keyutils-libs-1.6.3-1.fc40.i686                     98/153 
  Installing       : libbrotli-1.1.0-1.fc40.i686                         99/153 
  Installing       : libffi-3.4.4-5.fc40.i686                           100/153 
  Installing       : p11-kit-0.25.3-1.fc40.i686                         101/153 
  Installing       : p11-kit-trust-0.25.3-1.fc40.i686                   102/153 
  Running scriptlet: p11-kit-trust-0.25.3-1.fc40.i686                   102/153 
  Installing       : openssl-libs-1:3.1.4-1.fc40.i686                   103/153 
  Installing       : coreutils-9.4-1.fc40.i686                          104/153 
  Running scriptlet: ca-certificates-2023.2.62_v7.0.401-4.fc40.noarch   105/153 
  Installing       : ca-certificates-2023.2.62_v7.0.401-4.fc40.noarch   105/153 
  Running scriptlet: ca-certificates-2023.2.62_v7.0.401-4.fc40.noarch   105/153 
  Running scriptlet: authselect-libs-1.4.3-1.fc40.i686                  106/153 
  Installing       : authselect-libs-1.4.3-1.fc40.i686                  106/153 
  Installing       : gzip-1.12-6.fc39.i686                              107/153 
  Installing       : cracklib-2.9.11-2.fc39.i686                        108/153 
  Installing       : libpwquality-1.4.5-6.fc39.i686                     109/153 
  Installing       : authselect-1.4.3-1.fc40.i686                       110/153 
  Installing       : libarchive-3.7.2-1.fc40.i686                       111/153 
  Installing       : libevent-2.1.12-9.fc39.i686                        112/153 
  Installing       : openldap-2.6.6-1.fc39.i686                         113/153 
  Installing       : rpm-sequoia-1.5.0-2.fc40.i686                      114/153 
  Installing       : rpm-libs-4.19.1-2.fc40.i686                        115/153 
  Installing       : libgomp-13.2.1-6.fc40.i686                         116/153 
  Installing       : libnghttp2-1.58.0-1.fc40.i686                      117/153 
  Installing       : libpkgconf-1.9.5-2.fc39.i686                       118/153 
  Installing       : pkgconf-1.9.5-2.fc39.i686                          119/153 
  Installing       : pkgconf-pkg-config-1.9.5-2.fc39.i686               120/153 
  Installing       : libsigsegv-2.14-5.fc39.i686                        121/153 
  Installing       : gawk-5.2.2-2.fc39.i686                             122/153 
  Installing       : libverto-0.3.2-6.fc39.i686                         123/153 
  Installing       : krb5-libs-1.21.2-2.fc40.i686                       124/153 
  Installing       : libtirpc-1.3.4-0.fc40.i686                         125/153 
  Installing       : libnsl2-2.0.0-6.fc39.i686                          126/153 
  Installing       : pam-1.5.3-9.fc40.i686                              127/153 
  Installing       : libssh-0.10.6-2.fc40.i686                          128/153 
  Installing       : libcurl-8.5.0-1.fc40.i686                          129/153 
  Installing       : elfutils-libs-0.190-4.fc40.i686                    130/153 
  Installing       : elfutils-debuginfod-client-0.190-4.fc40.i686       131/153 
  Installing       : binutils-gold-2.41-17.fc40.i686                    132/153 
  Running scriptlet: binutils-gold-2.41-17.fc40.i686                    132/153 
  Installing       : binutils-2.41-17.fc40.i686                         133/153 
  Running scriptlet: binutils-2.41-17.fc40.i686                         133/153 
  Installing       : elfutils-0.190-4.fc40.i686                         134/153 
  Installing       : rpm-build-libs-4.19.1-2.fc40.i686                  135/153 
  Installing       : curl-8.5.0-1.fc40.i686                             136/153 
  Running scriptlet: rpm-4.19.1-2.fc40.i686                             137/153 
  Installing       : rpm-4.19.1-2.fc40.i686                             137/153 
  Installing       : efi-srpm-macros-5-9.fc39.noarch                    138/153 
  Installing       : lua-srpm-macros-1-9.fc39.noarch                    139/153 
  Installing       : zig-srpm-macros-1-1.fc40.noarch                    140/153 
  Installing       : xxhash-libs-0.8.2-1.fc39.i686                      141/153 
  Installing       : gdb-minimal-14.1-1.fc40.i686                       142/153 
  Installing       : debugedit-5.0-12.fc40.i686                         143/153 
  Installing       : fonts-srpm-macros-1:2.0.5-12.fc39.noarch           144/153 
  Installing       : forge-srpm-macros-0.2.0-1.fc40.noarch              145/153 
  Installing       : go-srpm-macros-3.3.1-1.fc40.noarch                 146/153 
  Installing       : python-srpm-macros-3.12-5.fc40.noarch              147/153 
  Installing       : pyproject-srpm-macros-1.11.0-1.fc40.noarch         148/153 
  Installing       : redhat-rpm-config-273-1.fc40.noarch                149/153 
  Installing       : rpm-build-4.19.1-2.fc40.i686                       150/153 
  Installing       : util-linux-2.39.3-1.fc40.i686                      151/153 
  Installing       : which-2.21-40.fc39.i686                            152/153 
  Installing       : info-7.1-1.fc40.i686                               153/153 
  Running scriptlet: filesystem-3.18-6.fc39.i686                        153/153 
  Running scriptlet: ca-certificates-2023.2.62_v7.0.401-4.fc40.noarch   153/153 
  Running scriptlet: authselect-libs-1.4.3-1.fc40.i686                  153/153 
  Running scriptlet: rpm-4.19.1-2.fc40.i686                             153/153 
  Running scriptlet: info-7.1-1.fc40.i686                               153/153 

Installed:
  alternatives-1.25-1.fc39.i686                                                 
  ansible-srpm-macros-1-11.fc39.noarch                                          
  audit-libs-3.1.2-5.fc40.i686                                                  
  authselect-1.4.3-1.fc40.i686                                                  
  authselect-libs-1.4.3-1.fc40.i686                                             
  basesystem-11-18.fc39.noarch                                                  
  bash-5.2.21-2.fc40.i686                                                       
  binutils-2.41-17.fc40.i686                                                    
  binutils-gold-2.41-17.fc40.i686                                               
  bzip2-1.0.8-16.fc39.i686                                                      
  bzip2-libs-1.0.8-16.fc39.i686                                                 
  ca-certificates-2023.2.62_v7.0.401-4.fc40.noarch                              
  coreutils-9.4-1.fc40.i686                                                     
  coreutils-common-9.4-1.fc40.i686                                              
  cpio-2.14-5.fc40.i686                                                         
  cracklib-2.9.11-2.fc39.i686                                                   
  crypto-policies-20231204-1.git1e3a2e4.fc40.noarch                             
  curl-8.5.0-1.fc40.i686                                                        
  cyrus-sasl-lib-2.1.28-11.fc39.i686                                            
  debugedit-5.0-12.fc40.i686                                                    
  diffutils-3.10-3.fc39.i686                                                    
  dwz-0.15-3.fc39.i686                                                          
  ed-1.19-4.fc39.i686                                                           
  efi-srpm-macros-5-9.fc39.noarch                                               
  elfutils-0.190-4.fc40.i686                                                    
  elfutils-debuginfod-client-0.190-4.fc40.i686                                  
  elfutils-default-yama-scope-0.190-4.fc40.noarch                               
  elfutils-libelf-0.190-4.fc40.i686                                             
  elfutils-libs-0.190-4.fc40.i686                                               
  fedora-gpg-keys-40-0.2.noarch                                                 
  fedora-release-40-0.26.noarch                                                 
  fedora-release-common-40-0.26.noarch                                          
  fedora-release-identity-basic-40-0.26.noarch                                  
  fedora-repos-40-0.2.noarch                                                    
  fedora-repos-rawhide-40-0.2.noarch                                            
  file-5.45-1.fc40.i686                                                         
  file-libs-5.45-1.fc40.i686                                                    
  filesystem-3.18-6.fc39.i686                                                   
  findutils-1:4.9.0-6.fc40.i686                                                 
  fonts-srpm-macros-1:2.0.5-12.fc39.noarch                                      
  forge-srpm-macros-0.2.0-1.fc40.noarch                                         
  fpc-srpm-macros-1.3-8.fc39.noarch                                             
  gawk-5.2.2-2.fc39.i686                                                        
  gdb-minimal-14.1-1.fc40.i686                                                  
  gdbm-1:1.23-4.fc39.i686                                                       
  gdbm-libs-1:1.23-4.fc39.i686                                                  
  ghc-srpm-macros-1.6.1-3.fc40.noarch                                           
  glibc-2.38.9000-29.fc40.i686                                                  
  glibc-common-2.38.9000-29.fc40.i686                                           
  glibc-gconv-extra-2.38.9000-29.fc40.i686                                      
  glibc-minimal-langpack-2.38.9000-29.fc40.i686                                 
  gmp-1:6.2.1-5.fc39.i686                                                       
  gnat-srpm-macros-6-3.fc39.noarch                                              
  go-srpm-macros-3.3.1-1.fc40.noarch                                            
  grep-3.11-5.fc40.i686                                                         
  gzip-1.12-6.fc39.i686                                                         
  info-7.1-1.fc40.i686                                                          
  jansson-2.13.1-7.fc39.i686                                                    
  kernel-srpm-macros-1.0-20.fc39.noarch                                         
  keyutils-libs-1.6.3-1.fc40.i686                                               
  krb5-libs-1.21.2-2.fc40.i686                                                  
  libacl-2.3.1-11.fc40.i686                                                     
  libarchive-3.7.2-1.fc40.i686                                                  
  libattr-2.5.1-9.fc40.i686                                                     
  libblkid-2.39.3-1.fc40.i686                                                   
  libbrotli-1.1.0-1.fc40.i686                                                   
  libcap-2.69-1.fc40.i686                                                       
  libcap-ng-0.8.4-1.fc40.i686                                                   
  libcom_err-1.47.0-2.fc39.i686                                                 
  libcurl-8.5.0-1.fc40.i686                                                     
  libeconf-0.5.2-1.fc40.i686                                                    
  libevent-2.1.12-9.fc39.i686                                                   
  libfdisk-2.39.3-1.fc40.i686                                                   
  libffi-3.4.4-5.fc40.i686                                                      
  libgcc-13.2.1-6.fc40.i686                                                     
  libgomp-13.2.1-6.fc40.i686                                                    
  libidn2-2.3.4-3.fc39.i686                                                     
  libmount-2.39.3-1.fc40.i686                                                   
  libnghttp2-1.58.0-1.fc40.i686                                                 
  libnsl2-2.0.0-6.fc39.i686                                                     
  libpkgconf-1.9.5-2.fc39.i686                                                  
  libpsl-0.21.2-4.fc39.i686                                                     
  libpwquality-1.4.5-6.fc39.i686                                                
  libselinux-3.6-1.fc40.i686                                                    
  libsemanage-3.6-1.fc40.i686                                                   
  libsepol-3.6-1.fc40.i686                                                      
  libsigsegv-2.14-5.fc39.i686                                                   
  libsmartcols-2.39.3-1.fc40.i686                                               
  libssh-0.10.6-2.fc40.i686                                                     
  libssh-config-0.10.6-2.fc40.noarch                                            
  libstdc++-13.2.1-6.fc40.i686                                                  
  libtasn1-4.19.0-3.fc39.i686                                                   
  libtirpc-1.3.4-0.fc40.i686                                                    
  libunistring-1.1-5.fc40.i686                                                  
  libutempter-1.2.1-10.fc39.i686                                                
  libuuid-2.39.3-1.fc40.i686                                                    
  libverto-0.3.2-6.fc39.i686                                                    
  libxcrypt-4.4.36-3.fc40.i686                                                  
  libxml2-2.12.3-1.fc40.i686                                                    
  libzstd-1.5.5-4.fc39.i686                                                     
  lua-libs-5.4.6-3.fc39.i686                                                    
  lua-srpm-macros-1-9.fc39.noarch                                               
  lz4-libs-1.9.4-4.fc39.i686                                                    
  mpfr-4.2.1-1.fc40.i686                                                        
  ncurses-base-6.4-8.20231001.fc40.noarch                                       
  ncurses-libs-6.4-8.20231001.fc40.i686                                         
  ocaml-srpm-macros-9-1.fc40.noarch                                             
  openblas-srpm-macros-2-14.fc39.noarch                                         
  openldap-2.6.6-1.fc39.i686                                                    
  openssl-libs-1:3.1.4-1.fc40.i686                                              
  p11-kit-0.25.3-1.fc40.i686                                                    
  p11-kit-trust-0.25.3-1.fc40.i686                                              
  package-notes-srpm-macros-0.5-9.fc39.noarch                                   
  pam-1.5.3-9.fc40.i686                                                         
  pam-libs-1.5.3-9.fc40.i686                                                    
  patch-2.7.6-22.fc39.i686                                                      
  pcre2-10.42-2.fc40.i686                                                       
  pcre2-syntax-10.42-2.fc40.noarch                                              
  perl-srpm-macros-1-51.fc39.noarch                                             
  pkgconf-1.9.5-2.fc39.i686                                                     
  pkgconf-m4-1.9.5-2.fc39.noarch                                                
  pkgconf-pkg-config-1.9.5-2.fc39.i686                                          
  popt-1.19-3.fc39.i686                                                         
  publicsuffix-list-dafsa-20230812-1.fc40.noarch                                
  pyproject-srpm-macros-1.11.0-1.fc40.noarch                                    
  python-srpm-macros-3.12-5.fc40.noarch                                         
  qt5-srpm-macros-5.15.11-1.fc40.noarch                                         
  qt6-srpm-macros-6.6.1-3.fc40.noarch                                           
  readline-8.2-4.fc39.i686                                                      
  redhat-rpm-config-273-1.fc40.noarch                                           
  rpm-4.19.1-2.fc40.i686                                                        
  rpm-build-4.19.1-2.fc40.i686                                                  
  rpm-build-libs-4.19.1-2.fc40.i686                                             
  rpm-libs-4.19.1-2.fc40.i686                                                   
  rpm-sequoia-1.5.0-2.fc40.i686                                                 
  rust-srpm-macros-25.2-2.fc40.noarch                                           
  sed-4.8-14.fc39.i686                                                          
  setup-2.14.5-1.fc40.noarch                                                    
  shadow-utils-2:4.14.0-2.fc40.i686                                             
  sqlite-libs-3.44.2-1.fc40.i686                                                
  systemd-libs-255.1-1.fc40.i686                                                
  tar-2:1.35-2.fc40.i686                                                        
  unzip-6.0-62.fc39.i686                                                        
  util-linux-2.39.3-1.fc40.i686                                                 
  util-linux-core-2.39.3-1.fc40.i686                                            
  which-2.21-40.fc39.i686                                                       
  xxhash-libs-0.8.2-1.fc39.i686                                                 
  xz-5.4.5-1.fc40.i686                                                          
  xz-libs-5.4.5-1.fc40.i686                                                     
  zig-srpm-macros-1-1.fc40.noarch                                               
  zip-3.0-39.fc40.i686                                                          
  zlib-ng-compat-2.1.5-1.fc40.i686                                              
  zstd-1.5.5-4.fc39.i686                                                        

Complete!
Finish: installing minimal buildroot with dnf
Start: creating root cache
Finish: creating root cache
Finish: chroot init
INFO: Installed packages:
INFO: alternatives-1.25-1.fc39.i686
ansible-srpm-macros-1-11.fc39.noarch
audit-libs-3.1.2-5.fc40.i686
authselect-1.4.3-1.fc40.i686
authselect-libs-1.4.3-1.fc40.i686
basesystem-11-18.fc39.noarch
bash-5.2.21-2.fc40.i686
binutils-2.41-17.fc40.i686
binutils-gold-2.41-17.fc40.i686
bzip2-1.0.8-16.fc39.i686
bzip2-libs-1.0.8-16.fc39.i686
ca-certificates-2023.2.62_v7.0.401-4.fc40.noarch
coreutils-9.4-1.fc40.i686
coreutils-common-9.4-1.fc40.i686
cpio-2.14-5.fc40.i686
cracklib-2.9.11-2.fc39.i686
crypto-policies-20231204-1.git1e3a2e4.fc40.noarch
curl-8.5.0-1.fc40.i686
cyrus-sasl-lib-2.1.28-11.fc39.i686
debugedit-5.0-12.fc40.i686
diffutils-3.10-3.fc39.i686
dwz-0.15-3.fc39.i686
ed-1.19-4.fc39.i686
efi-srpm-macros-5-9.fc39.noarch
elfutils-0.190-4.fc40.i686
elfutils-debuginfod-client-0.190-4.fc40.i686
elfutils-default-yama-scope-0.190-4.fc40.noarch
elfutils-libelf-0.190-4.fc40.i686
elfutils-libs-0.190-4.fc40.i686
fedora-gpg-keys-40-0.2.noarch
fedora-release-40-0.26.noarch
fedora-release-common-40-0.26.noarch
fedora-release-identity-basic-40-0.26.noarch
fedora-repos-40-0.2.noarch
fedora-repos-rawhide-40-0.2.noarch
file-5.45-1.fc40.i686
file-libs-5.45-1.fc40.i686
filesystem-3.18-6.fc39.i686
findutils-4.9.0-6.fc40.i686
fonts-srpm-macros-2.0.5-12.fc39.noarch
forge-srpm-macros-0.2.0-1.fc40.noarch
fpc-srpm-macros-1.3-8.fc39.noarch
gawk-5.2.2-2.fc39.i686
gdb-minimal-14.1-1.fc40.i686
gdbm-1.23-4.fc39.i686
gdbm-libs-1.23-4.fc39.i686
ghc-srpm-macros-1.6.1-3.fc40.noarch
glibc-2.38.9000-29.fc40.i686
glibc-common-2.38.9000-29.fc40.i686
glibc-gconv-extra-2.38.9000-29.fc40.i686
glibc-minimal-langpack-2.38.9000-29.fc40.i686
gmp-6.2.1-5.fc39.i686
gnat-srpm-macros-6-3.fc39.noarch
go-srpm-macros-3.3.1-1.fc40.noarch
grep-3.11-5.fc40.i686
gzip-1.12-6.fc39.i686
info-7.1-1.fc40.i686
jansson-2.13.1-7.fc39.i686
kernel-srpm-macros-1.0-20.fc39.noarch
keyutils-libs-1.6.3-1.fc40.i686
krb5-libs-1.21.2-2.fc40.i686
libacl-2.3.1-11.fc40.i686
libarchive-3.7.2-1.fc40.i686
libattr-2.5.1-9.fc40.i686
libblkid-2.39.3-1.fc40.i686
libbrotli-1.1.0-1.fc40.i686
libcap-2.69-1.fc40.i686
libcap-ng-0.8.4-1.fc40.i686
libcom_err-1.47.0-2.fc39.i686
libcurl-8.5.0-1.fc40.i686
libeconf-0.5.2-1.fc40.i686
libevent-2.1.12-9.fc39.i686
libfdisk-2.39.3-1.fc40.i686
libffi-3.4.4-5.fc40.i686
libgcc-13.2.1-6.fc40.i686
libgomp-13.2.1-6.fc40.i686
libidn2-2.3.4-3.fc39.i686
libmount-2.39.3-1.fc40.i686
libnghttp2-1.58.0-1.fc40.i686
libnsl2-2.0.0-6.fc39.i686
libpkgconf-1.9.5-2.fc39.i686
libpsl-0.21.2-4.fc39.i686
libpwquality-1.4.5-6.fc39.i686
libselinux-3.6-1.fc40.i686
libsemanage-3.6-1.fc40.i686
libsepol-3.6-1.fc40.i686
libsigsegv-2.14-5.fc39.i686
libsmartcols-2.39.3-1.fc40.i686
libssh-0.10.6-2.fc40.i686
libssh-config-0.10.6-2.fc40.noarch
libstdc++-13.2.1-6.fc40.i686
libtasn1-4.19.0-3.fc39.i686
libtirpc-1.3.4-0.fc40.i686
libunistring-1.1-5.fc40.i686
libutempter-1.2.1-10.fc39.i686
libuuid-2.39.3-1.fc40.i686
libverto-0.3.2-6.fc39.i686
libxcrypt-4.4.36-3.fc40.i686
libxml2-2.12.3-1.fc40.i686
libzstd-1.5.5-4.fc39.i686
lua-libs-5.4.6-3.fc39.i686
lua-srpm-macros-1-9.fc39.noarch
lz4-libs-1.9.4-4.fc39.i686
mpfr-4.2.1-1.fc40.i686
ncurses-base-6.4-8.20231001.fc40.noarch
ncurses-libs-6.4-8.20231001.fc40.i686
ocaml-srpm-macros-9-1.fc40.noarch
openblas-srpm-macros-2-14.fc39.noarch
openldap-2.6.6-1.fc39.i686
openssl-libs-3.1.4-1.fc40.i686
p11-kit-0.25.3-1.fc40.i686
p11-kit-trust-0.25.3-1.fc40.i686
package-notes-srpm-macros-0.5-9.fc39.noarch
pam-1.5.3-9.fc40.i686
pam-libs-1.5.3-9.fc40.i686
patch-2.7.6-22.fc39.i686
pcre2-10.42-2.fc40.i686
pcre2-syntax-10.42-2.fc40.noarch
perl-srpm-macros-1-51.fc39.noarch
pkgconf-1.9.5-2.fc39.i686
pkgconf-m4-1.9.5-2.fc39.noarch
pkgconf-pkg-config-1.9.5-2.fc39.i686
popt-1.19-3.fc39.i686
publicsuffix-list-dafsa-20230812-1.fc40.noarch
pyproject-srpm-macros-1.11.0-1.fc40.noarch
python-srpm-macros-3.12-5.fc40.noarch
qt5-srpm-macros-5.15.11-1.fc40.noarch
qt6-srpm-macros-6.6.1-3.fc40.noarch
readline-8.2-4.fc39.i686
redhat-rpm-config-273-1.fc40.noarch
rpm-4.19.1-2.fc40.i686
rpm-build-4.19.1-2.fc40.i686
rpm-build-libs-4.19.1-2.fc40.i686
rpm-libs-4.19.1-2.fc40.i686
rpm-sequoia-1.5.0-2.fc40.i686
rust-srpm-macros-25.2-2.fc40.noarch
sed-4.8-14.fc39.i686
setup-2.14.5-1.fc40.noarch
shadow-utils-4.14.0-2.fc40.i686
sqlite-libs-3.44.2-1.fc40.i686
systemd-libs-255.1-1.fc40.i686
tar-1.35-2.fc40.i686
unzip-6.0-62.fc39.i686
util-linux-2.39.3-1.fc40.i686
util-linux-core-2.39.3-1.fc40.i686
which-2.21-40.fc39.i686
xxhash-libs-0.8.2-1.fc39.i686
xz-5.4.5-1.fc40.i686
xz-libs-5.4.5-1.fc40.i686
zig-srpm-macros-1-1.fc40.noarch
zip-3.0-39.fc40.i686
zlib-ng-compat-2.1.5-1.fc40.i686
zstd-1.5.5-4.fc39.i686
Start: buildsrpm
Start: rpmbuild -bs
warning: %patchN is deprecated (9 usages found), use %patch N (or %patch -P N)
Building target platforms: i686
Building for target i686
setting SOURCE_DATE_EPOCH=1689811200
Wrote: /builddir/build/SRPMS/klamav-0.46-42.fc40.src.rpm

RPM build warnings:
    %patchN is deprecated (9 usages found), use %patch N (or %patch -P N)
Finish: rpmbuild -bs
INFO: chroot_scan: 3 files copied to /var/lib/copr-rpmbuild/results/chroot_scan
INFO: /var/lib/mock/fedora-rawhide-i686-1704298146.216836/root/var/log/dnf.rpm.log
/var/lib/mock/fedora-rawhide-i686-1704298146.216836/root/var/log/dnf.librepo.log
/var/lib/mock/fedora-rawhide-i686-1704298146.216836/root/var/log/dnf.log
Finish: buildsrpm
INFO: Done(/var/lib/copr-rpmbuild/workspace/workdir-lwz5l15k/klamav/klamav.spec) Config(child) 1 minutes 11 seconds
INFO: Results and/or logs in: /var/lib/copr-rpmbuild/results
INFO: Cleaning up build root ('cleanup_on_success=True')
Start: clean chroot
INFO: unmounting tmpfs.
Finish: clean chroot
INFO: Start(/var/lib/copr-rpmbuild/results/klamav-0.46-42.fc40.src.rpm)  Config(fedora-rawhide-i686)
Start(bootstrap): chroot init
INFO: mounting tmpfs at /var/lib/mock/fedora-rawhide-i686-bootstrap-1704298146.216836/root.
INFO: reusing tmpfs at /var/lib/mock/fedora-rawhide-i686-bootstrap-1704298146.216836/root.
INFO: calling preinit hooks
INFO: enabled root cache
INFO: enabled package manager cache
Start(bootstrap): cleaning package manager metadata
Finish(bootstrap): cleaning package manager metadata
Finish(bootstrap): chroot init
Start: chroot init
INFO: mounting tmpfs at /var/lib/mock/fedora-rawhide-i686-1704298146.216836/root.
INFO: calling preinit hooks
INFO: enabled root cache
Start: unpacking root cache
Finish: unpacking root cache
INFO: enabled package manager cache
Start: cleaning package manager metadata
Finish: cleaning package manager metadata
INFO: enabled HW Info plugin
INFO: Buildroot is handled by package management downloaded with a bootstrap image:
  rpm-4.19.1-2.fc40.x86_64
  rpm-sequoia-1.5.0-2.fc40.x86_64
  python3-dnf-4.18.2-1.fc40.noarch
  python3-dnf-plugins-core-4.4.4-1.fc40.noarch
  yum-4.18.2-1.fc40.noarch
Finish: chroot init
Start: build phase for klamav-0.46-42.fc40.src.rpm
Start: build setup for klamav-0.46-42.fc40.src.rpm
warning: %patchN is deprecated (9 usages found), use %patch N (or %patch -P N)
Building target platforms: i686
Building for target i686
setting SOURCE_DATE_EPOCH=1689811200
Wrote: /builddir/build/SRPMS/klamav-0.46-42.fc40.src.rpm

RPM build warnings:
    %patchN is deprecated (9 usages found), use %patch N (or %patch -P N)
No matches found for the following disable plugin patterns: local, spacewalk, versionlock
Copr repository                                  25 kB/s | 1.5 kB     00:00    
local                                            30 kB/s | 3.8 kB     00:00    
local                                            14 MB/s |  15 MB     00:01    
Errors during downloading metadata for repository 'local':
  - Status code: 404 for https://kojipkgs.fedoraproject.org/repos/rawhide/latest/i386/repodata/56b32290b8f44501c47f7bd857903860e6bd1a8d654f01ff7d865dcafebf7c89-filelists.xml.gz (IP: 38.145.60.20)
Error: Failed to download metadata for repo 'local': Yum repo downloading error: Downloading error(s): repodata/56b32290b8f44501c47f7bd857903860e6bd1a8d654f01ff7d865dcafebf7c89-filelists.xml.gz - Cannot download, all mirrors were already tried without success
WARNING: DNF command failed, retrying, attempt #2, sleeping 10s
No matches found for the following disable plugin patterns: local, spacewalk, versionlock
Copr repository                                  27 kB/s | 1.5 kB     00:00    
local                                            46 kB/s | 3.8 kB     00:00    
local                                           9.7 MB/s |  15 MB     00:01    
Errors during downloading metadata for repository 'local':
  - Status code: 404 for https://kojipkgs.fedoraproject.org/repos/rawhide/latest/i386/repodata/56b32290b8f44501c47f7bd857903860e6bd1a8d654f01ff7d865dcafebf7c89-filelists.xml.gz (IP: 38.145.60.21)
Error: Failed to download metadata for repo 'local': Yum repo downloading error: Downloading error(s): repodata/56b32290b8f44501c47f7bd857903860e6bd1a8d654f01ff7d865dcafebf7c89-filelists.xml.gz - Cannot download, all mirrors were already tried without success
WARNING: DNF command failed, retrying, attempt #3, sleeping 10s
No matches found for the following disable plugin patterns: local, spacewalk, versionlock
Copr repository                                  13 kB/s | 1.5 kB     00:00    
local                                            30 kB/s | 3.8 kB     00:00    
local                                           3.3 MB/s |  15 MB     00:04    
Errors during downloading metadata for repository 'local':
  - Status code: 404 for https://kojipkgs.fedoraproject.org/repos/rawhide/latest/i386/repodata/56b32290b8f44501c47f7bd857903860e6bd1a8d654f01ff7d865dcafebf7c89-filelists.xml.gz (IP: 38.145.60.20)
Error: Failed to download metadata for repo 'local': Yum repo downloading error: Downloading error(s): repodata/56b32290b8f44501c47f7bd857903860e6bd1a8d654f01ff7d865dcafebf7c89-filelists.xml.gz - Cannot download, all mirrors were already tried without success
Finish: build setup for klamav-0.46-42.fc40.src.rpm
Finish: build phase for klamav-0.46-42.fc40.src.rpm
INFO: chroot_scan: 3 files copied to /var/lib/copr-rpmbuild/results/chroot_scan
INFO: /var/lib/mock/fedora-rawhide-i686-1704298146.216836/root/var/log/dnf.rpm.log
/var/lib/mock/fedora-rawhide-i686-1704298146.216836/root/var/log/dnf.librepo.log
/var/lib/mock/fedora-rawhide-i686-1704298146.216836/root/var/log/dnf.log
ERROR: Exception(/var/lib/copr-rpmbuild/results/klamav-0.46-42.fc40.src.rpm) Config(fedora-rawhide-i686) 0 minutes 32 seconds
INFO: Results and/or logs in: /var/lib/copr-rpmbuild/results
INFO: Cleaning up build root ('cleanup_on_failure=True')
Start: clean chroot
INFO: unmounting tmpfs.
Finish: clean chroot
ERROR: Command failed: 
 # /usr/bin/systemd-nspawn -q -M 5f7f4fb1dadc4b9cafc422c8353c41de -D /var/lib/mock/fedora-rawhide-i686-bootstrap-1704298146.216836/root -a --capability=cap_ipc_lock --rlimit=RLIMIT_NOFILE=10240 --capability=cap_ipc_lock --bind=/tmp/mock-resolv.zh8ys00r:/etc/resolv.conf --console=pipe --setenv=TERM=vt100 --setenv=SHELL=/bin/bash --setenv=HOME=/var/lib/mock/fedora-rawhide-i686-1704298146.216836/root/installation-homedir --setenv=HOSTNAME=mock --setenv=PATH=/usr/bin:/bin:/usr/sbin:/sbin '--setenv=PROMPT_COMMAND=printf "\033]0;<mock-chroot>\007"' '--setenv=PS1=<mock-chroot> \s-\v\$ ' --setenv=LANG=C.UTF-8 --setenv=LC_MESSAGES=C.UTF-8 --setenv=SYSTEMD_NSPAWN_TMPFS_TMP=0 --setenv=SYSTEMD_SECCOMP=0 --resolv-conf=off /usr/bin/dnf-3 builddep --installroot /var/lib/mock/fedora-rawhide-i686-1704298146.216836/root/ --releasever 40 --setopt=deltarpm=False --setopt=allow_vendor_change=yes --allowerasing --disableplugin=local --disableplugin=spacewalk --disableplugin=versionlock /var/lib/mock/fedora-rawhide-i686-1704298146.216836/root//builddir/build/SRPMS/klamav-0.46-42.fc40.src.rpm --setopt=tsflags=nocontexts --setopt=tsflags=nocontexts --setopt=tsflags=nocontexts
No matches found for the following disable plugin patterns: local, spacewalk, versionlock
Copr repository                                  13 kB/s | 1.5 kB     00:00    
local                                            30 kB/s | 3.8 kB     00:00    
local                                           3.3 MB/s |  15 MB     00:04    
Errors during downloading metadata for repository 'local':
  - Status code: 404 for https://kojipkgs.fedoraproject.org/repos/rawhide/latest/i386/repodata/56b32290b8f44501c47f7bd857903860e6bd1a8d654f01ff7d865dcafebf7c89-filelists.xml.gz (IP: 38.145.60.20)
Error: Failed to download metadata for repo 'local': Yum repo downloading error: Downloading error(s): repodata/56b32290b8f44501c47f7bd857903860e6bd1a8d654f01ff7d865dcafebf7c89-filelists.xml.gz - Cannot download, all mirrors were already tried without success

Copr build error: Build failed
